4/21/2022	1:39 PM	0.009	9.749	0.000	0.000	0.000	0.000	0.000	0.000	0.000	9.611	0.000	0.000	9.541	0.000	0.000	0.000	0.000	0.000	9.848	0.000	9.859
4/21/2022	1:50 PM	0.185	9.750	0.001	0.000	0.000	0.001	0.000	0.000	0.000	9.613	0.001	0.001	9.541	0.001	0.000	0.001	0.000	0.001	9.847	0.001	9.858
4/21/2022	2:00 PM	0.361	9.750	0.001	0.000	0.000	0.001	0.000	0.000	0.000	9.615	0.001	0.001	9.542	0.001	0.000	0.001	0.000	0.001	9.848	0.001	9.860
4/21/2022	2:11 PM	0.536	9.752	0.001	0.000	0.000	0.001	0.000	0.000	0.000	9.616	0.001	0.001	9.542	0.001	0.000	0.001	0.000	0.001	9.849	0.001	9.860
4/21/2022	2:22 PM	0.712	9.752	0.001	0.000	0.000	0.001	0.000	0.000	0.000	9.618	0.001	0.001	9.543	0.001	0.000	0.001	0.000	0.001	9.851	0.001	9.860
4/21/2022	2:32 PM	0.888	9.753	0.001	0.000	0.000	0.001	0.000	0.000	0.000	9.618	0.001	0.001	9.543	0.001	0.000	0.001	0.000	0.001	9.850	0.001	9.860
4/21/2022	2:43 PM	1.064	9.754	0.001	0.000	0.000	0.001	0.000	0.000	0.000	9.618	0.001	0.001	9.543	0.001	0.000	0.001	0.000	0.001	9.851	0.001	9.862
4/21/2022	2:53 PM	1.240	9.754	0.001	0.000	0.000	0.001	0.000	0.000	0.000	9.619	0.001	0.001	9.544	0.001	0.000	0.001	0.000	0.001	9.851	0.001	9.862
4/21/2022	3:04 PM	1.415	9.753	0.001	0.000	0.000	0.001	0.000	0.000	0.000	9.619	0.001	0.001	9.544	0.001	0.000	0.001	0.000	0.001	9.852	0.001	9.862
4/21/2022	3:14 PM	1.591	9.753	0.001	0.000	0.000	0.001	0.000	0.000	0.000	9.619	0.001	0.001	9.544	0.001	0.000	0.001	0.000	0.001	9.851	0.001	9.862
4/21/2022	3:25 PM	1.767	9.753	0.001	0.000	0.000	0.001	0.000	0.000	0.000	9.621	0.001	0.001	9.543	0.001	0.000	0.001	0.000	0.001	9.851	0.001	9.862
4/21/2022	3:35 PM	1.943	9.754	0.001	0.000	0.000	0.001	0.000	0.000	0.000	9.621	0.001	0.001	9.544	0.001	0.000	0.001	0.000	0.001	9.852	0.001	9.863
4/21/2022	3:46 PM	2.119	9.753	0.001	0.000	0.000	0.001	0.000	0.000	0.000	9.621	0.001	0.001	9.545	0.001	0.000	0.001	0.000	0.001	9.852	0.001	9.863
4/21/2022	3:56 PM	2.294	9.754	0.001	0.000	0.000	0.001	0.000	0.000	0.000	9.622	0.001	0.001	9.545	0.001	0.000	0.001	0.000	0.001	9.851	0.001	9.863
4/21/2022	4:07 PM	2.470	9.754	0.001	0.000	0.000	0.001	0.000	0.000	0.000	9.622	0.001	0.001	9.545	0.001	0.000	0.001	0.000	0.001	9.851	0.001	9.865
4/21/2022	4:18 PM	2.646	9.755	0.001	0.000	0.000	0.001	0.000	0.000	0.000	9.622	0.001	0.001	9.546	0.001	0.000	0.001	0.000	0.001	9.853	0.001	9.864
4/21/2022	4:28 PM	2.822	9.755	0.001	0.000	0.000	0.001	0.000	0.000	0.000	9.623	0.001	0.001	9.546	0.001	0.000	0.001	0.000	0.001	9.852	0.001	9.864
4/21/2022	4:39 PM	2.997	0.001	9.820	9.770	9.636	9.611	9.836	9.580	9.696	0.001	9.763	9.706	0.001	9.675	9.514	9.956	9.834	9.957	0.001	9.471	0.001
4/21/2022	4:39 PM	3.007	9.742	0.001	0.000	0.000	0.001	0.000	0.000	0.001	9.608	0.001	0.001	9.536	0.001	0.000	0.001	0.000	0.001	9.844	0.001	9.852
4/21/2022	4:50 PM	3.182	9.749	0.001	0.000	0.000	0.001	0.000	0.000	0.000	9.616	0.001	0.001	9.541	0.001	0.000	0.001	0.000	0.001	9.849	0.001	9.859
4/21/2022	5:00 PM	3.358	9.752	0.001	0.000	0.000	0.001	0.000	0.000	0.000	9.617	0.001	0.001	9.543	0.001	0.000	0.001	0.000	0.001	9.849	0.001	9.861
4/21/2022	5:11 PM	3.534	9.753	0.001	0.000	0.000	0.001	0.000	0.000	0.000	9.619	0.001	0.001	9.545	0.001	0.000	0.001	0.000	0.001	9.849	0.001	9.862
4/21/2022	5:21 PM	3.710	9.754	0.001	0.000	0.000	0.001	0.000	0.000	0.000	9.620	0.001	0.001	9.545	0.001	0.000	0.001	0.000	0.001	9.850	0.001	9.862
4/21/2022	5:32 PM	3.885	9.754	0.001	0.000	0.000	0.001	0.000	0.000	0.000	9.622	0.001	0.001	9.546	0.001	0.000	0.001	0.000	0.001	9.850	0.001	9.863
4/21/2022	5:42 PM	4.061	9.754	0.001	0.000	0.000	0.001	0.000	0.000	0.000	9.622	0.001	0.001	9.545	0.001	0.000	0.001	0.000	0.001	9.853	0.001	9.864
4/21/2022	5:53 PM	4.237	9.754	0.001	0.000	0.000	0.001	0.000	0.000	0.000	9.622	0.001	0.001	9.545	0.001	0.000	0.001	0.000	0.001	9.855	0.001	9.864
4/21/2022	6:04 PM	4.413	9.755	0.001	0.000	0.000	0.001	0.000	0.000	0.000	9.624	0.001	0.001	9.545	0.001	0.000	0.001	0.000	0.001	9.855	0.001	9.863
4/21/2022	6:14 PM	4.589	9.755	0.001	0.000	0.000	0.001	0.000	0.000	0.000	9.624	0.001	0.001	9.545	0.001	0.000	0.001	0.000	0.001	9.855	0.001	9.863
4/21/2022	6:25 PM	4.764	9.756	0.001	0.000	0.000	0.001	0.000	0.000	0.000	9.623	0.001	0.001	9.547	0.001	0.000	0.001	0.000	0.001	9.855	0.001	9.864
4/21/2022	6:35 PM	4.940	9.755	0.001	0.000	0.000	0.001	0.000	0.000	0.000	9.624	0.001	0.001	9.546	0.001	0.000	0.001	0.000	0.001	9.855	0.001	9.864
4/21/2022	6:46 PM	5.116	9.756	0.001	0.000	0.000	0.001	0.000	0.000	0.000	9.625	0.001	0.001	9.546	0.001	0.000	0.001	0.000	0.001	9.854	0.001	9.866
4/21/2022	6:56 PM	5.292	9.755	0.001	0.000	0.000	0.001	0.000	0.000	0.000	9.625	0.001	0.001	9.545	0.001	0.000	0.001	0.000	0.001	9.854	0.001	9.865
4/21/2022	7:07 PM	5.467	9.755	0.001	0.000	0.000	0.001	0.000	0.000	0.000	9.626	0.001	0.001	9.545	0.001	0.000	0.001	0.000	0.001	9.856	0.001	9.865
4/21/2022	7:17 PM	5.643	9.755	0.001	0.000	0.000	0.001	0.000	0.000	0.000	9.625	0.001	0.001	9.546	0.001	0.000	0.001	0.000	0.001	9.855	0.001	9.865
4/21/2022	7:28 PM	5.819	9.756	0.001	0.000	0.000	0.001	0.000	0.000	0.000	9.626	0.001	0.001	9.546	0.001	0.000	0.001	0.000	0.001	9.855	0.001	9.865
4/21/2022	7:39 PM	5.995	0.001	9.820	9.769	9.636	9.610	9.835	9.578	9.695	0.001	9.763	9.705	0.001	9.673	9.514	9.956	9.834	9.956	0.001	9.471	0.001
4/21/2022	7:39 PM	6.004	9.743	0.001	0.000	0.000	0.001	0.000	0.000	0.001	9.610	0.001	0.001	9.537	0.001	0.000	0.001	0.000	0.001	9.844	0.001	9.855
4/21/2022	7:50 PM	6.180	9.751	0.001	0.000	0.000	0.001	0.000	0.000	0.000	9.619	0.001	0.001	9.542	0.001	0.000	0.001	0.000	0.001	9.851	0.001	9.861
4/21/2022	8:00 PM	6.356	9.752	0.001	0.000	0.000	0.001	0.000	0.000	0.000	9.622	0.001	0.001	9.544	0.001	0.000	0.001	0.000	0.001	9.852	0.001	9.861
4/21/2022	8:11 PM	6.531	9.753	0.001	0.000	0.000	0.001	0.000	0.000	0.000	9.623	0.001	0.001	9.545	0.001	0.000	0.001	0.000	0.001	9.854	0.001	9.862
4/21/2022	8:21 PM	6.707	9.753	0.001	0.000	0.000	0.001	0.000	0.000	0.000	9.623	0.001	0.001	9.546	0.001	0.000	0.001	0.000	0.001	9.854	0.001	9.864
4/21/2022	8:32 PM	6.883	9.753	0.001	0.000	0.000	0.001	0.000	0.000	0.000	9.624	0.001	0.001	9.547	0.001	0.000	0.001	0.000	0.001	9.853	0.001	9.865
4/21/2022	8:42 PM	7.059	9.753	0.001	0.000	0.000	0.001	0.000	0.000	0.000	9.625	0.001	0.001	9.546	0.001	0.000	0.001	0.000	0.001	9.854	0.001	9.866
4/21/2022	8:53 PM	7.234	9.753	0.001	0.000	0.000	0.001	0.000	0.000	0.000	9.625	0.001	0.001	9.547	0.001	0.000	0.001	0.000	0.001	9.854	0.001	9.866
4/21/2022	9:03 PM	7.410	9.753	0.001	0.000	0.000	0.001	0.000	0.000	0.000	9.625	0.001	0.001	9.546	0.001	0.000	0.001	0.000	0.001	9.855	0.001	9.866
4/21/2022	9:14 PM	7.586	9.753	0.001	0.000	0.000	0.001	0.000	0.000	0.000	9.627	0.001	0.001	9.547	0.001	0.000	0.001	0.000	0.001	9.855	0.001	9.867
4/21/2022	9:25 PM	7.762	9.755	0.001	0.000	0.000	0.001	0.000	0.000	0.000	9.628	0.001	0.001	9.547	0.001	0.000	0.001	0.000	0.001	9.855	0.001	9.867
4/21/2022	9:35 PM	7.938	9.753	0.001	0.000	0.000	0.001	0.000	0.000	0.000	9.628	0.001	0.001	9.547	0.001	0.000	0.001	0.000	0.001	9.855	0.001	9.867
4/21/2022	9:46 PM	8.113	9.754	0.001	0.000	0.000	0.001	0.000	0.000	0.000	9.628	0.001	0.001	9.547	0.001	0.000	0.001	0.000	0.001	9.856	0.001	9.867
4/21/2022	9:56 PM	8.289	9.754	0.001	0.000	0.000	0.001	0.000	0.000	0.000	9.628	0.001	0.001	9.548	0.001	0.000	0.001	0.000	0.001	9.855	0.001	9.868
4/21/2022	10:07 PM	8.465	9.755	0.001	0.000	0.000	0.001	0.000	0.000	0.000	9.629	0.001	0.001	9.548	0.001	0.000	0.001	0.000	0.001	9.856	0.001	9.867
4/21/2022	10:17 PM	8.641	9.754	0.001	0.000	0.000	0.001	0.000	0.000	0.000	9.629	0.001	0.001	9.548	0.001	0.000	0.001	0.000	0.001	9.856	0.001	9.868
4/21/2022	10:28 PM	8.817	9.755	0.001	0.000	0.000	0.001	0.000	0.000	0.000	9.628	0.001	0.001	9.549	0.001	0.000	0.001	0.000	0.001	9.856	0.001	9.867
4/21/2022	10:38 PM	8.992	0.001	9.821	9.770	9.637	9.610	9.834	9.580	9.695	0.001	9.762	9.705	0.001	9.675	9.511	9.956	9.836	9.957	0.001	9.471	0.001
4/21/2022	10:39 PM	9.001	9.745	0.001	0.000	0.000	0.001	0.000	0.000	0.001	9.612	0.001	0.001	9.536	0.001	0.000	0.001	0.000	0.001	9.844	0.001	9.857
4/21/2022	10:49 PM	9.177	9.752	0.001	0.000	0.000	0.001	0.000	0.000	0.000	9.620	0.001	0.001	9.543	0.001	0.000	0.001	0.000	0.001	9.852	0.001	9.863
4/21/2022	11:00 PM	9.353	9.754	0.001	0.000	0.000	0.001	0.000	0.000	0.000	9.622	0.001	0.001	9.544	0.001	0.000	0.001	0.000	0.001	9.853	0.001	9.864
4/21/2022	11:11 PM	9.529	9.753	0.001	0.000	0.000	0.001	0.000	0.000	0.000	9.623	0.001	0.001	9.545	0.001	0.000	0.001	0.000	0.001	9.857	0.001	9.865
4/21/2022	11:21 PM	9.705	9.754	0.001	0.000	0.000	0.001	0.000	0.000	0.000	9.624	0.001	0.001	9.547	0.001	0.000	0.001	0.000	0.001	9.856	0.001	9.865
4/21/2022	11:32 PM	9.880	9.754	0.001	0.000	0.000	0.001	0.000	0.000	0.000	9.623	0.001	0.001	9.547	0.001	0.000	0.001	0.000	0.001	9.856	0.001	9.865
4/21/2022	11:42 PM	10.056	9.754	0.001	0.000	0.000	0.001	0.000	0.000	0.000	9.625	0.001	0.001	9.547	0.001	0.000	0.001	0.000	0.001	9.857	0.001	9.866
4/21/2022	11:53 PM	10.232	9.755	0.001	0.000	0.000	0.001	0.000	0.000	0.000	9.625	0.001	0.001	9.546	0.001	0.000	0.001	0.000	0.001	9.857	0.001	9.867
4/22/2022	12:03 AM	10.408	9.755	0.001	0.000	0.000	0.001	0.000	0.000	0.000	9.626	0.001	0.001	9.548	0.001	0.000	0.001	0.000	0.001	9.858	0.001	9.866
4/22/2022	12:14 AM	10.584	9.756	0.001	0.000	0.000	0.001	0.000	0.000	0.000	9.626	0.001	0.001	9.548	0.001	0.000	0.001	0.000	0.001	9.857	0.001	9.867
4/22/2022	12:24 AM	10.759	9.755	0.001	0.000	0.000	0.001	0.000	0.000	0.000	9.627	0.001	0.001	9.548	0.001	0.000	0.001	0.000	0.001	9.858	0.001	9.867
4/22/2022	12:35 AM	10.935	9.755	0.001	0.000	0.000	0.001	0.000	0.000	0.000	9.628	0.001	0.001	9.549	0.001	0.000	0.001	0.000	0.001	9.858	0.001	9.867
4/22/2022	12:45 AM	11.111	9.755	0.001	0.000	0.000	0.001	0.000	0.000	0.000	9.627	0.001	0.001	9.548	0.001	0.000	0.001	0.000	0.001	9.859	0.001	9.868
4/22/2022	12:56 AM	11.287	9.756	0.001	0.000	0.000	0.001	0.000	0.000	0.000	9.627	0.001	0.001	9.549	0.001	0.000	0.001	0.000	0.001	9.859	0.001	9.867
4/22/2022	1:07 AM	11.462	9.756	0.001	0.000	0.000	0.001	0.000	0.000	0.000	9.627	0.001	0.001	9.548	0.001	0.000	0.001	0.000	0.001	9.857	0.001	9.867
4/22/2022	1:17 AM	11.638	9.757	0.001	0.000	0.000	0.001	0.000	0.000	0.000	9.627	0.001	0.001	9.549	0.001	0.000	0.001	0.000	0.001	9.859	0.001	9.868
4/22/2022	1:28 AM	11.814	9.756	0.001	0.000	0.000	0.001	0.000	0.000	0.000	9.627	0.001	0.001	9.548	0.001	0.000	0.001	0.000	0.001	9.859	0.001	9.867
4/22/2022	1:38 AM	11.990	0.001	9.823	9.770	9.637	9.609	9.836	9.580	9.695	0.001	9.761	9.705	0.001	9.674	9.514	9.956	9.835	9.957	0.001	9.471	0.001
4/22/2022	1:39 AM	11.999	9.742	0.001	0.000	0.000	0.001	0.000	0.000	0.001	9.615	0.001	0.001	9.540	0.001	0.000	0.001	0.000	0.001	9.847	0.001	9.857
4/22/2022	1:49 AM	12.175	9.749	0.001	0.000	0.000	0.001	0.000	0.000	0.000	9.623	0.001	0.001	9.543	0.001	0.000	0.001	0.000	0.001	9.853	0.001	9.861
4/22/2022	2:00 AM	12.350	9.751	0.001	0.000	0.000	0.001	0.000	0.000	0.000	9.626	0.001	0.001	9.544	0.001	0.000	0.001	0.000	0.001	9.853	0.001	9.863
4/22/2022	2:10 AM	12.526	9.753	0.001	0.000	0.000	0.001	0.000	0.000	0.000	9.625	0.001	0.001	9.546	0.001	0.000	0.001	0.000	0.001	9.854	0.001	9.863
4/22/2022	2:21 AM	12.702	9.753	0.001	0.000	0.000	0.001	0.000	0.000	0.000	9.626	0.001	0.001	9.546	0.001	0.000	0.001	0.000	0.001	9.854	0.001	9.863
4/22/2022	2:31 AM	12.878	9.753	0.001	0.000	0.000	0.001	0.000	0.000	0.000	9.626	0.001	0.001	9.546	0.001	0.000	0.001	0.000	0.001	9.856	0.001	9.865
4/22/2022	2:42 AM	13.054	9.753	0.001	0.000	0.000	0.001	0.000	0.000	0.000	9.628	0.001	0.001	9.546	0.001	0.000	0.001	0.000	0.001	9.857	0.001	9.865
4/22/2022	2:53 AM	13.229	9.753	0.001	0.000	0.000	0.001	0.000	0.000	0.000	9.627	0.001	0.001	9.547	0.001	0.000	0.001	0.000	0.001	9.857	0.001	9.865
4/22/2022	3:03 AM	13.405	9.753	0.001	0.000	0.000	0.001	0.000	0.000	0.000	9.627	0.001	0.001	9.547	0.001	0.000	0.001	0.000	0.001	9.858	0.001	9.865
4/22/2022	3:14 AM	13.581	9.752	0.001	0.000	0.000	0.001	0.000	0.000	0.000	9.628	0.001	0.001	9.548	0.001	0.000	0.001	0.000	0.001	9.858	0.001	9.865
4/22/2022	3:24 AM	13.757	9.753	0.001	0.000	0.000	0.001	0.000	0.000	0.000	9.628	0.001	0.001	9.547	0.001	0.000	0.001	0.000	0.001	9.859	0.001	9.866
4/22/2022	3:35 AM	13.933	9.754	0.001	0.000	0.000	0.001	0.000	0.000	0.000	9.628	0.001	0.001	9.547	0.001	0.000	0.001	0.000	0.001	9.859	0.001	9.866
4/22/2022	3:45 AM	14.108	9.753	0.001	0.000	0.000	0.001	0.000	0.000	0.000	9.629	0.001	0.001	9.547	0.001	0.000	0.001	0.000	0.001	9.858	0.001	9.866
4/22/2022	3:56 AM	14.284	9.754	0.001	0.000	0.000	0.001	0.000	0.000	0.000	9.629	0.001	0.001	9.548	0.001	0.000	0.001	0.000	0.001	9.859	0.001	9.866
4/22/2022	4:06 AM	14.460	9.754	0.001	0.000	0.000	0.001	0.000	0.000	0.000	9.629	0.001	0.001	9.548	0.001	0.000	0.001	0.000	0.001	9.858	0.001	9.867
4/22/2022	4:17 AM	14.636	9.754	0.001	0.000	0.000	0.001	0.000	0.000	0.000	9.630	0.001	0.001	9.547	0.001	0.000	0.001	0.000	0.001	9.858	0.001	9.866
4/22/2022	4:28 AM	14.812	9.755	0.001	0.000	0.000	0.001	0.000	0.000	0.000	9.630	0.001	0.001	9.548	0.001	0.000	0.001	0.000	0.001	9.859	0.001	9.867
4/22/2022	4:38 AM	14.987	0.001	9.823	9.770	9.636	9.610	9.834	9.580	9.695	0.001	9.763	9.706	0.001	9.674	9.514	9.959	9.833	9.956	0.001	9.467	0.001
4/22/2022	4:39 AM	14.996	9.745	0.001	0.000	0.000	0.001	0.000	0.000	0.001	9.617	0.001	0.001	9.538	0.001	0.000	0.001	0.000	0.001	9.846	0.001	9.855
4/22/2022	4:49 AM	15.172	9.752	0.001	0.000	0.000	0.001	0.000	0.000	0.000	9.623	0.001	0.001	9.545	0.001	0.000	0.001	0.000	0.001	9.856	0.001	9.863
4/22/2022	5:00 AM	15.348	9.752	0.001	0.000	0.000	0.001	0.000	0.000	0.000	9.626	0.001	0.001	9.546	0.001	0.000	0.001	0.000	0.001	9.856	0.001	9.864
4/22/2022	5:10 AM	15.524	9.753	0.001	0.000	0.000	0.001	0.000	0.000	0.000	9.626	0.001	0.001	9.546	0.001	0.000	0.001	0.000	0.001	9.857	0.001	9.864
4/22/2022	5:21 AM	15.700	9.754	0.001	0.000	0.000	0.001	0.000	0.000	0.000	9.627	0.001	0.001	9.549	0.001	0.000	0.001	0.000	0.001	9.859	0.001	9.865
4/22/2022	5:31 AM	15.875	9.754	0.001	0.000	0.000	0.001	0.000	0.000	0.000	9.627	0.001	0.001	9.548	0.001	0.000	0.001	0.000	0.001	9.859	0.001	9.866
4/22/2022	5:42 AM	16.051	9.755	0.001	0.000	0.000	0.001	0.000	0.000	0.000	9.626	0.001	0.001	9.548	0.001	0.000	0.001	0.000	0.001	9.859	0.001	9.866
4/22/2022	5:52 AM	16.227	9.755	0.001	0.000	0.000	0.001	0.000	0.000	0.000	9.627	0.001	0.001	9.550	0.001	0.000	0.001	0.000	0.001	9.858	0.001	9.866
4/22/2022	6:03 AM	16.403	9.756	0.001	0.000	0.000	0.001	0.000	0.000	0.000	9.627	0.001	0.001	9.549	0.001	0.000	0.001	0.000	0.001	9.858	0.001	9.866
4/22/2022	6:14 AM	16.578	9.756	0.001	0.000	0.000	0.001	0.000	0.000	0.000	9.628	0.001	0.001	9.550	0.001	0.000	0.001	0.000	0.001	9.859	0.001	9.865
4/22/2022	6:24 AM	16.754	9.756	0.001	0.000	0.000	0.001	0.000	0.000	0.000	9.628	0.001	0.001	9.550	0.001	0.000	0.001	0.000	0.001	9.858	0.001	9.866
4/22/2022	6:35 AM	16.930	9.756	0.001	0.000	0.000	0.001	0.000	0.000	0.000	9.628	0.001	0.001	9.549	0.001	0.000	0.001	0.000	0.001	9.859	0.001	9.866
4/22/2022	6:45 AM	17.106	9.755	0.001	0.000	0.000	0.001	0.000	0.000	0.000	9.627	0.001	0.001	9.550	0.001	0.000	0.001	0.000	0.001	9.860	0.001	9.865
4/22/2022	6:56 AM	17.282	9.755	0.001	0.000	0.000	0.001	0.000	0.000	0.000	9.628	0.001	0.001	9.550	0.001	0.000	0.001	0.000	0.001	9.860	0.001	9.866
4/22/2022	7:06 AM	17.457	9.756	0.001	0.000	0.000	0.001	0.000	0.000	0.000	9.629	0.001	0.001	9.550	0.001	0.000	0.001	0.000	0.001	9.860	0.001	9.865
4/22/2022	7:17 AM	17.633	9.757	0.001	0.000	0.000	0.001	0.000	0.000	0.000	9.630	0.001	0.001	9.550	0.001	0.000	0.001	0.000	0.001	9.860	0.001	9.866
4/22/2022	7:27 AM	17.809	9.756	0.001	0.000	0.000	0.001	0.000	0.000	0.000	9.630	0.001	0.001	9.550	0.001	0.000	0.001	0.000	0.001	9.860	0.001	9.866
4/22/2022	7:38 AM	17.985	0.001	9.824	9.769	9.636	9.611	9.834	9.579	9.696	0.001	9.762	9.706	0.002	9.673	9.513	9.956	9.834	9.957	0.001	9.470	0.001
4/22/2022	7:38 AM	17.994	9.746	0.001	0.000	0.000	0.001	0.000	0.000	0.001	9.618	0.001	0.001	9.540	0.001	0.000	0.001	0.000	0.001	9.848	0.001	9.857
4/22/2022	7:49 AM	18.170	9.753	0.001	0.000	0.000	0.001	0.000	0.000	0.000	9.624	0.001	0.001	9.544	0.001	0.000	0.001	0.000	0.001	9.855	0.001	9.863
4/22/2022	8:00 AM	18.345	9.754	0.001	0.000	0.000	0.001	0.000	0.000	0.000	9.626	0.001	0.001	9.546	0.001	0.000	0.001	0.000	0.001	9.858	0.001	9.865
4/22/2022	8:10 AM	18.521	9.754	0.001	0.000	0.000	0.001	0.000	0.000	0.000	9.626	0.001	0.001	9.546	0.001	0.000	0.001	0.000	0.001	9.859	0.001	9.867
4/22/2022	8:21 AM	18.697	9.754	0.001	0.000	0.000	0.001	0.000	0.000	0.000	9.627	0.001	0.001	9.546	0.001	0.000	0.001	0.000	0.001	9.858	0.001	9.868
4/22/2022	8:31 AM	18.873	9.755	0.001	0.000	0.000	0.001	0.000	0.000	0.000	9.628	0.001	0.001	9.548	0.001	0.000	0.001	0.000	0.001	9.860	0.001	9.868
4/22/2022	8:42 AM	19.049	9.757	0.001	0.000	0.000	0.001	0.000	0.000	0.000	9.628	0.001	0.001	9.547	0.001	0.000	0.001	0.000	0.001	9.860	0.001	9.868
4/22/2022	8:52 AM	19.224	9.756	0.001	0.000	0.000	0.001	0.000	0.000	0.000	9.628	0.001	0.001	9.547	0.001	0.000	0.001	0.000	0.001	9.860	0.001	9.867
4/22/2022	9:03 AM	19.400	9.756	0.001	0.000	0.000	0.001	0.000	0.000	0.000	9.628	0.001	0.001	9.548	0.001	0.000	0.001	0.000	0.001	9.859	0.001	9.868
4/22/2022	9:13 AM	19.576	9.756	0.001	0.000	0.000	0.001	0.000	0.000	0.000	9.629	0.001	0.001	9.548	0.001	0.000	0.001	0.000	0.001	9.860	0.001	9.869
4/22/2022	9:24 AM	19.752	9.756	0.001	0.000	0.000	0.001	0.000	0.000	0.000	9.629	0.001	0.001	9.548	0.001	0.000	0.001	0.000	0.001	9.860	0.001	9.868
4/22/2022	9:34 AM	19.928	9.757	0.001	0.000	0.000	0.001	0.000	0.000	0.000	9.629	0.001	0.001	9.548	0.001	0.000	0.001	0.000	0.001	9.861	0.001	9.869
4/22/2022	9:45 AM	20.103	9.756	0.001	0.000	0.000	0.001	0.000	0.000	0.000	9.630	0.001	0.001	9.549	0.001	0.000	0.001	0.000	0.001	9.860	0.001	9.869
4/22/2022	9:56 AM	20.279	9.757	0.001	0.000	0.000	0.001	0.000	0.000	0.000	9.630	0.001	0.001	9.548	0.001	0.000	0.001	0.000	0.001	9.860	0.001	9.868
4/22/2022	10:06 AM	20.455	9.757	0.001	0.000	0.000	0.001	0.000	0.000	0.000	9.630	0.001	0.001	9.548	0.001	0.000	0.001	0.000	0.001	9.860	0.001	9.869
4/22/2022	10:17 AM	20.631	9.758	0.001	0.000	0.000	0.001	0.000	0.000	0.000	9.631	0.001	0.001	9.549	0.001	0.000	0.001	0.000	0.001	9.861	0.001	9.869
4/22/2022	10:27 AM	20.806	9.757	0.001	0.000	0.000	0.001	0.000	0.000	0.000	9.630	0.001	0.001	9.549	0.001	0.000	0.001	0.000	0.001	9.861	0.001	9.869
4/22/2022	10:38 AM	20.982	0.001	9.823	9.769	9.637	9.609	9.832	9.581	9.695	0.001	9.761	9.705	0.002	9.674	9.515	9.959	9.834	9.958	0.001	9.469	0.001
4/22/2022	10:38 AM	20.991	9.746	0.001	0.000	0.000	0.001	0.000	0.000	0.001	9.617	0.001	0.001	9.539	0.001	0.000	0.001	0.000	0.001	9.850	0.001	9.859
4/22/2022	10:49 AM	21.167	9.752	0.001	0.000	0.000	0.001	0.000	0.000	0.000	9.626	0.001	0.001	9.544	0.001	0.000	0.001	0.000	0.001	9.857	0.001	9.865
4/22/2022	10:59 AM	21.343	9.754	0.001	0.000	0.000	0.001	0.000	0.000	0.000	9.627	0.001	0.001	9.545	0.001	0.000	0.001	0.000	0.001	9.858	0.001	9.865
4/22/2022	11:10 AM	21.519	9.754	0.001	0.000	0.000	0.001	0.000	0.000	0.000	9.628	0.001	0.001	9.545	0.001	0.000	0.001	0.000	0.001	9.858	0.001	9.866
4/22/2022	11:20 AM	21.695	9.756	0.001	0.000	0.000	0.001	0.000	0.000	0.000	9.629	0.001	0.001	9.546	0.001	0.000	0.001	0.000	0.001	9.858	0.001	9.866
4/22/2022	11:31 AM	21.870	9.756	0.001	0.000	0.000	0.001	0.000	0.000	0.000	9.627	0.001	0.001	9.547	0.001	0.000	0.001	0.000	0.001	9.859	0.001	9.866
4/22/2022	11:42 AM	22.046	9.755	0.001	0.000	0.000	0.001	0.000	0.000	0.000	9.629	0.001	0.001	9.546	0.001	0.000	0.001	0.000	0.001	9.858	0.001	9.866
4/22/2022	11:52 AM	22.222	9.755	0.001	0.000	0.000	0.001	0.000	0.000	0.000	9.630	0.001	0.001	9.547	0.001	0.000	0.001	0.000	0.001	9.859	0.001	9.866
4/22/2022	12:03 PM	22.398	9.756	0.001	0.000	0.000	0.001	0.000	0.000	0.000	9.629	0.001	0.001	9.547	0.001	0.000	0.001	0.000	0.001	9.860	0.001	9.867
4/22/2022	12:13 PM	22.574	9.757	0.001	0.000	0.000	0.001	0.000	0.000	0.000	9.630	0.001	0.001	9.548	0.001	0.000	0.001	0.000	0.001	9.860	0.001	9.867
4/22/2022	12:24 PM	22.749	9.756	0.001	0.000	0.000	0.001	0.000	0.000	0.000	9.631	0.001	0.001	9.548	0.001	0.000	0.001	0.000	0.001	9.859	0.001	9.867
4/22/2022	12:34 PM	22.925	9.757	0.001	0.000	0.000	0.001	0.000	0.000	0.000	9.631	0.001	0.001	9.548	0.001	0.000	0.001	0.000	0.001	9.860	0.001	9.867
4/22/2022	12:45 PM	23.101	9.757	0.001	0.000	0.000	0.001	0.000	0.000	0.000	9.632	0.001	0.001	9.549	0.001	0.000	0.001	0.000	0.001	9.859	0.001	9.867
4/22/2022	12:55 PM	23.277	9.757	0.001	0.000	0.000	0.001	0.000	0.000	0.000	9.631	0.001	0.001	9.548	0.001	0.000	0.001	0.000	0.001	9.860	0.001	9.867
4/22/2022	1:06 PM	23.453	9.757	0.001	0.000	0.000	0.001	0.000	0.000	0.000	9.631	0.001	0.001	9.548	0.001	0.000	0.001	0.000	0.001	9.861	0.001	9.867
4/22/2022	1:17 PM	23.628	9.757	0.001	0.000	0.000	0.001	0.000	0.000	0.000	9.633	0.001	0.001	9.549	0.001	0.000	0.001	0.000	0.001	9.859	0.001	9.867
4/22/2022	1:27 PM	23.804	9.757	0.001	0.000	0.000	0.001	0.000	0.000	0.000	9.633	0.001	0.001	9.548	0.001	0.000	0.001	0.000	0.001	9.860	0.001	9.867
4/22/2022	1:38 PM	23.980	0.001	9.822	9.770	9.635	9.610	9.834	9.581	9.695	0.001	9.761	9.704	0.002	9.674	9.514	9.958	9.835	9.958	0.001	9.469	0.001
4/22/2022	1:38 PM	23.989	9.745	0.001	0.000	0.000	0.001	0.000	0.000	0.001	9.618	0.001	0.001	9.539	0.001	0.000	0.001	0.000	0.001	9.848	0.001	9.858
4/22/2022	1:49 PM	24.165	9.750	0.001	0.000	0.000	0.001	0.000	0.000	0.000	9.627	0.001	0.001	9.544	0.001	0.000	0.001	0.000	0.001	9.856	0.001	9.865
4/22/2022	1:59 PM	24.341	9.753	0.001	0.000	0.000	0.001	0.000	0.000	0.000	9.629	0.001	0.001	9.544	0.001	0.000	0.001	0.000	0.001	9.854	0.001	9.866
4/22/2022	2:10 PM	24.516	9.754	0.001	0.000	0.000	0.001	0.000	0.000	0.000	9.629	0.001	0.001	9.545	0.001	0.000	0.001	0.000	0.001	9.855	0.001	9.866
4/22/2022	2:20 PM	24.692	9.754	0.001	0.000	0.000	0.001	0.000	0.000	0.000	9.629	0.001	0.001	9.546	0.001	0.000	0.001	0.000	0.001	9.856	0.001	9.868
4/22/2022	2:31 PM	24.868	9.755	0.001	0.000	0.000	0.000	0.000	0.000	0.000	9.631	0.001	0.001	9.548	0.001	0.000	0.000	0.000	0.000	9.856	0.001	9.868
4/22/2022	2:41 PM	25.044	9.755	0.001	0.000	0.000	0.001	0.000	0.000	0.000	9.632	0.001	0.001	9.548	0.001	0.000	0.001	0.000	0.001	9.857	0.001	9.867
4/22/2022	2:52 PM	25.220	9.755	0.001	0.000	0.000	0.001	0.000	0.000	0.000	9.633	0.001	0.001	9.548	0.001	0.000	0.001	0.000	0.001	9.857	0.001	9.868
4/22/2022	3:03 PM	25.395	9.756	0.001	0.000	0.000	0.001	0.000	0.000	0.000	9.632	0.001	0.001	9.549	0.001	0.000	0.001	0.000	0.001	9.858	0.001	9.868
4/22/2022	3:13 PM	25.571	9.755	0.001	0.000	0.000	0.001	0.000	0.000	0.000	9.632	0.001	0.001	9.549	0.001	0.000	0.001	0.000	0.001	9.858	0.001	9.869
4/22/2022	3:24 PM	25.747	9.755	0.001	0.000	0.000	0.001	0.000	0.000	0.000	9.632	0.001	0.001	9.549	0.001	0.000	0.001	0.000	0.001	9.859	0.001	9.869
4/22/2022	3:34 PM	25.923	9.756	0.001	0.000	0.000	0.001	0.000	0.000	0.000	9.632	0.001	0.001	9.548	0.001	0.000	0.001	0.000	0.001	9.858	0.001	9.869
4/22/2022	3:45 PM	26.099	9.757	0.001	0.000	0.000	0.001	0.000	0.000	0.000	9.632	0.001	0.001	9.549	0.001	0.000	0.001	0.000	0.001	9.860	0.001	9.869
4/22/2022	3:55 PM	26.274	9.756	0.001	0.000	0.000	0.001	0.000	0.000	0.000	9.633	0.001	0.001	9.548	0.001	0.000	0.001	0.000	0.001	9.860	0.001	9.870
4/22/2022	4:06 PM	26.450	9.756	0.001	0.000	0.000	0.001	0.000	0.000	0.000	9.633	0.001	0.001	9.548	0.001	0.000	0.001	0.000	0.001	9.860	0.001	9.869
4/22/2022	4:16 PM	26.626	9.757	0.001	0.000	0.000	0.001	0.000	0.000	0.000	9.633	0.001	0.001	9.548	0.001	0.000	0.001	0.000	0.001	9.860	0.001	9.870
4/22/2022	4:27 PM	26.802	9.757	0.001	0.000	0.000	0.001	0.000	0.000	0.000	9.634	0.001	0.001	9.547	0.001	0.000	0.001	0.000	0.001	9.860	0.001	9.870
4/22/2022	4:37 PM	26.978	0.001	9.824	9.770	9.635	9.608	9.834	9.577	9.696	0.001	9.762	9.705	0.002	9.674	9.513	9.959	9.834	9.958	0.001	9.465	0.001
4/22/2022	4:38 PM	26.987	9.746	0.001	0.000	0.000	0.001	0.000	0.000	0.001	9.620	0.001	0.001	9.538	0.001	0.000	0.001	0.000	0.001	9.848	0.001	9.859
4/22/2022	4:49 PM	27.162	9.752	0.001	0.000	0.000	0.001	0.000	0.000	0.000	9.627	0.001	0.001	9.544	0.001	0.000	0.001	0.000	0.001	9.855	0.001	9.865
4/22/2022	4:59 PM	27.338	9.754	0.001	0.000	0.000	0.001	0.000	0.000	0.000	9.628	0.001	0.001	9.546	0.001	0.000	0.001	0.000	0.001	9.856	0.001	9.867
4/22/2022	5:10 PM	27.514	9.754	0.001	0.000	0.000	0.001	0.000	0.000	0.000	9.629	0.001	0.001	9.547	0.001	0.000	0.001	0.000	0.001	9.857	0.001	9.867
4/22/2022	5:20 PM	27.690	9.755	0.001	0.000	0.000	0.001	0.000	0.000	0.000	9.629	0.001	0.001	9.548	0.001	0.000	0.001	0.000	0.001	9.857	0.001	9.866
4/22/2022	5:31 PM	27.866	9.755	0.001	0.000	0.000	0.001	0.000	0.000	0.000	9.629	0.001	0.001	9.547	0.001	0.000	0.001	0.000	0.001	9.857	0.001	9.868
4/22/2022	5:41 PM	28.041	9.757	0.001	0.000	0.000	0.001	0.000	0.000	0.000	9.630	0.001	0.001	9.548	0.001	0.000	0.001	0.000	0.001	9.859	0.001	9.867
4/22/2022	5:52 PM	28.217	9.756	0.001	0.000	0.000	0.001	0.000	0.000	0.000	9.630	0.001	0.001	9.548	0.001	0.000	0.001	0.000	0.001	9.858	0.001	9.868
4/22/2022	6:02 PM	28.393	9.756	0.001	0.000	0.000	0.001	0.000	0.000	0.000	9.630	0.001	0.001	9.548	0.001	0.000	0.001	0.000	0.001	9.860	0.001	9.868
4/22/2022	6:13 PM	28.569	9.757	0.001	0.000	0.000	0.001	0.000	0.000	0.000	9.630	0.001	0.001	9.549	0.001	0.000	0.001	0.000	0.001	9.859	0.001	9.869
4/22/2022	6:23 PM	28.744	9.757	0.001	0.000	0.000	0.001	0.000	0.000	0.000	9.630	0.001	0.001	9.549	0.001	0.000	0.001	0.000	0.001	9.859	0.001	9.869
4/22/2022	6:34 PM	28.920	9.757	0.001	0.000	0.000	0.001	0.000	0.000	0.000	9.631	0.001	0.001	9.549	0.001	0.000	0.001	0.000	0.001	9.858	0.001	9.869
4/22/2022	6:45 PM	29.096	9.756	0.001	0.000	0.000	0.001	0.000	0.000	0.000	9.632	0.001	0.001	9.550	0.001	0.000	0.001	0.000	0.001	9.860	0.001	9.870
4/22/2022	6:55 PM	29.272	9.757	0.001	0.000	0.000	0.001	0.000	0.000	0.000	9.632	0.001	0.001	9.549	0.001	0.000	0.001	0.000	0.001	9.859	0.001	9.870
4/22/2022	7:06 PM	29.448	9.758	0.001	0.000	0.000	0.001	0.000	0.000	0.000	9.632	0.001	0.001	9.550	0.001	0.000	0.001	0.000	0.001	9.860	0.001	9.870
4/22/2022	7:16 PM	29.623	9.759	0.001	0.000	0.000	0.001	0.000	0.000	0.000	9.633	0.001	0.001	9.549	0.001	0.000	0.001	0.000	0.001	9.860	0.001	9.871
4/22/2022	7:27 PM	29.799	9.758	0.001	0.000	0.000	0.001	0.000	0.000	0.000	9.632	0.001	0.001	9.549	0.001	0.000	0.001	0.000	0.001	9.861	0.001	9.869
4/22/2022	7:37 PM	29.975	0.001	9.823	9.771	9.635	9.610	9.833	9.582	9.696	0.001	9.761	9.704	0.001	9.675	9.513	9.957	9.835	9.958	0.001	9.468	0.001
4/22/2022	7:38 PM	29.984	9.745	0.001	0.000	0.000	0.001	0.000	0.000	0.001	9.619	0.001	0.001	9.540	0.001	0.000	0.001	0.000	0.001	9.848	0.001	9.860
4/22/2022	7:48 PM	30.160	9.753	0.001	0.000	0.000	0.001	0.000	0.000	0.000	9.625	0.001	0.001	9.546	0.001	0.000	0.001	0.000	0.001	9.855	0.001	9.866
4/22/2022	7:59 PM	30.336	9.755	0.001	0.000	0.000	0.001	0.000	0.000	0.000	9.626	0.001	0.001	9.547	0.001	0.000	0.001	0.000	0.001	9.857	0.001	9.867
4/22/2022	8:10 PM	30.512	9.755	0.001	0.000	0.000	0.001	0.000	0.000	0.000	9.629	0.001	0.001	9.547	0.001	0.000	0.001	0.000	0.001	9.858	0.001	9.867
4/22/2022	8:20 PM	30.687	9.755	0.001	0.000	0.000	0.001	0.000	0.000	0.000	9.628	0.001	0.001	9.547	0.001	0.000	0.001	0.000	0.001	9.859	0.001	9.868
4/22/2022	8:31 PM	30.863	9.755	0.001	0.000	0.000	0.001	0.000	0.000	0.000	9.629	0.001	0.001	9.549	0.001	0.000	0.001	0.000	0.001	9.860	0.001	9.867
4/22/2022	8:41 PM	31.039	9.755	0.001	0.000	0.000	0.001	0.000	0.000	0.000	9.630	0.001	0.001	9.549	0.001	0.000	0.001	0.000	0.001	9.860	0.001	9.867
4/22/2022	8:52 PM	31.215	9.755	0.001	0.000	0.000	0.001	0.000	0.000	0.000	9.631	0.001	0.001	9.548	0.001	0.000	0.001	0.000	0.001	9.859	0.001	9.867
4/22/2022	9:02 PM	31.391	9.755	0.001	0.000	0.000	0.001	0.000	0.000	0.000	9.631	0.001	0.001	9.548	0.001	0.000	0.001	0.000	0.001	9.861	0.001	9.869
4/22/2022	9:13 PM	31.566	9.755	0.001	0.000	0.000	0.001	0.000	0.000	0.000	9.631	0.001	0.001	9.550	0.001	0.000	0.001	0.000	0.001	9.861	0.001	9.870
4/22/2022	9:23 PM	31.742	9.756	0.001	0.000	0.000	0.001	0.000	0.000	0.000	9.631	0.001	0.001	9.550	0.001	0.000	0.001	0.000	0.001	9.861	0.001	9.870
4/22/2022	9:34 PM	31.918	9.757	0.001	0.000	0.000	0.001	0.000	0.000	0.000	9.632	0.001	0.001	9.550	0.001	0.000	0.001	0.000	0.001	9.862	0.001	9.871
4/22/2022	9:44 PM	32.094	9.756	0.001	0.000	0.000	0.001	0.000	0.000	0.000	9.632	0.001	0.001	9.550	0.001	0.000	0.001	0.000	0.001	9.861	0.001	9.869
4/22/2022	9:55 PM	32.270	9.757	0.001	0.000	0.000	0.001	0.000	0.000	0.000	9.632	0.001	0.001	9.550	0.001	0.000	0.001	0.000	0.001	9.862	0.001	9.869
4/22/2022	10:06 PM	32.445	9.758	0.001	0.000	0.000	0.001	0.000	0.000	0.000	9.632	0.001	0.001	9.550	0.001	0.000	0.001	0.000	0.001	9.861	0.001	9.869
4/22/2022	10:16 PM	32.621	9.758	0.001	0.000	0.000	0.001	0.000	0.000	0.000	9.633	0.001	0.001	9.550	0.001	0.000	0.001	0.000	0.001	9.862	0.001	9.869
4/22/2022	10:27 PM	32.797	9.757	0.001	0.000	0.000	0.001	0.000	0.000	0.000	9.633	0.001	0.001	9.551	0.001	0.000	0.001	0.000	0.001	9.862	0.001	9.870
4/22/2022	10:37 PM	32.973	0.001	9.823	9.769	9.636	9.611	9.834	9.580	9.696	0.001	9.762	9.704	0.001	9.674	9.513	9.957	9.835	9.959	0.001	9.467	0.001
4/22/2022	10:38 PM	32.982	9.747	0.001	0.000	0.000	0.001	0.000	0.000	0.001	9.621	0.001	0.001	9.541	0.001	0.000	0.001	0.000	0.001	9.850	0.001	9.861
4/22/2022	10:48 PM	33.158	9.753	0.001	0.000	0.000	0.001	0.000	0.000	0.000	9.629	0.001	0.001	9.546	0.001	0.000	0.001	0.000	0.001	9.857	0.001	9.866
4/22/2022	10:59 PM	33.333	9.754	0.001	0.000	0.000	0.001	0.000	0.000	0.000	9.631	0.001	0.001	9.549	0.001	0.000	0.001	0.000	0.001	9.858	0.001	9.866
4/22/2022	11:09 PM	33.509	9.754	0.001	0.000	0.000	0.001	0.000	0.000	0.000	9.632	0.001	0.001	9.548	0.001	0.000	0.001	0.000	0.001	9.860	0.001	9.868
4/22/2022	11:20 PM	33.685	9.755	0.001	0.000	0.000	0.001	0.000	0.000	0.000	9.632	0.001	0.001	9.550	0.001	0.000	0.001	0.000	0.001	9.860	0.001	9.868
4/22/2022	11:30 PM	33.861	9.755	0.001	0.000	0.000	0.001	0.000	0.000	0.000	9.632	0.001	0.001	9.550	0.001	0.000	0.001	0.000	0.001	9.860	0.001	9.869
4/22/2022	11:41 PM	34.037	9.756	0.001	0.000	0.000	0.001	0.000	0.000	0.000	9.633	0.001	0.001	9.550	0.001	0.000	0.001	0.000	0.001	9.860	0.001	9.869
4/22/2022	11:52 PM	34.212	9.756	0.001	0.000	0.000	0.001	0.000	0.000	0.000	9.633	0.001	0.001	9.551	0.001	0.000	0.001	0.000	0.001	9.861	0.001	9.870
4/23/2022	12:02 AM	34.388	9.756	0.001	0.000	0.000	0.001	0.000	0.000	0.000	9.634	0.001	0.001	9.551	0.001	0.000	0.001	0.000	0.001	9.860	0.001	9.870
4/23/2022	12:13 AM	34.564	9.756	0.001	0.000	0.000	0.001	0.000	0.000	0.000	9.634	0.001	0.001	9.551	0.001	0.000	0.001	0.000	0.001	9.861	0.001	9.870
4/23/2022	12:23 AM	34.740	9.757	0.001	0.000	0.000	0.001	0.000	0.000	0.000	9.632	0.001	0.001	9.551	0.001	0.000	0.001	0.000	0.001	9.859	0.001	9.869
4/23/2022	12:34 AM	34.916	9.757	0.001	0.000	0.000	0.001	0.000	0.000	0.000	9.634	0.001	0.001	9.551	0.001	0.000	0.001	0.000	0.001	9.861	0.001	9.869
4/23/2022	12:44 AM	35.091	9.757	0.001	0.000	0.000	0.001	0.000	0.000	0.000	9.634	0.001	0.001	9.552	0.001	0.000	0.001	0.000	0.001	9.861	0.001	9.870
4/23/2022	12:55 AM	35.267	9.758	0.001	0.000	0.000	0.001	0.000	0.000	0.000	9.633	0.001	0.001	9.553	0.001	0.000	0.001	0.000	0.001	9.861	0.001	9.871
4/23/2022	1:05 AM	35.443	9.758	0.001	0.000	0.000	0.001	0.000	0.000	0.000	9.633	0.001	0.001	9.552	0.001	0.000	0.001	0.000	0.001	9.862	0.001	9.869
4/23/2022	1:16 AM	35.619	9.757	0.001	0.000	0.000	0.001	0.000	0.000	0.000	9.634	0.001	0.001	9.552	0.001	0.000	0.001	0.000	0.001	9.860	0.001	9.870
4/23/2022	1:26 AM	35.794	9.758	0.001	0.000	0.000	0.001	0.000	0.000	0.000	9.634	0.001	0.001	9.552	0.001	0.000	0.001	0.000	0.001	9.862	0.001	9.871
4/23/2022	1:37 AM	35.970	0.001	9.823	9.769	9.636	9.610	9.833	9.579	9.693	0.001	9.763	9.704	0.001	9.674	9.512	9.956	9.835	9.957	0.001	9.467	0.001
4/23/2022	1:38 AM	35.979	9.748	0.001	0.000	0.000	0.001	0.000	0.000	0.001	9.620	0.001	0.001	9.540	0.001	0.000	0.001	0.000	0.001	9.850	0.001	9.861
4/23/2022	1:48 AM	36.155	9.754	0.001	0.000	0.000	0.001	0.000	0.000	0.000	9.628	0.001	0.001	9.548	0.001	0.000	0.001	0.000	0.001	9.857	0.001	9.866
4/23/2022	1:59 AM	36.331	9.755	0.001	0.000	0.000	0.001	0.000	0.000	0.000	9.629	0.001	0.001	9.549	0.001	0.000	0.001	0.000	0.001	9.857	0.001	9.867
4/23/2022	2:09 AM	36.507	9.756	0.001	0.000	0.000	0.001	0.000	0.000	0.000	9.631	0.001	0.001	9.550	0.001	0.000	0.001	0.000	0.001	9.856	0.001	9.868
4/23/2022	2:20 AM	36.683	9.755	0.001	0.000	0.000	0.001	0.000	0.000	0.000	9.632	0.001	0.001	9.550	0.001	0.000	0.001	0.000	0.001	9.858	0.001	9.868
4/23/2022	2:30 AM	36.858	9.758	0.001	0.000	0.000	0.001	0.000	0.000	0.000	9.633	0.001	0.001	9.550	0.001	0.000	0.001	0.000	0.001	9.858	0.001	9.868
4/23/2022	2:41 AM	37.034	9.758	0.001	0.000	0.000	0.001	0.000	0.000	0.000	9.633	0.001	0.001	9.549	0.001	0.000	0.001	0.000	0.001	9.858	0.001	9.870
4/23/2022	2:51 AM	37.210	9.758	0.001	0.000	0.000	0.001	0.000	0.000	0.000	9.633	0.001	0.001	9.551	0.001	0.000	0.001	0.000	0.001	9.858	0.001	9.871
4/23/2022	3:02 AM	37.386	9.758	0.001	0.000	0.000	0.001	0.000	0.000	0.000	9.632	0.001	0.001	9.550	0.001	0.000	0.001	0.000	0.001	9.857	0.001	9.870
4/23/2022	3:13 AM	37.562	9.759	0.001	0.000	0.000	0.001	0.000	0.000	0.000	9.634	0.001	0.001	9.551	0.001	0.000	0.001	0.000	0.001	9.859	0.001	9.870
4/23/2022	3:23 AM	37.737	9.758	0.001	0.000	0.000	0.001	0.000	0.000	0.000	9.634	0.001	0.001	9.550	0.001	0.000	0.001	0.000	0.001	9.860	0.001	9.870
4/23/2022	3:34 AM	37.913	9.758	0.001	0.000	0.000	0.001	0.000	0.000	0.000	9.634	0.001	0.001	9.551	0.001	0.000	0.001	0.000	0.001	9.860	0.001	9.870
4/23/2022	3:44 AM	38.089	9.758	0.001	0.000	0.000	0.001	0.000	0.000	0.000	9.635	0.001	0.001	9.551	0.001	0.000	0.001	0.000	0.001	9.859	0.001	9.871
4/23/2022	3:55 AM	38.265	9.759	0.001	0.000	0.000	0.001	0.000	0.000	0.000	9.636	0.001	0.001	9.550	0.001	0.000	0.001	0.000	0.001	9.860	0.001	9.870
4/23/2022	4:05 AM	38.440	9.759	0.001	0.000	0.000	0.001	0.000	0.000	0.000	9.636	0.001	0.001	9.550	0.001	0.000	0.001	0.000	0.001	9.861	0.001	9.870
4/23/2022	4:16 AM	38.616	9.759	0.001	0.000	0.000	0.001	0.000	0.000	0.000	9.635	0.001	0.001	9.550	0.001	0.000	0.001	0.000	0.001	9.861	0.001	9.871
4/23/2022	4:26 AM	38.792	9.758	0.001	0.000	0.000	0.001	0.000	0.000	0.000	9.635	0.001	0.001	9.551	0.001	0.000	0.001	0.000	0.001	9.861	0.001	9.870
4/23/2022	4:37 AM	38.968	0.001	9.823	9.768	9.634	9.610	9.835	9.579	9.694	0.001	9.762	9.704	0.001	9.673	9.513	9.955	9.834	9.957	0.001	9.465	0.001
4/23/2022	4:37 AM	38.977	9.747	0.001	0.000	0.000	0.001	0.000	0.000	0.001	9.622	0.001	0.001	9.541	0.001	0.000	0.001	0.000	0.001	9.850	0.001	9.861
4/23/2022	4:48 AM	39.153	9.753	0.001	0.000	0.000	0.001	0.000	0.000	0.000	9.629	0.001	0.001	9.547	0.001	0.000	0.001	0.000	0.001	9.855	0.001	9.868
4/23/2022	4:59 AM	39.329	9.754	0.001	0.000	0.000	0.001	0.000	0.000	0.000	9.630	0.001	0.001	9.546	0.001	0.000	0.001	0.000	0.001	9.857	0.001	9.868
4/23/2022	5:09 AM	39.504	9.755	0.001	0.000	0.000	0.001	0.000	0.000	0.000	9.631	0.001	0.001	9.547	0.001	0.000	0.001	0.000	0.001	9.857	0.001	9.868
4/23/2022	5:20 AM	39.680	9.755	0.001	0.000	0.000	0.001	0.000	0.000	0.000	9.631	0.001	0.001	9.547	0.001	0.000	0.001	0.000	0.001	9.858	0.001	9.868
4/23/2022	5:30 AM	39.856	9.756	0.001	0.000	0.000	0.001	0.000	0.000	0.000	9.633	0.001	0.001	9.548	0.001	0.000	0.001	0.000	0.001	9.859	0.001	9.869
4/23/2022	5:41 AM	40.032	9.757	0.001	0.000	0.000	0.001	0.000	0.000	0.000	9.633	0.001	0.001	9.549	0.001	0.000	0.001	0.000	0.001	9.859	0.001	9.869
4/23/2022	5:51 AM	40.207	9.757	0.001	0.000	0.000	0.001	0.000	0.000	0.000	9.633	0.001	0.001	9.549	0.001	0.000	0.001	0.000	0.001	9.859	0.001	9.869
4/23/2022	6:02 AM	40.383	9.757	0.001	0.000	0.000	0.001	0.000	0.000	0.000	9.634	0.001	0.001	9.550	0.001	0.000	0.001	0.000	0.001	9.859	0.001	9.871
4/23/2022	6:12 AM	40.559	9.758	0.001	0.000	0.000	0.001	0.000	0.000	0.000	9.633	0.001	0.001	9.550	0.001	0.000	0.001	0.000	0.001	9.858	0.001	9.870
4/23/2022	6:23 AM	40.735	9.758	0.001	0.000	0.000	0.001	0.000	0.000	0.000	9.634	0.001	0.001	9.550	0.001	0.000	0.001	0.000	0.001	9.859	0.001	9.870
4/23/2022	6:33 AM	40.911	9.758	0.001	0.000	0.000	0.001	0.000	0.000	0.000	9.634	0.001	0.001	9.551	0.001	0.000	0.001	0.000	0.001	9.860	0.001	9.871
4/23/2022	6:44 AM	41.086	9.758	0.001	0.000	0.000	0.001	0.000	0.000	0.000	9.634	0.001	0.001	9.550	0.001	0.000	0.001	0.000	0.001	9.859	0.001	9.870
4/23/2022	6:55 AM	41.262	9.758	0.001	0.000	0.000	0.001	0.000	0.000	0.000	9.635	0.001	0.001	9.550	0.001	0.000	0.001	0.000	0.001	9.859	0.001	9.871
4/23/2022	7:05 AM	41.438	9.758	0.001	0.000	0.000	0.001	0.000	0.000	0.000	9.635	0.001	0.001	9.551	0.001	0.000	0.001	0.000	0.001	9.860	0.001	9.871
4/23/2022	7:16 AM	41.614	9.758	0.001	0.000	0.000	0.001	0.000	0.000	0.000	9.635	0.001	0.001	9.550	0.001	0.000	0.001	0.000	0.001	9.860	0.001	9.871
4/23/2022	7:26 AM	41.790	9.758	0.001	0.000	0.000	0.001	0.000	0.000	0.000	9.635	0.001	0.001	9.551	0.001	0.000	0.001	0.000	0.001	9.860	0.001	9.870
4/23/2022	7:37 AM	41.965	0.001	9.824	9.771	9.634	9.611	9.835	9.579	9.695	0.001	9.763	9.703	0.001	9.673	9.512	9.956	9.835	9.958	0.001	9.465	0.001
4/23/2022	7:37 AM	41.974	9.745	0.001	0.000	0.000	0.001	0.000	0.000	0.001	9.623	0.001	0.001	9.542	0.001	0.000	0.001	0.000	0.001	9.850	0.001	9.859
4/23/2022	7:48 AM	42.150	9.755	0.001	0.000	0.000	0.001	0.000	0.000	0.000	9.629	0.001	0.001	9.547	0.001	0.000	0.001	0.000	0.001	9.855	0.001	9.868
4/23/2022	7:58 AM	42.326	9.756	0.001	0.000	0.000	0.001	0.000	0.000	0.000	9.630	0.001	0.001	9.548	0.001	0.000	0.001	0.000	0.001	9.857	0.001	9.868
4/23/2022	8:09 AM	42.502	9.758	0.001	0.000	0.000	0.001	0.000	0.000	0.000	9.631	0.001	0.001	9.549	0.001	0.000	0.001	0.000	0.001	9.857	0.001	9.868
4/23/2022	8:19 AM	42.678	9.757	0.001	0.000	0.000	0.001	0.000	0.000	0.000	9.631	0.001	0.001	9.550	0.001	0.000	0.001	0.000	0.001	9.857	0.001	9.869
4/23/2022	8:30 AM	42.853	9.756	0.001	0.000	0.000	0.001	0.000	0.000	0.000	9.632	0.001	0.001	9.550	0.001	0.000	0.001	0.000	0.001	9.860	0.001	9.868
4/23/2022	8:41 AM	43.029	9.757	0.001	0.000	0.000	0.001	0.000	0.000	0.000	9.632	0.001	0.001	9.549	0.001	0.000	0.001	0.000	0.001	9.859	0.001	9.869
4/23/2022	8:51 AM	43.205	9.756	0.001	0.000	0.000	0.001	0.000	0.000	0.000	9.632	0.001	0.001	9.550	0.001	0.000	0.001	0.000	0.001	9.859	0.001	9.869
4/23/2022	9:02 AM	43.381	9.757	0.001	0.000	0.000	0.001	0.000	0.000	0.000	9.632	0.001	0.001	9.550	0.001	0.000	0.001	0.000	0.001	9.860	0.001	9.869
4/23/2022	9:12 AM	43.557	9.757	0.001	0.000	0.000	0.001	0.000	0.000	0.000	9.632	0.001	0.001	9.550	0.001	0.000	0.001	0.000	0.001	9.860	0.001	9.869
4/23/2022	9:23 AM	43.732	9.757	0.001	0.000	0.000	0.001	0.000	0.000	0.000	9.633	0.001	0.001	9.549	0.001	0.000	0.001	0.000	0.001	9.861	0.001	9.870
4/23/2022	9:33 AM	43.908	9.759	0.001	0.000	0.000	0.001	0.000	0.000	0.000	9.634	0.001	0.001	9.549	0.001	0.000	0.001	0.000	0.001	9.860	0.001	9.870
4/23/2022	9:44 AM	44.084	9.758	0.001	0.000	0.000	0.001	0.000	0.000	0.000	9.634	0.001	0.001	9.550	0.001	0.000	0.001	0.000	0.001	9.861	0.001	9.870
4/23/2022	9:54 AM	44.260	9.758	0.001	0.000	0.000	0.001	0.000	0.000	0.000	9.634	0.001	0.001	9.551	0.001	0.000	0.001	0.000	0.001	9.861	0.001	9.870
4/23/2022	10:05 AM	44.436	9.758	0.001	0.000	0.000	0.001	0.000	0.000	0.000	9.635	0.001	0.001	9.551	0.001	0.000	0.001	0.000	0.001	9.861	0.001	9.869
4/23/2022	10:15 AM	44.611	9.758	0.001	0.000	0.000	0.001	0.000	0.000	0.000	9.636	0.001	0.001	9.551	0.001	0.000	0.001	0.000	0.001	9.861	0.001	9.870
4/23/2022	10:26 AM	44.787	9.758	0.001	0.000	0.000	0.001	0.000	0.000	0.000	9.636	0.001	0.001	9.551	0.001	0.000	0.001	0.000	0.001	9.861	0.001	9.870
4/23/2022	10:37 AM	44.963	0.001	9.822	9.769	9.636	9.610	9.835	9.580	9.694	0.001	9.761	9.704	0.001	9.675	9.512	9.956	9.835	9.957	0.001	9.466	0.001
4/23/2022	10:37 AM	44.972	9.746	0.001	0.000	0.000	0.001	0.000	0.000	0.001	9.623	0.001	0.001	9.544	0.001	0.000	0.001	0.000	0.001	9.850	0.001	9.859
4/23/2022	10:48 AM	45.148	9.755	0.001	0.000	0.000	0.001	0.000	0.000	0.000	9.630	0.001	0.001	9.549	0.001	0.000	0.001	0.000	0.001	9.857	0.001	9.868
4/23/2022	10:58 AM	45.324	9.757	0.001	0.000	0.000	0.001	0.000	0.000	0.000	9.631	0.001	0.001	9.549	0.001	0.000	0.001	0.000	0.001	9.856	0.001	9.868
4/23/2022	11:09 AM	45.499	9.757	0.001	0.000	0.000	0.001	0.000	0.000	0.000	9.630	0.001	0.001	9.550	0.001	0.000	0.001	0.000	0.001	9.859	0.001	9.869
4/23/2022	11:19 AM	45.675	9.758	0.001	0.000	0.000	0.001	0.000	0.000	0.000	9.633	0.001	0.001	9.550	0.001	0.000	0.001	0.000	0.001	9.859	0.001	9.869
4/23/2022	11:30 AM	45.851	9.758	0.001	0.000	0.000	0.001	0.000	0.000	0.000	9.632	0.001	0.001	9.551	0.001	0.000	0.001	0.000	0.001	9.859	0.001	9.869
4/23/2022	11:40 AM	46.027	9.758	0.001	0.000	0.000	0.001	0.000	0.000	0.000	9.633	0.001	0.001	9.551	0.001	0.000	0.001	0.000	0.001	9.859	0.001	9.869
4/23/2022	11:51 AM	46.203	9.757	0.001	0.000	0.000	0.001	0.000	0.000	0.000	9.634	0.001	0.001	9.551	0.001	0.000	0.001	0.000	0.001	9.860	0.001	9.870
4/23/2022	12:02 PM	46.378	9.758	0.001	0.000	0.000	0.001	0.000	0.000	0.000	9.633	0.001	0.001	9.550	0.001	0.000	0.001	0.000	0.001	9.860	0.001	9.869
4/23/2022	12:12 PM	46.554	9.759	0.001	0.000	0.000	0.001	0.000	0.000	0.000	9.634	0.001	0.001	9.550	0.001	0.000	0.001	0.000	0.001	9.860	0.001	9.871
4/23/2022	12:23 PM	46.730	9.759	0.001	0.000	0.000	0.001	0.000	0.000	0.000	9.633	0.001	0.001	9.551	0.001	0.000	0.001	0.000	0.001	9.861	0.001	9.871
4/23/2022	12:33 PM	46.906	9.760	0.001	0.000	0.000	0.001	0.000	0.000	0.000	9.633	0.001	0.001	9.551	0.001	0.000	0.001	0.000	0.001	9.861	0.001	9.871
4/23/2022	12:44 PM	47.082	9.759	0.001	0.000	0.000	0.001	0.000	0.000	0.000	9.634	0.001	0.001	9.551	0.001	0.000	0.001	0.000	0.001	9.861	0.001	9.871
4/23/2022	12:54 PM	47.257	9.759	0.001	0.000	0.000	0.001	0.000	0.000	0.000	9.633	0.001	0.001	9.551	0.001	0.000	0.001	0.000	0.001	9.861	0.001	9.871
4/23/2022	1:05 PM	47.433	9.759	0.001	0.000	0.000	0.001	0.000	0.000	0.000	9.634	0.001	0.001	9.551	0.001	0.000	0.001	0.000	0.001	9.860	0.001	9.872
4/23/2022	1:15 PM	47.609	9.760	0.001	0.000	0.000	0.001	0.000	0.000	0.000	9.634	0.001	0.001	9.551	0.001	0.000	0.001	0.000	0.001	9.861	0.001	9.871
4/23/2022	1:26 PM	47.785	9.760	0.001	0.000	0.000	0.001	0.000	0.000	0.000	9.634	0.001	0.001	9.551	0.001	0.000	0.001	0.000	0.001	9.861	0.001	9.873
4/23/2022	1:36 PM	47.960	0.001	9.825	9.770	9.636	9.611	9.836	9.581	9.691	0.001	9.762	9.706	0.001	9.676	9.512	9.958	9.834	9.958	0.001	9.465	0.001
4/23/2022	1:37 PM	47.970	9.748	0.001	0.000	0.000	0.001	0.000	0.000	0.001	9.621	0.001	0.001	9.544	0.001	0.000	0.001	0.000	0.001	9.849	0.001	9.861
4/23/2022	1:48 PM	48.145	9.753	0.001	0.000	0.000	0.001	0.000	0.000	0.000	9.631	0.001	0.001	9.549	0.001	0.000	0.001	0.000	0.001	9.855	0.001	9.867
4/23/2022	1:58 PM	48.321	9.755	0.001	0.000	0.000	0.001	0.000	0.000	0.000	9.630	0.001	0.001	9.550	0.001	0.000	0.001	0.000	0.001	9.855	0.001	9.866
4/23/2022	2:09 PM	48.497	9.755	0.001	0.000	0.000	0.001	0.000	0.000	0.000	9.631	0.001	0.001	9.551	0.001	0.000	0.001	0.000	0.001	9.856	0.001	9.867
4/23/2022	2:19 PM	48.673	9.756	0.001	0.000	0.000	0.001	0.000	0.000	0.000	9.631	0.001	0.001	9.551	0.001	0.000	0.001	0.000	0.001	9.856	0.001	9.867
4/23/2022	2:30 PM	48.849	9.757	0.001	0.000	0.000	0.001	0.000	0.000	0.000	9.632	0.001	0.001	9.551	0.001	0.000	0.001	0.000	0.001	9.859	0.001	9.868
4/23/2022	2:40 PM	49.025	9.758	0.001	0.000	0.000	0.001	0.000	0.000	0.000	9.633	0.001	0.001	9.552	0.001	0.000	0.001	0.000	0.001	9.858	0.001	9.869
4/23/2022	2:51 PM	49.200	9.757	0.001	0.000	0.000	0.001	0.000	0.000	0.000	9.634	0.001	0.001	9.552	0.001	0.000	0.001	0.000	0.001	9.857	0.001	9.869
4/23/2022	3:01 PM	49.376	9.757	0.001	0.000	0.000	0.001	0.000	0.000	0.000	9.633	0.001	0.001	9.551	0.001	0.000	0.001	0.000	0.001	9.858	0.001	9.870
4/23/2022	3:12 PM	49.552	9.758	0.001	0.000	0.000	0.001	0.000	0.000	0.000	9.634	0.001	0.001	9.551	0.001	0.000	0.001	0.000	0.001	9.859	0.001	9.870
4/23/2022	3:22 PM	49.728	9.758	0.001	0.000	0.000	0.001	0.000	0.000	0.000	9.635	0.001	0.001	9.552	0.001	0.000	0.001	0.000	0.001	9.858	0.001	9.869
4/23/2022	3:33 PM	49.903	9.758	0.001	0.000	0.000	0.001	0.000	0.000	0.000	9.634	0.001	0.001	9.552	0.001	0.000	0.001	0.000	0.001	9.859	0.001	9.869
4/23/2022	3:44 PM	50.079	9.759	0.001	0.000	0.000	0.001	0.000	0.000	0.000	9.635	0.001	0.001	9.552	0.001	0.000	0.001	0.000	0.001	9.858	0.001	9.870
4/23/2022	3:54 PM	50.255	9.759	0.001	0.000	0.000	0.001	0.000	0.000	0.000	9.635	0.001	0.001	9.553	0.001	0.000	0.001	0.000	0.001	9.859	0.001	9.870
4/23/2022	4:05 PM	50.431	9.759	0.001	0.000	0.000	0.001	0.000	0.000	0.000	9.636	0.001	0.001	9.553	0.001	0.000	0.001	0.000	0.001	9.859	0.001	9.870
4/23/2022	4:15 PM	50.607	9.759	0.001	0.000	0.000	0.001	0.000	0.000	0.000	9.635	0.001	0.001	9.553	0.001	0.000	0.001	0.000	0.001	9.859	0.001	9.870
4/23/2022	4:26 PM	50.783	9.759	0.001	0.000	0.000	0.001	0.000	0.000	0.000	9.635	0.001	0.001	9.552	0.001	0.000	0.001	0.000	0.001	9.860	0.001	9.870
4/23/2022	4:36 PM	50.958	0.001	9.823	9.770	9.637	9.611	9.836	9.580	9.693	0.001	9.762	9.704	0.002	9.677	9.512	9.956	9.836	9.959	0.001	9.465	0.001
4/23/2022	4:37 PM	50.967	9.748	0.001	0.000	0.000	0.001	0.000	0.000	0.001	9.621	0.001	0.001	9.543	0.001	0.000	0.001	0.000	0.001	9.848	0.001	9.860
4/23/2022	4:47 PM	51.143	9.753	0.001	0.000	0.000	0.001	0.000	0.000	0.000	9.630	0.001	0.001	9.547	0.001	0.000	0.001	0.000	0.001	9.855	0.001	9.867
4/23/2022	4:58 PM	51.319	9.755	0.001	0.000	0.000	0.001	0.000	0.000	0.000	9.632	0.001	0.001	9.549	0.001	0.000	0.001	0.000	0.001	9.857	0.001	9.867
4/23/2022	5:09 PM	51.495	9.757	0.001	0.000	0.000	0.001	0.000	0.000	0.000	9.632	0.001	0.001	9.550	0.001	0.000	0.001	0.000	0.001	9.857	0.001	9.868
4/23/2022	5:19 PM	51.671	9.757	0.001	0.000	0.000	0.001	0.000	0.000	0.000	9.632	0.001	0.001	9.549	0.001	0.000	0.001	0.000	0.001	9.858	0.001	9.868
4/23/2022	5:30 PM	51.846	9.757	0.001	0.000	0.000	0.001	0.000	0.000	0.000	9.633	0.001	0.001	9.551	0.001	0.000	0.001	0.000	0.001	9.859	0.001	9.870
4/23/2022	5:40 PM	52.022	9.757	0.001	0.000	0.000	0.001	0.000	0.000	0.000	9.633	0.001	0.001	9.551	0.001	0.000	0.001	0.000	0.001	9.859	0.001	9.871
4/23/2022	5:51 PM	52.198	9.759	0.001	0.000	0.000	0.001	0.000	0.000	0.000	9.633	0.001	0.001	9.551	0.001	0.000	0.001	0.000	0.001	9.859	0.001	9.871
4/23/2022	6:01 PM	52.374	9.759	0.001	0.000	0.000	0.001	0.000	0.000	0.000	9.635	0.001	0.001	9.551	0.001	0.000	0.001	0.000	0.001	9.859	0.001	9.870
4/23/2022	6:12 PM	52.550	9.759	0.001	0.000	0.000	0.001	0.000	0.000	0.000	9.635	0.001	0.001	9.551	0.001	0.000	0.001	0.000	0.001	9.860	0.001	9.870
4/23/2022	6:22 PM	52.725	9.760	0.001	0.000	0.000	0.001	0.000	0.000	0.000	9.635	0.001	0.001	9.550	0.001	0.000	0.001	0.000	0.001	9.861	0.001	9.872
4/23/2022	6:33 PM	52.901	9.760	0.001	0.000	0.000	0.001	0.000	0.000	0.000	9.635	0.001	0.001	9.551	0.001	0.000	0.001	0.000	0.001	9.861	0.001	9.872
4/23/2022	6:43 PM	53.077	9.760	0.001	0.000	0.000	0.001	0.000	0.000	0.000	9.635	0.001	0.001	9.551	0.001	0.000	0.001	0.000	0.001	9.860	0.001	9.871
4/23/2022	6:54 PM	53.253	9.761	0.001	0.000	0.000	0.001	0.000	0.000	0.000	9.637	0.001	0.001	9.552	0.001	0.000	0.001	0.000	0.001	9.861	0.001	9.871
4/23/2022	7:05 PM	53.429	9.760	0.001	0.000	0.000	0.001	0.000	0.000	0.000	9.637	0.001	0.001	9.551	0.001	0.000	0.001	0.000	0.001	9.862	0.001	9.873
4/23/2022	7:15 PM	53.604	9.761	0.001	0.000	0.000	0.001	0.000	0.000	0.000	9.636	0.001	0.001	9.552	0.001	0.000	0.001	0.000	0.001	9.861	0.001	9.872
4/23/2022	7:26 PM	53.780	9.761	0.001	0.000	0.000	0.001	0.000	0.000	0.000	9.637	0.001	0.001	9.552	0.001	0.000	0.001	0.000	0.001	9.861	0.001	9.871
4/23/2022	7:36 PM	53.956	0.001	9.824	9.771	9.638	9.611	9.836	9.580	9.694	0.001	9.763	9.706	0.002	9.676	9.512	9.956	9.837	9.958	0.001	9.467	0.001
4/23/2022	7:37 PM	53.965	9.748	0.001	0.000	0.000	0.001	0.000	0.000	0.001	9.620	0.001	0.001	9.543	0.001	0.000	0.001	0.000	0.001	9.849	0.001	9.864
4/23/2022	7:47 PM	54.141	9.754	0.001	0.000	0.000	0.001	0.000	0.000	0.000	9.629	0.001	0.001	9.547	0.001	0.000	0.001	0.000	0.001	9.857	0.001	9.867
4/23/2022	7:58 PM	54.317	9.757	0.001	0.000	0.000	0.001	0.000	0.000	0.000	9.630	0.001	0.001	9.547	0.001	0.000	0.001	0.000	0.001	9.857	0.001	9.869
4/23/2022	8:08 PM	54.492	9.757	0.001	0.000	0.000	0.001	0.000	0.000	0.000	9.631	0.001	0.001	9.548	0.001	0.000	0.001	0.000	0.001	9.858	0.001	9.870
4/23/2022	8:19 PM	54.668	9.757	0.001	0.000	0.000	0.001	0.000	0.000	0.000	9.632	0.001	0.001	9.549	0.001	0.000	0.001	0.000	0.001	9.859	0.001	9.870
4/23/2022	8:29 PM	54.844	9.757	0.001	0.000	0.000	0.001	0.000	0.000	0.000	9.632	0.001	0.001	9.549	0.001	0.000	0.001	0.000	0.001	9.859	0.001	9.870
4/23/2022	8:40 PM	55.020	9.759	0.001	0.000	0.000	0.001	0.000	0.000	0.000	9.632	0.001	0.001	9.548	0.001	0.000	0.001	0.000	0.001	9.860	0.001	9.871
4/23/2022	8:51 PM	55.196	9.758	0.001	0.000	0.000	0.001	0.000	0.000	0.000	9.632	0.001	0.001	9.549	0.001	0.000	0.001	0.000	0.001	9.860	0.001	9.872
4/23/2022	9:01 PM	55.371	9.758	0.001	0.000	0.000	0.001	0.000	0.000	0.000	9.633	0.001	0.001	9.548	0.001	0.000	0.001	0.000	0.001	9.860	0.001	9.871
4/23/2022	9:12 PM	55.547	9.758	0.001	0.000	0.000	0.001	0.000	0.000	0.000	9.634	0.001	0.001	9.549	0.001	0.000	0.001	0.000	0.001	9.861	0.001	9.872
4/23/2022	9:22 PM	55.723	9.759	0.001	0.000	0.000	0.001	0.000	0.000	0.000	9.634	0.001	0.001	9.549	0.001	0.000	0.001	0.000	0.001	9.861	0.001	9.872
4/23/2022	9:33 PM	55.899	9.758	0.001	0.000	0.000	0.001	0.000	0.000	0.000	9.634	0.001	0.001	9.550	0.001	0.000	0.001	0.000	0.001	9.861	0.001	9.872
4/23/2022	9:43 PM	56.075	9.758	0.001	0.000	0.000	0.001	0.000	0.000	0.000	9.634	0.001	0.001	9.550	0.001	0.000	0.001	0.000	0.001	9.861	0.001	9.873
4/23/2022	9:54 PM	56.250	9.759	0.001	0.000	0.000	0.001	0.000	0.000	0.000	9.634	0.001	0.001	9.550	0.001	0.000	0.001	0.000	0.001	9.861	0.001	9.873
4/23/2022	10:04 PM	56.426	9.759	0.001	0.000	0.000	0.001	0.000	0.000	0.000	9.635	0.001	0.001	9.550	0.001	0.000	0.001	0.000	0.001	9.861	0.001	9.872
4/23/2022	10:15 PM	56.602	9.759	0.001	0.000	0.000	0.001	0.000	0.000	0.000	9.636	0.001	0.001	9.550	0.001	0.000	0.001	0.000	0.001	9.861	0.001	9.873
4/23/2022	10:25 PM	56.778	9.760	0.001	0.000	0.000	0.001	0.000	0.000	0.000	9.636	0.001	0.001	9.551	0.001	0.000	0.001	0.000	0.001	9.862	0.001	9.872
4/23/2022	10:36 PM	56.953	0.001	9.825	9.770	9.634	9.612	9.837	9.579	9.695	0.001	9.763	9.705	0.002	9.675	9.514	9.956	9.835	9.958	0.001	9.464	0.001
4/23/2022	10:37 PM	56.963	9.748	0.001	0.000	0.000	0.001	0.000	0.000	0.001	9.622	0.001	0.001	9.541	0.001	0.000	0.001	0.000	0.001	9.849	0.001	9.862
4/23/2022	10:47 PM	57.139	9.755	0.001	0.000	0.000	0.001	0.000	0.000	0.000	9.632	0.001	0.001	9.547	0.001	0.000	0.001	0.000	0.001	9.856	0.001	9.868
4/23/2022	10:58 PM	57.314	9.756	0.001	0.000	0.000	0.001	0.000	0.000	0.000	9.633	0.001	0.001	9.549	0.001	0.000	0.001	0.000	0.001	9.859	0.001	9.869
4/23/2022	11:08 PM	57.490	9.756	0.001	0.000	0.000	0.001	0.000	0.000	0.000	9.635	0.001	0.001	9.549	0.001	0.000	0.001	0.000	0.001	9.860	0.001	9.870
4/23/2022	11:19 PM	57.666	9.757	0.001	0.000	0.000	0.001	0.000	0.000	0.000	9.634	0.001	0.001	9.549	0.001	0.000	0.001	0.000	0.001	9.858	0.001	9.870
4/23/2022	11:29 PM	57.842	9.757	0.001	0.000	0.000	0.001	0.000	0.000	0.000	9.634	0.001	0.001	9.550	0.001	0.000	0.001	0.000	0.001	9.859	0.001	9.870
4/23/2022	11:40 PM	58.017	9.757	0.001	0.000	0.000	0.001	0.000	0.000	0.000	9.634	0.001	0.001	9.549	0.001	0.000	0.001	0.000	0.001	9.860	0.001	9.870
4/23/2022	11:50 PM	58.193	9.758	0.001	0.000	0.000	0.001	0.000	0.000	0.000	9.635	0.001	0.001	9.550	0.001	0.000	0.001	0.000	0.001	9.859	0.001	9.870
4/24/2022	12:01 AM	58.369	9.758	0.001	0.000	0.000	0.001	0.000	0.000	0.000	9.635	0.001	0.001	9.550	0.001	0.000	0.001	0.000	0.001	9.859	0.001	9.871
4/24/2022	12:12 AM	58.545	9.758	0.001	0.000	0.000	0.001	0.000	0.000	0.000	9.635	0.001	0.001	9.550	0.001	0.000	0.001	0.000	0.001	9.860	0.001	9.873
4/24/2022	12:22 AM	58.721	9.759	0.001	0.000	0.000	0.001	0.000	0.000	0.000	9.636	0.001	0.001	9.551	0.001	0.000	0.001	0.000	0.001	9.860	0.001	9.872
4/24/2022	12:33 AM	58.897	9.758	0.001	0.000	0.000	0.001	0.000	0.000	0.000	9.635	0.001	0.001	9.550	0.001	0.000	0.001	0.000	0.001	9.861	0.001	9.872
4/24/2022	12:43 AM	59.072	9.759	0.001	0.000	0.000	0.001	0.000	0.000	0.000	9.636	0.001	0.001	9.550	0.001	0.000	0.001	0.000	0.001	9.860	0.001	9.873
4/24/2022	12:54 AM	59.248	9.759	0.001	0.000	0.000	0.001	0.000	0.000	0.000	9.637	0.001	0.001	9.551	0.001	0.000	0.001	0.000	0.001	9.860	0.001	9.873
4/24/2022	1:04 AM	59.424	9.759	0.001	0.000	0.000	0.001	0.000	0.000	0.000	9.637	0.001	0.001	9.550	0.001	0.000	0.001	0.000	0.001	9.860	0.001	9.873
4/24/2022	1:15 AM	59.600	9.760	0.001	0.000	0.000	0.001	0.000	0.000	0.000	9.636	0.001	0.001	9.551	0.001	0.000	0.001	0.000	0.001	9.862	0.001	9.873
4/24/2022	1:25 AM	59.776	9.759	0.001	0.000	0.000	0.001	0.000	0.000	0.000	9.636	0.001	0.001	9.551	0.001	0.000	0.001	0.000	0.001	9.861	0.001	9.873
4/24/2022	1:36 AM	59.951	0.001	9.826	9.770	9.636	9.611	9.836	9.580	9.694	0.001	9.763	9.706	0.002	9.673	9.514	9.955	9.836	9.958	0.001	9.466	0.001
4/24/2022	1:36 AM	59.960	9.748	0.001	0.000	0.000	0.001	0.000	0.000	0.001	9.623	0.001	0.001	9.540	0.001	0.000	0.001	0.000	0.001	9.851	0.001	9.863
4/24/2022	1:47 AM	60.136	9.755	0.001	0.000	0.000	0.001	0.000	0.000	0.000	9.631	0.001	0.001	9.545	0.001	0.000	0.001	0.000	0.001	9.857	0.001	9.870
4/24/2022	1:58 AM	60.312	9.757	0.001	0.000	0.000	0.001	0.000	0.000	0.000	9.633	0.001	0.001	9.548	0.001	0.000	0.001	0.000	0.001	9.859	0.001	9.869
4/24/2022	2:08 AM	60.488	9.757	0.001	0.000	0.000	0.001	0.000	0.000	0.000	9.634	0.001	0.001	9.549	0.001	0.000	0.001	0.000	0.001	9.859	0.001	9.870
4/24/2022	2:19 AM	60.664	9.758	0.001	0.000	0.000	0.001	0.000	0.000	0.000	9.634	0.001	0.001	9.550	0.001	0.000	0.001	0.000	0.001	9.858	0.001	9.871
4/24/2022	2:29 AM	60.839	9.759	0.001	0.000	0.000	0.001	0.000	0.000	0.000	9.635	0.001	0.001	9.550	0.001	0.000	0.001	0.000	0.001	9.860	0.001	9.872
4/24/2022	2:40 AM	61.015	9.758	0.001	0.000	0.000	0.001	0.000	0.000	0.000	9.636	0.001	0.001	9.550	0.001	0.000	0.001	0.000	0.001	9.860	0.001	9.871
4/24/2022	2:50 AM	61.191	9.759	0.001	0.000	0.000	0.001	0.000	0.000	0.000	9.636	0.001	0.001	9.550	0.001	0.000	0.001	0.000	0.001	9.860	0.001	9.872
4/24/2022	3:01 AM	61.367	9.759	0.001	0.000	0.000	0.001	0.000	0.000	0.000	9.637	0.001	0.001	9.551	0.001	0.000	0.001	0.000	0.001	9.862	0.001	9.872
4/24/2022	3:11 AM	61.543	9.759	0.001	0.000	0.000	0.001	0.000	0.000	0.000	9.636	0.001	0.001	9.552	0.001	0.000	0.001	0.000	0.001	9.862	0.001	9.871
4/24/2022	3:22 AM	61.718	9.758	0.001	0.000	0.000	0.001	0.000	0.000	0.000	9.636	0.001	0.001	9.551	0.001	0.000	0.001	0.000	0.001	9.861	0.001	9.872
4/24/2022	3:33 AM	61.895	9.759	0.001	0.000	0.000	0.001	0.000	0.000	0.000	9.637	0.001	0.001	9.552	0.001	0.000	0.001	0.000	0.001	9.862	0.001	9.872
4/24/2022	3:43 AM	62.071	9.760	0.001	0.000	0.000	0.001	0.000	0.000	0.000	9.637	0.001	0.001	9.551	0.001	0.000	0.001	0.000	0.001	9.862	0.001	9.871
4/24/2022	3:54 AM	62.247	9.758	0.001	0.000	0.000	0.001	0.000	0.000	0.000	9.637	0.001	0.001	9.551	0.001	0.000	0.001	0.000	0.001	9.861	0.001	9.872
4/24/2022	4:04 AM	62.422	9.759	0.001	0.000	0.000	0.001	0.000	0.000	0.000	9.637	0.001	0.001	9.551	0.001	0.000	0.001	0.000	0.001	9.861	0.001	9.872
4/24/2022	4:15 AM	62.598	9.759	0.001	0.000	0.000	0.001	0.000	0.000	0.000	9.638	0.001	0.001	9.551	0.001	0.000	0.001	0.000	0.001	9.861	0.001	9.873
4/24/2022	4:25 AM	62.774	9.758	0.001	0.000	0.000	0.001	0.000	0.000	0.000	9.638	0.001	0.001	9.551	0.001	0.000	0.001	0.000	0.001	9.861	0.001	9.873
4/24/2022	4:36 AM	62.950	0.001	9.823	9.770	9.634	9.612	9.834	9.580	9.694	0.001	9.763	9.707	0.002	9.675	9.512	9.956	9.835	9.958	0.001	9.465	0.001
4/24/2022	4:36 AM	62.959	9.748	0.001	0.000	0.000	0.001	0.000	0.000	0.001	9.623	0.001	0.001	9.542	0.001	0.000	0.001	0.000	0.001	9.852	0.001	9.864
4/24/2022	4:47 AM	63.135	9.756	0.001	0.000	0.000	0.001	0.000	0.000	0.000	9.631	0.001	0.001	9.549	0.001	0.000	0.001	0.000	0.001	9.857	0.001	9.869
4/24/2022	4:57 AM	63.311	9.757	0.001	0.000	0.000	0.001	0.000	0.000	0.000	9.633	0.001	0.001	9.548	0.001	0.000	0.001	0.000	0.001	9.858	0.001	9.869
4/24/2022	5:08 AM	63.486	9.758	0.001	0.000	0.000	0.001	0.000	0.000	0.000	9.634	0.001	0.001	9.550	0.001	0.000	0.001	0.000	0.001	9.858	0.001	9.871
4/24/2022	5:19 AM	63.662	9.758	0.001	0.000	0.000	0.001	0.000	0.000	0.000	9.635	0.001	0.001	9.550	0.001	0.000	0.001	0.000	0.001	9.860	0.001	9.871
4/24/2022	5:29 AM	63.838	9.759	0.001	0.000	0.000	0.001	0.000	0.000	0.000	9.633	0.001	0.001	9.551	0.001	0.000	0.001	0.000	0.001	9.860	0.001	9.871
4/24/2022	5:40 AM	64.014	9.759	0.001	0.000	0.000	0.001	0.000	0.000	0.000	9.635	0.001	0.001	9.550	0.001	0.000	0.001	0.000	0.001	9.859	0.001	9.872
4/24/2022	5:50 AM	64.189	9.759	0.001	0.000	0.000	0.001	0.000	0.000	0.000	9.634	0.001	0.001	9.550	0.001	0.000	0.001	0.000	0.001	9.861	0.001	9.873
4/24/2022	6:01 AM	64.365	9.760	0.001	0.000	0.000	0.001	0.000	0.000	0.000	9.634	0.001	0.001	9.551	0.001	0.000	0.001	0.000	0.001	9.862	0.001	9.871
4/24/2022	6:11 AM	64.541	9.758	0.001	0.000	0.000	0.001	0.000	0.000	0.000	9.635	0.001	0.001	9.552	0.001	0.000	0.001	0.000	0.001	9.861	0.001	9.871
4/24/2022	6:22 AM	64.717	9.759	0.001	0.000	0.000	0.001	0.000	0.000	0.000	9.635	0.001	0.001	9.552	0.001	0.000	0.001	0.000	0.001	9.862	0.001	9.872
4/24/2022	6:32 AM	64.893	9.759	0.001	0.000	0.000	0.001	0.000	0.000	0.000	9.635	0.001	0.001	9.552	0.001	0.000	0.001	0.000	0.001	9.862	0.001	9.872
4/24/2022	6:43 AM	65.068	9.759	0.001	0.000	0.000	0.001	0.000	0.000	0.000	9.635	0.001	0.001	9.552	0.001	0.000	0.001	0.000	0.001	9.863	0.001	9.873
4/24/2022	6:53 AM	65.244	9.759	0.001	0.000	0.000	0.001	0.000	0.000	0.000	9.635	0.001	0.001	9.552	0.001	0.000	0.001	0.000	0.001	9.863	0.001	9.873
4/24/2022	7:04 AM	65.420	9.759	0.001	0.000	0.000	0.001	0.000	0.000	0.000	9.636	0.001	0.001	9.553	0.001	0.000	0.001	0.000	0.001	9.864	0.001	9.873
4/24/2022	7:15 AM	65.596	9.760	0.001	0.000	0.000	0.001	0.000	0.000	0.000	9.636	0.001	0.001	9.552	0.001	0.000	0.001	0.000	0.001	9.863	0.001	9.873
4/24/2022	7:25 AM	65.772	9.760	0.001	0.000	0.000	0.001	0.000	0.000	0.000	9.636	0.001	0.001	9.552	0.001	0.000	0.001	0.000	0.001	9.862	0.001	9.873
4/24/2022	7:36 AM	65.947	0.001	9.824	9.770	9.636	9.610	9.834	9.580	9.693	0.001	9.763	9.706	0.002	9.675	9.513	9.955	9.837	9.959	0.001	9.466	0.001
4/24/2022	7:36 AM	65.957	9.748	0.001	0.000	0.000	0.001	0.000	0.000	0.001	9.625	0.001	0.001	9.542	0.001	0.000	0.001	0.000	0.001	9.851	0.001	9.863
4/24/2022	7:47 AM	66.132	9.754	0.001	0.000	0.000	0.001	0.000	0.000	0.000	9.632	0.001	0.001	9.547	0.001	0.000	0.001	0.000	0.001	9.859	0.001	9.870
4/24/2022	7:57 AM	66.308	9.755	0.001	0.000	0.000	0.001	0.000	0.000	0.000	9.633	0.001	0.001	9.549	0.001	0.000	0.001	0.000	0.001	9.860	0.001	9.871
4/24/2022	8:08 AM	66.484	9.756	0.001	0.000	0.000	0.001	0.000	0.000	0.000	9.635	0.001	0.001	9.549	0.001	0.000	0.001	0.000	0.001	9.860	0.001	9.871
4/24/2022	8:18 AM	66.660	9.756	0.001	0.000	0.000	0.001	0.000	0.000	0.000	9.635	0.001	0.001	9.549	0.001	0.000	0.001	0.000	0.001	9.860	0.001	9.871
4/24/2022	8:29 AM	66.836	9.757	0.001	0.000	0.000	0.001	0.000	0.000	0.000	9.636	0.001	0.001	9.550	0.001	0.000	0.001	0.000	0.001	9.861	0.001	9.872
4/24/2022	8:39 AM	67.011	9.757	0.001	0.000	0.000	0.001	0.000	0.000	0.000	9.634	0.001	0.001	9.550	0.001	0.000	0.001	0.000	0.001	9.862	0.001	9.871
4/24/2022	8:50 AM	67.187	9.757	0.001	0.000	0.000	0.001	0.000	0.000	0.000	9.635	0.001	0.001	9.551	0.001	0.000	0.001	0.000	0.001	9.862	0.001	9.873
4/24/2022	9:01 AM	67.363	9.757	0.001	0.000	0.000	0.001	0.000	0.000	0.000	9.636	0.001	0.001	9.551	0.001	0.000	0.001	0.000	0.001	9.862	0.001	9.872
4/24/2022	9:11 AM	67.539	9.758	0.001	0.000	0.000	0.001	0.000	0.000	0.000	9.636	0.001	0.001	9.551	0.001	0.000	0.001	0.000	0.001	9.862	0.001	9.872
4/24/2022	9:22 AM	67.715	9.758	0.001	0.000	0.000	0.001	0.000	0.000	0.000	9.636	0.001	0.001	9.552	0.001	0.000	0.001	0.000	0.001	9.862	0.001	9.872
4/24/2022	9:32 AM	67.890	9.758	0.001	0.000	0.000	0.001	0.000	0.000	0.000	9.637	0.001	0.001	9.551	0.001	0.000	0.001	0.000	0.001	9.863	0.001	9.872
4/24/2022	9:43 AM	68.066	9.759	0.001	0.000	0.000	0.001	0.000	0.000	0.000	9.637	0.001	0.001	9.552	0.001	0.000	0.001	0.000	0.001	9.863	0.001	9.872
4/24/2022	9:53 AM	68.242	9.758	0.001	0.000	0.000	0.001	0.000	0.000	0.000	9.637	0.001	0.001	9.552	0.001	0.000	0.001	0.000	0.001	9.863	0.001	9.873
4/24/2022	10:04 AM	68.418	9.759	0.001	0.000	0.000	0.001	0.000	0.000	0.000	9.636	0.001	0.001	9.552	0.001	0.000	0.001	0.000	0.001	9.862	0.001	9.874
4/24/2022	10:14 AM	68.593	9.759	0.001	0.000	0.000	0.001	0.000	0.000	0.000	9.636	0.001	0.001	9.552	0.001	0.000	0.001	0.000	0.001	9.863	0.001	9.874
4/24/2022	10:25 AM	68.769	9.760	0.001	0.000	0.000	0.001	0.000	0.000	0.000	9.636	0.001	0.001	9.552	0.001	0.000	0.001	0.000	0.001	9.864	0.001	9.874
4/24/2022	10:36 AM	68.945	0.001	9.824	9.771	9.638	9.610	9.836	9.581	9.694	0.001	9.763	9.706	0.002	9.675	9.514	9.957	9.837	9.957	0.001	9.465	0.001
4/24/2022	10:36 AM	68.954	9.748	0.001	0.000	0.000	0.001	0.000	0.000	0.001	9.623	0.001	0.001	9.542	0.001	0.000	0.001	0.000	0.001	9.850	0.001	9.864
4/24/2022	10:47 AM	69.130	9.753	0.001	0.000	0.000	0.001	0.000	0.000	0.000	9.632	0.001	0.001	9.547	0.001	0.000	0.001	0.000	0.001	9.858	0.001	9.869
4/24/2022	10:57 AM	69.306	9.756	0.001	0.000	0.000	0.001	0.000	0.000	0.000	9.634	0.001	0.001	9.549	0.001	0.000	0.001	0.000	0.001	9.860	0.001	9.872
4/24/2022	11:08 AM	69.482	9.757	0.001	0.000	0.000	0.001	0.000	0.000	0.000	9.634	0.001	0.001	9.550	0.001	0.000	0.001	0.000	0.001	9.861	0.001	9.873
4/24/2022	11:18 AM	69.657	9.757	0.001	0.000	0.000	0.001	0.000	0.000	0.000	9.635	0.001	0.001	9.551	0.001	0.000	0.001	0.000	0.001	9.861	0.001	9.874
4/24/2022	11:29 AM	69.833	9.757	0.001	0.000	0.000	0.001	0.000	0.000	0.000	9.636	0.001	0.001	9.551	0.001	0.000	0.001	0.000	0.001	9.861	0.001	9.874
4/24/2022	11:39 AM	70.009	9.758	0.001	0.000	0.000	0.001	0.000	0.000	0.000	9.636	0.001	0.001	9.552	0.001	0.000	0.001	0.000	0.001	9.862	0.001	9.874
4/24/2022	11:50 AM	70.185	9.757	0.001	0.000	0.000	0.001	0.000	0.000	0.000	9.636	0.001	0.001	9.551	0.001	0.000	0.001	0.000	0.001	9.862	0.001	9.874
4/24/2022	12:00 PM	70.361	9.759	0.001	0.000	0.000	0.001	0.000	0.000	0.000	9.637	0.001	0.001	9.552	0.001	0.000	0.001	0.000	0.001	9.863	0.001	9.874
4/24/2022	12:11 PM	70.536	9.759	0.001	0.000	0.000	0.001	0.000	0.000	0.000	9.637	0.001	0.001	9.552	0.001	0.000	0.001	0.000	0.001	9.862	0.001	9.875
4/24/2022	12:22 PM	70.712	9.759	0.001	0.000	0.000	0.001	0.000	0.000	0.000	9.636	0.001	0.001	9.552	0.001	0.000	0.001	0.000	0.001	9.862	0.001	9.875
4/24/2022	12:32 PM	70.888	9.758	0.001	0.000	0.000	0.001	0.000	0.000	0.000	9.637	0.001	0.001	9.552	0.001	0.000	0.001	0.000	0.001	9.863	0.001	9.876
4/24/2022	12:43 PM	71.064	9.759	0.001	0.000	0.000	0.001	0.000	0.000	0.000	9.637	0.001	0.001	9.553	0.001	0.000	0.001	0.000	0.001	9.863	0.001	9.876
4/24/2022	12:53 PM	71.240	9.759	0.001	0.000	0.000	0.001	0.000	0.000	0.000	9.638	0.001	0.001	9.552	0.001	0.000	0.001	0.000	0.001	9.863	0.001	9.877
4/24/2022	1:04 PM	71.415	9.760	0.001	0.000	0.000	0.001	0.000	0.000	0.000	9.637	0.001	0.001	9.552	0.001	0.000	0.001	0.000	0.001	9.864	0.001	9.876
4/24/2022	1:14 PM	71.591	9.759	0.001	0.000	0.000	0.001	0.000	0.000	0.000	9.638	0.001	0.001	9.553	0.001	0.000	0.001	0.000	0.001	9.864	0.001	9.876
4/24/2022	1:25 PM	71.767	9.760	0.001	0.000	0.000	0.001	0.000	0.000	0.000	9.638	0.001	0.001	9.552	0.001	0.000	0.001	0.000	0.001	9.864	0.001	9.877
4/24/2022	1:35 PM	71.943	0.001	9.823	9.772	9.637	9.610	9.836	9.580	9.695	0.001	9.763	9.706	0.002	9.675	9.513	9.955	9.835	9.958	0.001	9.464	0.001
4/24/2022	1:36 PM	71.952	9.748	0.001	0.000	0.000	0.001	0.000	0.000	0.001	9.625	0.001	0.001	9.542	0.001	0.000	0.001	0.000	0.001	9.851	0.001	9.866
4/24/2022	1:46 PM	72.128	9.757	0.001	0.000	0.000	0.001	0.000	0.000	0.000	9.633	0.001	0.001	9.549	0.001	0.000	0.001	0.000	0.001	9.857	0.001	9.871
4/24/2022	1:57 PM	72.304	9.759	0.001	0.000	0.000	0.001	0.000	0.000	0.000	9.634	0.001	0.001	9.550	0.001	0.000	0.001	0.000	0.001	9.859	0.001	9.873
4/24/2022	2:08 PM	72.479	9.760	0.001	0.000	0.000	0.001	0.000	0.000	0.000	9.634	0.001	0.001	9.550	0.001	0.000	0.001	0.000	0.001	9.859	0.001	9.872
4/24/2022	2:18 PM	72.655	9.760	0.001	0.000	0.000	0.001	0.000	0.000	0.000	9.635	0.001	0.001	9.551	0.001	0.000	0.001	0.000	0.001	9.860	0.001	9.872
4/24/2022	2:29 PM	72.831	9.761	0.001	0.000	0.000	0.001	0.000	0.000	0.000	9.635	0.001	0.001	9.551	0.001	0.000	0.001	0.000	0.001	9.859	0.001	9.872
4/24/2022	2:39 PM	73.007	9.760	0.001	0.000	0.000	0.001	0.000	0.000	0.000	9.636	0.001	0.001	9.551	0.001	0.000	0.001	0.000	0.001	9.860	0.001	9.872
4/24/2022	2:50 PM	73.183	9.761	0.001	0.000	0.000	0.001	0.000	0.000	0.000	9.636	0.001	0.001	9.551	0.001	0.000	0.001	0.000	0.001	9.861	0.001	9.874
4/24/2022	3:00 PM	73.358	9.760	0.001	0.000	0.000	0.001	0.000	0.000	0.000	9.636	0.001	0.001	9.552	0.001	0.000	0.001	0.000	0.001	9.861	0.001	9.873
4/24/2022	3:11 PM	73.534	9.760	0.001	0.000	0.000	0.001	0.000	0.000	0.000	9.637	0.001	0.001	9.551	0.001	0.000	0.001	0.000	0.001	9.861	0.001	9.873
4/24/2022	3:21 PM	73.710	9.760	0.001	0.000	0.000	0.001	0.000	0.000	0.000	9.637	0.001	0.001	9.552	0.001	0.000	0.001	0.000	0.001	9.861	0.001	9.873
4/24/2022	3:32 PM	73.886	9.762	0.001	0.000	0.000	0.001	0.000	0.000	0.000	9.638	0.001	0.001	9.552	0.001	0.000	0.001	0.000	0.001	9.862	0.001	9.874
4/24/2022	3:43 PM	74.061	9.761	0.001	0.000	0.000	0.001	0.000	0.000	0.000	9.638	0.001	0.001	9.552	0.001	0.000	0.001	0.000	0.001	9.861	0.001	9.873
4/24/2022	3:53 PM	74.237	9.761	0.001	0.000	0.000	0.001	0.000	0.000	0.000	9.639	0.001	0.001	9.551	0.001	0.000	0.001	0.000	0.001	9.862	0.001	9.874
4/24/2022	4:04 PM	74.413	9.761	0.001	0.000	0.000	0.001	0.000	0.000	0.000	9.639	0.001	0.001	9.551	0.001	0.000	0.001	0.000	0.001	9.861	0.001	9.875
4/24/2022	4:14 PM	74.589	9.761	0.001	0.000	0.000	0.001	0.000	0.000	0.000	9.639	0.001	0.001	9.551	0.001	0.000	0.001	0.000	0.001	9.862	0.001	9.874
4/24/2022	4:25 PM	74.765	9.762	0.001	0.000	0.000	0.001	0.000	0.000	0.000	9.638	0.001	0.001	9.552	0.001	0.000	0.001	0.000	0.001	9.862	0.001	9.874
4/24/2022	4:35 PM	74.940	0.001	9.824	9.771	9.635	9.612	9.835	9.582	9.694	0.001	9.763	9.707	0.002	9.675	9.512	9.955	9.835	9.959	0.001	9.465	0.001
4/24/2022	4:36 PM	74.950	9.752	0.001	0.000	0.000	0.001	0.000	0.000	0.001	9.624	0.001	0.001	9.544	0.001	0.000	0.001	0.000	0.001	9.850	0.001	9.864
4/24/2022	4:46 PM	75.125	9.756	0.001	0.000	0.000	0.001	0.000	0.000	0.000	9.632	0.001	0.001	9.547	0.001	0.000	0.001	0.000	0.001	9.856	0.001	9.871
4/24/2022	4:57 PM	75.301	9.759	0.001	0.000	0.000	0.001	0.000	0.000	0.000	9.633	0.001	0.001	9.548	0.001	0.000	0.001	0.000	0.001	9.858	0.001	9.873
4/24/2022	5:07 PM	75.477	9.759	0.001	0.000	0.000	0.001	0.000	0.000	0.000	9.634	0.001	0.001	9.550	0.001	0.000	0.001	0.000	0.001	9.859	0.001	9.873
4/24/2022	5:18 PM	75.653	9.759	0.001	0.000	0.000	0.001	0.000	0.000	0.000	9.635	0.001	0.001	9.550	0.001	0.000	0.001	0.000	0.001	9.861	0.001	9.873
4/24/2022	5:29 PM	75.829	9.759	0.001	0.000	0.000	0.001	0.000	0.000	0.000	9.635	0.001	0.001	9.550	0.001	0.000	0.001	0.000	0.001	9.861	0.001	9.873
4/24/2022	5:39 PM	76.004	9.760	0.001	0.000	0.000	0.001	0.000	0.000	0.000	9.635	0.001	0.001	9.550	0.001	0.000	0.001	0.000	0.001	9.861	0.001	9.873
4/24/2022	5:50 PM	76.180	9.760	0.001	0.000	0.000	0.001	0.000	0.000	0.000	9.635	0.001	0.001	9.550	0.001	0.000	0.001	0.000	0.001	9.862	0.001	9.873
4/24/2022	6:00 PM	76.356	9.759	0.001	0.000	0.000	0.001	0.000	0.000	0.000	9.635	0.001	0.001	9.551	0.001	0.000	0.001	0.000	0.001	9.862	0.001	9.873
4/24/2022	6:11 PM	76.532	9.761	0.001	0.000	0.000	0.001	0.000	0.000	0.000	9.636	0.001	0.001	9.551	0.001	0.000	0.001	0.000	0.001	9.862	0.001	9.873
4/24/2022	6:21 PM	76.708	9.761	0.001	0.000	0.000	0.001	0.000	0.000	0.000	9.637	0.001	0.001	9.552	0.001	0.000	0.001	0.000	0.001	9.861	0.001	9.874
4/24/2022	6:32 PM	76.883	9.761	0.001	0.000	0.000	0.001	0.000	0.000	0.000	9.637	0.001	0.001	9.551	0.001	0.000	0.001	0.000	0.001	9.860	0.001	9.874
4/24/2022	6:42 PM	77.059	9.762	0.001	0.000	0.000	0.001	0.000	0.000	0.000	9.637	0.001	0.001	9.552	0.001	0.000	0.001	0.000	0.001	9.863	0.001	9.874
4/24/2022	6:53 PM	77.235	9.762	0.001	0.000	0.000	0.001	0.000	0.000	0.000	9.637	0.001	0.001	9.551	0.001	0.000	0.001	0.000	0.001	9.860	0.001	9.874
4/24/2022	7:03 PM	77.411	9.762	0.001	0.000	0.000	0.001	0.000	0.000	0.000	9.638	0.001	0.001	9.552	0.001	0.000	0.001	0.000	0.001	9.861	0.001	9.873
4/24/2022	7:14 PM	77.586	9.762	0.001	0.000	0.000	0.001	0.000	0.000	0.000	9.638	0.001	0.001	9.552	0.001	0.000	0.001	0.000	0.001	9.861	0.001	9.873
4/24/2022	7:25 PM	77.762	9.763	0.001	0.000	0.000	0.001	0.000	0.000	0.000	9.637	0.001	0.001	9.552	0.001	0.000	0.001	0.000	0.001	9.862	0.001	9.874
4/24/2022	7:35 PM	77.938	0.001	9.823	9.770	9.637	9.611	9.834	9.578	9.693	0.001	9.764	9.706	0.002	9.674	9.512	9.956	9.837	9.959	0.001	9.465	0.001
4/24/2022	7:36 PM	77.947	9.751	0.001	0.000	0.000	0.001	0.000	0.000	0.001	9.624	0.001	0.001	9.543	0.001	0.000	0.001	0.000	0.001	9.851	0.001	9.863
4/24/2022	7:46 PM	78.123	9.757	0.001	0.000	0.000	0.001	0.000	0.000	0.000	9.634	0.001	0.001	9.547	0.001	0.000	0.001	0.000	0.001	9.858	0.001	9.869
4/24/2022	7:57 PM	78.299	9.758	0.001	0.000	0.000	0.001	0.000	0.000	0.000	9.634	0.001	0.001	9.548	0.001	0.000	0.001	0.000	0.001	9.858	0.001	9.870
4/24/2022	8:07 PM	78.475	9.758	0.001	0.000	0.000	0.001	0.000	0.000	0.000	9.635	0.001	0.001	9.549	0.001	0.000	0.001	0.000	0.001	9.857	0.001	9.871
4/24/2022	8:18 PM	78.650	9.758	0.001	0.000	0.000	0.001	0.000	0.000	0.000	9.635	0.001	0.001	9.549	0.001	0.000	0.001	0.000	0.001	9.859	0.001	9.870
4/24/2022	8:28 PM	78.826	9.758	0.001	0.000	0.000	0.001	0.000	0.000	0.000	9.635	0.001	0.001	9.549	0.001	0.000	0.001	0.000	0.001	9.860	0.001	9.871
4/24/2022	8:39 PM	79.002	9.758	0.001	0.000	0.000	0.001	0.000	0.000	0.000	9.636	0.001	0.001	9.550	0.001	0.000	0.001	0.000	0.001	9.861	0.001	9.873
4/24/2022	8:49 PM	79.178	9.759	0.001	0.000	0.000	0.001	0.000	0.000	0.000	9.635	0.001	0.001	9.549	0.001	0.000	0.001	0.000	0.001	9.862	0.001	9.872
4/24/2022	9:00 PM	79.354	9.760	0.001	0.000	0.000	0.001	0.000	0.000	0.000	9.637	0.001	0.001	9.550	0.001	0.000	0.001	0.000	0.001	9.862	0.001	9.872
4/24/2022	9:11 PM	79.529	9.759	0.001	0.000	0.000	0.001	0.000	0.000	0.000	9.636	0.001	0.001	9.549	0.001	0.000	0.001	0.000	0.001	9.863	0.001	9.873
4/24/2022	9:21 PM	79.705	9.760	0.001	0.000	0.000	0.001	0.000	0.000	0.000	9.637	0.001	0.001	9.550	0.001	0.000	0.001	0.000	0.001	9.862	0.001	9.873
4/24/2022	9:32 PM	79.881	9.759	0.001	0.000	0.000	0.001	0.000	0.000	0.000	9.636	0.001	0.001	9.550	0.001	0.000	0.001	0.000	0.001	9.862	0.001	9.874
4/24/2022	9:42 PM	80.057	9.759	0.001	0.000	0.000	0.001	0.000	0.000	0.000	9.636	0.001	0.001	9.550	0.001	0.000	0.001	0.000	0.001	9.861	0.001	9.874
4/24/2022	9:53 PM	80.233	9.759	0.001	0.000	0.000	0.001	0.000	0.000	0.000	9.637	0.001	0.001	9.550	0.001	0.000	0.001	0.000	0.001	9.861	0.001	9.874
4/24/2022	10:03 PM	80.408	9.759	0.001	0.000	0.000	0.001	0.000	0.000	0.000	9.637	0.001	0.001	9.551	0.001	0.000	0.001	0.000	0.001	9.862	0.001	9.875
4/24/2022	10:14 PM	80.584	9.760	0.001	0.000	0.000	0.001	0.000	0.000	0.000	9.638	0.001	0.001	9.551	0.001	0.000	0.001	0.000	0.001	9.861	0.001	9.874
4/24/2022	10:24 PM	80.760	9.760	0.001	0.000	0.000	0.001	0.000	0.000	0.000	9.637	0.001	0.001	9.551	0.001	0.000	0.001	0.000	0.001	9.861	0.001	9.874
4/24/2022	10:35 PM	80.936	0.001	9.825	9.771	9.636	9.610	9.834	9.581	9.694	0.001	9.765	9.705	0.002	9.674	9.513	9.955	9.836	9.958	0.001	9.465	0.001
4/24/2022	10:36 PM	80.945	9.750	0.001	0.000	0.000	0.001	0.000	0.000	0.001	9.626	0.001	0.001	9.542	0.001	0.000	0.001	0.000	0.001	9.852	0.001	9.863
4/24/2022	10:46 PM	81.121	9.758	0.001	0.000	0.000	0.001	0.000	0.000	0.000	9.633	0.001	0.001	9.547	0.001	0.000	0.001	0.000	0.001	9.858	0.001	9.869
4/24/2022	10:57 PM	81.297	9.758	0.001	0.000	0.000	0.001	0.000	0.000	0.000	9.635	0.001	0.001	9.550	0.001	0.000	0.001	0.000	0.001	9.859	0.001	9.870
4/24/2022	11:07 PM	81.472	9.760	0.001	0.000	0.000	0.001	0.000	0.000	0.000	9.636	0.001	0.001	9.549	0.001	0.000	0.001	0.000	0.001	9.859	0.001	9.869
4/24/2022	11:18 PM	81.648	9.760	0.001	0.000	0.000	0.001	0.000	0.000	0.000	9.635	0.001	0.001	9.549	0.001	0.000	0.001	0.000	0.001	9.860	0.001	9.870
4/24/2022	11:28 PM	81.824	9.760	0.001	0.000	0.000	0.001	0.000	0.000	0.000	9.634	0.001	0.001	9.549	0.001	0.000	0.001	0.000	0.001	9.860	0.001	9.870
4/24/2022	11:39 PM	82.000	9.760	0.001	0.000	0.000	0.001	0.000	0.000	0.000	9.635	0.001	0.001	9.549	0.001	0.000	0.001	0.000	0.001	9.860	0.001	9.871
4/24/2022	11:49 PM	82.176	9.760	0.001	0.000	0.000	0.001	0.000	0.000	0.000	9.636	0.001	0.001	9.550	0.001	0.000	0.001	0.000	0.001	9.860	0.001	9.871
4/25/2022	12:00 AM	82.351	9.760	0.001	0.000	0.000	0.001	0.000	0.000	0.000	9.636	0.001	0.001	9.549	0.001	0.000	0.001	0.000	0.001	9.860	0.001	9.872
4/25/2022	12:10 AM	82.527	9.761	0.001	0.000	0.000	0.001	0.000	0.000	0.000	9.636	0.001	0.001	9.549	0.001	0.000	0.001	0.000	0.001	9.860	0.001	9.872
