4/21/2022	1:39 PM	0.009	-0.000	0.000	9.826	0.000	0.000	0.000	9.648	0.000	0.000	0.000	9.701	0.000	-0.000	0.000	0.000	9.829	0.000	0.000	-0.000	9.828
4/21/2022	1:50 PM	0.185	0.001	0.001	9.825	0.001	0.001	0.001	9.650	0.001	0.001	0.001	9.702	0.001	0.000	0.000	0.000	9.832	0.001	0.001	0.000	9.829
4/21/2022	2:00 PM	0.361	0.001	0.001	9.826	0.001	0.001	0.001	9.651	0.001	0.001	0.001	9.703	0.001	0.000	0.000	0.000	9.834	0.001	0.001	0.000	9.830
4/21/2022	2:11 PM	0.536	0.001	0.001	9.826	0.001	0.001	0.001	9.651	0.001	0.001	0.001	9.702	0.001	0.000	0.000	0.000	9.835	0.001	0.001	0.000	9.830
4/21/2022	2:22 PM	0.712	0.001	0.001	9.829	0.001	0.001	0.001	9.653	0.001	0.001	0.001	9.704	0.001	0.000	0.000	0.000	9.836	0.001	0.001	0.000	9.831
4/21/2022	2:32 PM	0.888	0.001	0.001	9.828	0.001	0.001	0.001	9.653	0.001	0.001	0.001	9.705	0.001	0.000	0.000	0.000	9.837	0.001	0.001	0.000	9.832
4/21/2022	2:43 PM	1.064	0.001	0.001	9.829	0.001	0.001	0.001	9.653	0.001	0.001	0.001	9.706	0.001	0.000	0.000	0.000	9.837	0.001	0.001	0.000	9.833
4/21/2022	2:53 PM	1.240	0.001	0.001	9.830	0.001	0.001	0.001	9.654	0.001	0.001	0.001	9.705	0.001	0.000	0.000	0.000	9.837	0.001	0.001	0.000	9.834
4/21/2022	3:04 PM	1.415	0.001	0.001	9.830	0.001	0.001	0.001	9.655	0.001	0.001	0.001	9.706	0.001	0.000	0.000	0.000	9.838	0.001	0.001	0.000	9.835
4/21/2022	3:14 PM	1.591	0.001	0.001	9.831	0.001	0.001	0.001	9.655	0.001	0.001	0.001	9.706	0.001	0.000	0.000	0.000	9.840	0.001	0.001	0.000	9.837
4/21/2022	3:25 PM	1.767	0.001	0.001	9.830	0.001	0.001	0.001	9.655	0.001	0.001	0.001	9.707	0.001	0.000	0.000	0.000	9.841	0.001	0.001	0.000	9.837
4/21/2022	3:35 PM	1.943	0.001	0.001	9.831	0.001	0.001	0.001	9.655	0.001	0.001	0.001	9.708	0.001	0.000	0.000	0.000	9.841	0.001	0.001	0.000	9.835
4/21/2022	3:46 PM	2.119	0.001	0.001	9.831	0.001	0.001	0.001	9.655	0.001	0.001	0.001	9.706	0.001	0.000	0.000	0.000	9.842	0.001	0.001	0.000	9.834
4/21/2022	3:56 PM	2.294	0.001	0.001	9.832	0.001	0.001	0.001	9.656	0.001	0.001	0.001	9.707	0.001	0.000	0.000	0.000	9.843	0.001	0.001	0.000	9.836
4/21/2022	4:07 PM	2.470	0.001	0.001	9.832	0.001	0.001	0.001	9.655	0.001	0.001	0.001	9.710	0.001	0.000	0.000	0.000	9.842	0.001	0.001	0.000	9.838
4/21/2022	4:18 PM	2.646	0.001	0.001	9.833	0.001	0.001	0.001	9.656	0.001	0.001	0.001	9.710	0.001	0.000	0.000	0.000	9.843	0.001	0.001	0.000	9.837
4/21/2022	4:28 PM	2.822	0.001	0.001	9.834	0.001	0.001	0.001	9.655	0.001	0.001	0.001	9.710	0.001	0.000	0.000	0.000	9.842	0.001	0.001	0.000	9.837
4/21/2022	4:39 PM	2.997	9.735	9.686	0.002	9.675	9.784	9.801	0.001	9.703	9.820	9.784	0.002	9.743	9.724	9.818	9.759	0.001	9.682	9.722	9.727	0.001
4/21/2022	4:39 PM	3.007	0.001	0.001	9.819	0.001	0.001	0.001	9.642	0.001	0.001	0.001	9.696	0.001	0.000	0.001	0.000	9.827	0.001	0.001	0.000	9.824
4/21/2022	4:50 PM	3.182	0.001	0.001	9.827	0.001	0.001	0.001	9.649	0.001	0.001	0.001	9.704	0.001	0.000	0.000	0.000	9.836	0.001	0.001	0.000	9.831
4/21/2022	5:00 PM	3.358	0.001	0.001	9.830	0.001	0.001	0.001	9.652	0.001	0.001	0.001	9.706	0.001	0.000	0.000	0.000	9.838	0.001	0.001	0.000	9.832
4/21/2022	5:11 PM	3.534	0.001	0.001	9.829	0.001	0.001	0.001	9.652	0.001	0.001	0.001	9.707	0.001	0.000	0.000	0.000	9.840	0.001	0.001	0.000	9.834
4/21/2022	5:21 PM	3.710	0.001	0.001	9.830	0.001	0.001	0.001	9.653	0.001	0.001	0.001	9.708	0.001	0.000	0.000	0.000	9.840	0.001	0.001	0.000	9.836
4/21/2022	5:32 PM	3.885	0.001	0.001	9.830	0.001	0.001	0.001	9.653	0.001	0.001	0.001	9.709	0.001	0.000	0.000	0.000	9.841	0.001	0.001	0.000	9.836
4/21/2022	5:42 PM	4.061	0.001	0.001	9.830	0.001	0.001	0.001	9.653	0.001	0.001	0.001	9.708	0.001	0.000	0.000	0.000	9.843	0.001	0.001	0.000	9.837
4/21/2022	5:53 PM	4.237	0.001	0.001	9.832	0.001	0.001	0.001	9.653	0.001	0.001	0.001	9.710	0.001	0.000	0.000	0.000	9.843	0.001	0.001	0.000	9.836
4/21/2022	6:04 PM	4.413	0.001	0.001	9.832	0.001	0.001	0.001	9.653	0.001	0.001	0.001	9.709	0.001	0.000	0.000	0.000	9.843	0.001	0.001	0.000	9.836
4/21/2022	6:14 PM	4.589	0.001	0.001	9.833	0.001	0.001	0.001	9.654	0.001	0.001	0.001	9.711	0.001	0.000	0.000	0.000	9.844	0.001	0.001	0.000	9.836
4/21/2022	6:25 PM	4.764	0.001	0.001	9.833	0.001	0.001	0.001	9.654	0.001	0.001	0.001	9.711	0.001	0.000	0.000	0.000	9.842	0.001	0.001	0.000	9.836
4/21/2022	6:35 PM	4.940	0.001	0.001	9.834	0.001	0.001	0.001	9.655	0.001	0.001	0.001	9.711	0.001	0.000	0.000	0.000	9.843	0.001	0.001	0.000	9.837
4/21/2022	6:46 PM	5.116	0.001	0.001	9.834	0.001	0.001	0.001	9.655	0.001	0.001	0.001	9.710	0.001	0.000	0.000	0.000	9.844	0.001	0.001	0.000	9.837
4/21/2022	6:56 PM	5.292	0.001	0.001	9.834	0.001	0.001	0.001	9.656	0.001	0.001	0.001	9.711	0.001	0.000	0.000	0.000	9.844	0.001	0.001	0.000	9.837
4/21/2022	7:07 PM	5.467	0.001	0.001	9.834	0.001	0.001	0.001	9.657	0.001	0.001	0.001	9.712	0.001	0.000	0.000	0.000	9.844	0.001	0.001	0.000	9.836
4/21/2022	7:17 PM	5.643	0.001	0.001	9.833	0.001	0.001	0.001	9.657	0.001	0.001	0.001	9.712	0.001	0.000	0.000	0.000	9.844	0.001	0.001	0.000	9.837
4/21/2022	7:28 PM	5.819	0.001	0.001	9.834	0.001	0.001	0.001	9.657	0.001	0.001	0.001	9.712	0.001	0.000	0.000	0.000	9.845	0.001	0.001	0.000	9.837
4/21/2022	7:39 PM	5.995	9.737	9.685	0.002	9.673	9.784	9.802	0.001	9.704	9.821	9.785	0.002	9.743	9.727	9.819	9.759	0.001	9.683	9.724	9.727	0.001
4/21/2022	7:39 PM	6.004	0.001	0.001	9.822	0.001	0.001	0.001	9.645	0.001	0.001	0.001	9.699	0.001	0.000	0.001	0.000	9.828	0.001	0.001	0.000	9.824
4/21/2022	7:50 PM	6.180	0.001	0.001	9.829	0.001	0.001	0.001	9.652	0.001	0.001	0.001	9.704	0.001	0.000	0.000	0.000	9.837	0.001	0.001	0.000	9.830
4/21/2022	8:00 PM	6.356	0.001	0.001	9.830	0.001	0.001	0.001	9.653	0.001	0.001	0.001	9.706	0.001	0.000	0.000	0.000	9.839	0.001	0.001	0.000	9.831
4/21/2022	8:11 PM	6.531	0.001	0.001	9.831	0.001	0.001	0.001	9.653	0.001	0.001	0.001	9.708	0.001	0.000	0.000	0.000	9.840	0.001	0.001	0.000	9.834
4/21/2022	8:21 PM	6.707	0.001	0.001	9.832	0.001	0.001	0.001	9.656	0.001	0.001	0.001	9.710	0.001	0.000	0.000	0.000	9.840	0.001	0.001	0.000	9.834
4/21/2022	8:32 PM	6.883	0.001	0.001	9.831	0.001	0.001	0.001	9.657	0.001	0.001	0.001	9.709	0.001	0.000	0.000	0.000	9.840	0.001	0.001	0.000	9.835
4/21/2022	8:42 PM	7.059	0.001	0.001	9.833	0.001	0.001	0.001	9.657	0.001	0.001	0.001	9.710	0.001	0.000	0.000	0.000	9.840	0.001	0.001	0.000	9.835
4/21/2022	8:53 PM	7.234	0.001	0.001	9.832	0.001	0.001	0.001	9.658	0.001	0.001	0.001	9.711	0.001	0.000	0.000	0.000	9.841	0.001	0.001	0.000	9.836
4/21/2022	9:03 PM	7.410	0.001	0.001	9.832	0.001	0.001	0.001	9.660	0.001	0.001	0.001	9.712	0.001	0.000	0.000	0.000	9.842	0.001	0.001	0.000	9.838
4/21/2022	9:14 PM	7.586	0.001	0.001	9.833	0.001	0.001	0.001	9.658	0.001	0.001	0.001	9.712	0.001	0.000	0.000	0.000	9.841	0.001	0.001	0.000	9.836
4/21/2022	9:25 PM	7.762	0.001	0.001	9.833	0.001	0.001	0.001	9.659	0.001	0.001	0.001	9.713	0.001	0.000	0.000	0.000	9.842	0.001	0.001	0.000	9.836
4/21/2022	9:35 PM	7.938	0.001	0.001	9.834	0.001	0.001	0.001	9.659	0.001	0.001	0.001	9.712	0.001	0.000	0.000	0.000	9.843	0.001	0.001	0.000	9.836
4/21/2022	9:46 PM	8.113	0.001	0.001	9.834	0.001	0.001	0.001	9.659	0.001	0.001	0.001	9.713	0.001	0.000	0.000	0.000	9.842	0.001	0.001	0.000	9.839
4/21/2022	9:56 PM	8.289	0.001	0.001	9.834	0.001	0.001	0.001	9.659	0.001	0.001	0.001	9.712	0.001	0.000	0.000	0.000	9.843	0.001	0.001	0.000	9.838
4/21/2022	10:07 PM	8.465	0.001	0.001	9.834	0.001	0.001	0.001	9.659	0.001	0.001	0.001	9.713	0.001	0.000	0.000	0.000	9.844	0.001	0.001	0.000	9.838
4/21/2022	10:17 PM	8.641	0.001	0.001	9.834	0.001	0.001	0.001	9.660	0.001	0.001	0.001	9.712	0.001	0.000	0.000	0.000	9.845	0.001	0.001	0.000	9.838
4/21/2022	10:28 PM	8.817	0.001	0.001	9.834	0.001	0.001	0.001	9.660	0.001	0.001	0.001	9.712	0.001	0.000	0.000	0.000	9.846	0.001	0.001	0.000	9.839
4/21/2022	10:38 PM	8.992	9.735	9.684	0.002	9.675	9.784	9.803	0.001	9.705	9.819	9.784	0.002	9.743	9.725	9.817	9.760	0.001	9.684	9.721	9.727	0.001
4/21/2022	10:39 PM	9.001	0.001	0.001	9.824	0.001	0.001	0.001	9.647	0.001	0.001	0.001	9.700	0.001	0.000	0.001	0.000	9.830	0.001	0.001	0.000	9.823
4/21/2022	10:49 PM	9.177	0.001	0.001	9.829	0.001	0.001	0.001	9.654	0.001	0.001	0.001	9.707	0.001	0.000	0.000	0.000	9.838	0.001	0.001	0.000	9.831
4/21/2022	11:00 PM	9.353	0.001	0.001	9.832	0.001	0.001	0.001	9.655	0.001	0.001	0.001	9.710	0.001	0.000	0.000	0.000	9.840	0.001	0.001	0.000	9.833
4/21/2022	11:11 PM	9.529	0.001	0.001	9.832	0.001	0.001	0.001	9.656	0.001	0.001	0.001	9.710	0.001	0.000	0.000	0.000	9.843	0.001	0.001	0.000	9.835
4/21/2022	11:21 PM	9.705	0.001	0.001	9.833	0.001	0.001	0.001	9.657	0.001	0.001	0.001	9.711	0.001	0.000	0.000	0.000	9.842	0.001	0.001	0.000	9.836
4/21/2022	11:32 PM	9.880	0.001	0.001	9.835	0.001	0.001	0.001	9.656	0.001	0.001	0.001	9.710	0.001	0.000	0.000	0.000	9.843	0.001	0.001	0.000	9.837
4/21/2022	11:42 PM	10.056	0.001	0.001	9.834	0.001	0.001	0.001	9.658	0.001	0.001	0.001	9.710	0.001	0.000	0.000	0.000	9.845	0.001	0.001	0.000	9.837
4/21/2022	11:53 PM	10.232	0.001	0.001	9.833	0.001	0.001	0.001	9.659	0.001	0.001	0.001	9.712	0.001	0.000	0.000	0.000	9.844	0.001	0.001	0.000	9.838
4/22/2022	12:03 AM	10.408	0.001	0.001	9.835	0.001	0.001	0.001	9.658	0.001	0.001	0.001	9.712	0.001	0.000	0.000	0.000	9.844	0.001	0.001	0.000	9.837
4/22/2022	12:14 AM	10.584	0.001	0.001	9.834	0.001	0.001	0.001	9.658	0.001	0.001	0.001	9.712	0.001	0.000	0.000	0.000	9.844	0.001	0.001	0.000	9.838
4/22/2022	12:24 AM	10.759	0.001	0.001	9.835	0.001	0.001	0.001	9.658	0.001	0.001	0.001	9.712	0.001	0.000	0.000	0.000	9.845	0.001	0.001	0.000	9.837
4/22/2022	12:35 AM	10.935	0.001	0.001	9.836	0.001	0.001	0.001	9.659	0.001	0.001	0.001	9.712	0.001	0.000	0.000	0.000	9.844	0.001	0.001	0.000	9.840
4/22/2022	12:45 AM	11.111	0.001	0.001	9.836	0.001	0.001	0.001	9.659	0.001	0.001	0.001	9.712	0.001	0.000	0.000	0.000	9.846	0.001	0.001	0.000	9.839
4/22/2022	12:56 AM	11.287	0.001	0.001	9.836	0.001	0.001	0.001	9.659	0.001	0.001	0.001	9.712	0.001	0.000	0.000	0.000	9.846	0.001	0.001	0.000	9.839
4/22/2022	1:07 AM	11.462	0.001	0.001	9.836	0.001	0.001	0.001	9.659	0.001	0.001	0.001	9.713	0.001	0.000	0.000	0.000	9.844	0.001	0.001	0.000	9.838
4/22/2022	1:17 AM	11.638	0.001	0.001	9.836	0.001	0.001	0.001	9.659	0.001	0.001	0.001	9.714	0.001	0.000	0.000	0.000	9.845	0.001	0.001	0.000	9.840
4/22/2022	1:28 AM	11.814	0.001	0.001	9.836	0.001	0.001	0.001	9.659	0.001	0.001	0.001	9.714	0.001	0.000	0.000	0.000	9.845	0.001	0.001	0.000	9.840
4/22/2022	1:38 AM	11.990	9.737	9.683	0.002	9.675	9.784	9.804	0.001	9.705	9.821	9.783	0.002	9.743	9.725	9.819	9.759	0.001	9.684	9.721	9.728	0.001
4/22/2022	1:39 AM	11.999	0.001	0.001	9.824	0.001	0.001	0.001	9.648	0.001	0.001	0.001	9.700	0.001	0.000	0.001	0.000	9.831	0.001	0.001	0.000	9.825
4/22/2022	1:49 AM	12.175	0.001	0.001	9.831	0.001	0.001	0.001	9.654	0.001	0.001	0.001	9.707	0.001	0.000	0.000	0.000	9.840	0.001	0.001	0.000	9.834
4/22/2022	2:00 AM	12.350	0.001	0.001	9.832	0.001	0.001	0.001	9.656	0.001	0.001	0.001	9.710	0.001	0.000	0.000	0.000	9.841	0.001	0.001	0.000	9.836
4/22/2022	2:10 AM	12.526	0.001	0.001	9.832	0.001	0.001	0.001	9.655	0.001	0.001	0.001	9.712	0.001	0.000	0.000	0.000	9.843	0.001	0.001	0.000	9.837
4/22/2022	2:21 AM	12.702	0.001	0.001	9.832	0.001	0.001	0.001	9.657	0.001	0.001	0.001	9.712	0.001	0.000	0.000	0.000	9.845	0.001	0.001	0.000	9.838
4/22/2022	2:31 AM	12.878	0.001	0.001	9.833	0.001	0.001	0.001	9.658	0.001	0.001	0.001	9.712	0.001	0.000	0.000	0.000	9.845	0.001	0.001	0.000	9.839
4/22/2022	2:42 AM	13.054	0.001	0.001	9.833	0.001	0.001	0.001	9.657	0.001	0.001	0.001	9.712	0.001	0.000	0.000	0.000	9.845	0.001	0.001	0.000	9.840
4/22/2022	2:53 AM	13.229	0.001	0.001	9.833	0.001	0.001	0.001	9.657	0.001	0.001	0.001	9.712	0.001	0.000	0.000	0.000	9.846	0.001	0.001	0.000	9.841
4/22/2022	3:03 AM	13.405	0.001	0.001	9.833	0.001	0.001	0.001	9.658	0.001	0.001	0.001	9.713	0.001	0.000	0.000	0.000	9.845	0.001	0.001	0.000	9.840
4/22/2022	3:14 AM	13.581	0.001	0.001	9.835	0.001	0.001	0.001	9.660	0.001	0.001	0.001	9.713	0.001	0.000	0.000	0.000	9.846	0.001	0.001	0.000	9.841
4/22/2022	3:24 AM	13.757	0.001	0.001	9.834	0.001	0.001	0.001	9.659	0.001	0.001	0.001	9.714	0.001	0.000	0.000	0.000	9.847	0.001	0.001	0.000	9.841
4/22/2022	3:35 AM	13.933	0.001	0.001	9.836	0.001	0.001	0.001	9.660	0.001	0.001	0.001	9.713	0.001	0.000	0.000	0.000	9.847	0.001	0.001	0.000	9.841
4/22/2022	3:45 AM	14.108	0.001	0.001	9.835	0.001	0.001	0.001	9.659	0.001	0.001	0.001	9.714	0.001	0.000	0.000	0.000	9.848	0.001	0.001	0.000	9.840
4/22/2022	3:56 AM	14.284	0.001	0.001	9.836	0.001	0.001	0.001	9.660	0.001	0.001	0.001	9.715	0.001	0.000	0.000	0.000	9.848	0.001	0.001	0.000	9.842
4/22/2022	4:06 AM	14.460	0.001	0.001	9.836	0.001	0.001	0.001	9.659	0.001	0.001	0.001	9.714	0.001	0.000	0.000	0.000	9.848	0.001	0.001	0.000	9.841
4/22/2022	4:17 AM	14.636	0.001	0.001	9.836	0.001	0.001	0.001	9.659	0.001	0.001	0.001	9.713	0.001	0.000	0.000	0.000	9.848	0.001	0.001	0.000	9.841
4/22/2022	4:28 AM	14.812	0.001	0.001	9.837	0.001	0.001	0.001	9.660	0.001	0.001	0.001	9.714	0.001	0.000	0.000	0.000	9.848	0.001	0.001	0.000	9.842
4/22/2022	4:38 AM	14.987	9.737	9.683	0.002	9.675	9.784	9.805	0.001	9.706	9.821	9.786	0.002	9.742	9.726	9.818	9.760	0.001	9.684	9.722	9.727	0.001
4/22/2022	4:39 AM	14.996	0.001	0.001	9.824	0.001	0.001	0.001	9.649	0.001	0.001	0.001	9.701	0.001	0.000	0.001	0.000	9.832	0.001	0.001	0.000	9.828
4/22/2022	4:49 AM	15.172	0.001	0.001	9.832	0.001	0.001	0.001	9.655	0.001	0.001	0.001	9.707	0.001	0.000	0.000	0.000	9.839	0.001	0.001	0.000	9.834
4/22/2022	5:00 AM	15.348	0.001	0.001	9.834	0.001	0.001	0.001	9.656	0.001	0.001	0.001	9.709	0.001	0.000	0.000	0.000	9.842	0.001	0.001	0.000	9.836
4/22/2022	5:10 AM	15.524	0.001	0.001	9.835	0.001	0.001	0.001	9.656	0.001	0.001	0.001	9.710	0.001	0.000	0.000	0.000	9.844	0.001	0.001	0.000	9.838
4/22/2022	5:21 AM	15.700	0.001	0.001	9.836	0.001	0.001	0.001	9.657	0.001	0.001	0.001	9.711	0.001	0.000	0.000	0.000	9.846	0.001	0.001	0.000	9.839
4/22/2022	5:31 AM	15.875	0.001	0.001	9.835	0.001	0.001	0.001	9.655	0.001	0.001	0.001	9.711	0.001	0.000	0.000	0.000	9.846	0.001	0.001	0.000	9.839
4/22/2022	5:42 AM	16.051	0.001	0.001	9.835	0.001	0.001	0.001	9.656	0.001	0.001	0.001	9.712	0.001	0.000	0.000	0.000	9.846	0.001	0.001	0.000	9.839
4/22/2022	5:52 AM	16.227	0.001	0.001	9.836	0.001	0.001	0.001	9.655	0.001	0.001	0.001	9.713	0.001	0.000	0.000	0.000	9.847	0.001	0.001	0.000	9.839
4/22/2022	6:03 AM	16.403	0.001	0.001	9.837	0.001	0.001	0.001	9.657	0.001	0.001	0.001	9.713	0.001	0.000	0.000	0.000	9.846	0.001	0.001	0.000	9.839
4/22/2022	6:14 AM	16.578	0.001	0.001	9.836	0.001	0.001	0.001	9.656	0.001	0.001	0.001	9.712	0.001	0.000	0.000	0.000	9.846	0.001	0.001	0.000	9.840
4/22/2022	6:24 AM	16.754	0.001	0.001	9.836	0.001	0.001	0.001	9.657	0.001	0.001	0.001	9.714	0.001	0.000	0.000	0.000	9.847	0.001	0.001	0.000	9.841
4/22/2022	6:35 AM	16.930	0.001	0.001	9.836	0.001	0.001	0.001	9.657	0.001	0.001	0.001	9.714	0.001	0.000	0.000	0.000	9.847	0.001	0.001	0.000	9.840
4/22/2022	6:45 AM	17.106	0.001	0.001	9.836	0.001	0.001	0.001	9.657	0.001	0.001	0.001	9.714	0.001	0.000	0.000	0.000	9.847	0.001	0.001	0.000	9.841
4/22/2022	6:56 AM	17.282	0.001	0.001	9.835	0.001	0.001	0.001	9.658	0.001	0.001	0.001	9.714	0.001	0.000	0.000	0.000	9.848	0.001	0.001	0.000	9.841
4/22/2022	7:06 AM	17.457	0.001	0.001	9.837	0.001	0.001	0.001	9.655	0.001	0.001	0.001	9.715	0.001	0.000	0.000	0.000	9.848	0.001	0.001	0.000	9.840
4/22/2022	7:17 AM	17.633	0.001	0.001	9.835	0.001	0.001	0.001	9.656	0.001	0.001	0.001	9.716	0.001	0.000	0.000	0.000	9.847	0.001	0.001	0.000	9.840
4/22/2022	7:27 AM	17.809	0.001	0.001	9.837	0.001	0.001	0.001	9.656	0.001	0.001	0.001	9.715	0.001	0.000	0.000	0.000	9.848	0.001	0.001	0.000	9.841
4/22/2022	7:38 AM	17.985	9.736	9.684	0.002	9.675	9.785	9.804	0.001	9.705	9.819	9.784	0.002	9.743	9.725	9.819	9.758	0.001	9.682	9.722	9.728	0.001
4/22/2022	7:38 AM	17.994	0.001	0.001	9.825	0.001	0.001	0.001	9.645	0.001	0.001	0.001	9.698	0.001	0.000	0.001	0.000	9.834	0.001	0.001	0.000	9.829
4/22/2022	7:49 AM	18.170	0.001	0.001	9.830	0.001	0.001	0.001	9.653	0.001	0.001	0.001	9.709	0.001	0.000	0.000	0.000	9.842	0.001	0.001	0.000	9.835
4/22/2022	8:00 AM	18.345	0.001	0.001	9.832	0.001	0.001	0.001	9.653	0.001	0.001	0.001	9.711	0.001	0.000	0.000	0.000	9.844	0.001	0.001	0.000	9.836
4/22/2022	8:10 AM	18.521	0.001	0.001	9.833	0.001	0.001	0.001	9.655	0.001	0.001	0.001	9.710	0.001	0.000	0.000	0.000	9.846	0.001	0.001	0.000	9.838
4/22/2022	8:21 AM	18.697	0.001	0.001	9.835	0.001	0.001	0.001	9.655	0.001	0.001	0.001	9.711	0.001	0.000	0.000	0.001	9.846	0.001	0.001	0.000	9.840
4/22/2022	8:31 AM	18.873	0.001	0.001	9.836	0.001	0.001	0.001	9.657	0.001	0.001	0.001	9.712	0.001	0.000	0.000	0.000	9.846	0.001	0.001	0.000	9.841
4/22/2022	8:42 AM	19.049	0.001	0.001	9.836	0.001	0.001	0.001	9.658	0.001	0.001	0.001	9.712	0.001	0.000	0.000	0.000	9.847	0.001	0.001	0.000	9.840
4/22/2022	8:52 AM	19.224	0.001	0.001	9.836	0.001	0.001	0.001	9.659	0.001	0.001	0.001	9.713	0.001	0.000	0.000	0.000	9.846	0.001	0.001	0.000	9.840
4/22/2022	9:03 AM	19.400	0.001	0.001	9.836	0.001	0.001	0.001	9.659	0.001	0.001	0.001	9.713	0.001	0.000	0.000	0.000	9.846	0.001	0.001	0.000	9.839
4/22/2022	9:13 AM	19.576	0.001	0.001	9.837	0.001	0.001	0.001	9.660	0.001	0.001	0.001	9.714	0.001	0.000	0.000	0.000	9.847	0.001	0.001	0.000	9.839
4/22/2022	9:24 AM	19.752	0.001	0.001	9.838	0.001	0.001	0.001	9.661	0.001	0.001	0.001	9.715	0.001	0.000	0.000	0.000	9.848	0.001	0.001	0.000	9.841
4/22/2022	9:34 AM	19.928	0.001	0.001	9.837	0.001	0.001	0.001	9.660	0.001	0.001	0.001	9.715	0.001	0.000	0.000	0.000	9.848	0.001	0.001	0.000	9.842
4/22/2022	9:45 AM	20.103	0.001	0.001	9.837	0.001	0.001	0.001	9.659	0.001	0.001	0.001	9.714	0.001	0.000	0.000	0.000	9.849	0.001	0.001	0.000	9.841
4/22/2022	9:56 AM	20.279	0.001	0.001	9.837	0.001	0.001	0.001	9.660	0.001	0.001	0.001	9.714	0.001	0.000	0.000	0.000	9.849	0.001	0.001	0.000	9.840
4/22/2022	10:06 AM	20.455	0.001	0.001	9.837	0.001	0.001	0.001	9.659	0.001	0.001	0.001	9.715	0.001	0.000	0.000	0.000	9.848	0.001	0.001	0.000	9.841
4/22/2022	10:17 AM	20.631	0.001	0.001	9.837	0.001	0.001	0.001	9.660	0.001	0.001	0.001	9.715	0.001	0.000	0.000	0.000	9.848	0.001	0.001	0.000	9.842
4/22/2022	10:27 AM	20.806	0.001	0.001	9.837	0.001	0.001	0.001	9.660	0.001	0.001	0.001	9.715	0.001	0.000	0.000	0.000	9.849	0.001	0.001	0.000	9.843
4/22/2022	10:38 AM	20.982	9.735	9.685	0.002	9.675	9.784	9.803	0.001	9.704	9.820	9.785	0.002	9.743	9.726	9.819	9.759	0.001	9.684	9.723	9.728	0.001
4/22/2022	10:38 AM	20.991	0.001	0.001	9.827	0.001	0.001	0.001	9.646	0.001	0.001	0.001	9.701	0.001	0.000	0.001	0.000	9.833	0.001	0.001	0.000	9.830
4/22/2022	10:49 AM	21.167	0.001	0.001	9.831	0.001	0.001	0.001	9.654	0.001	0.001	0.001	9.711	0.001	0.000	0.000	0.000	9.839	0.001	0.001	0.000	9.837
4/22/2022	10:59 AM	21.343	0.001	0.001	9.832	0.001	0.001	0.001	9.655	0.001	0.001	0.001	9.712	0.001	0.000	0.000	0.000	9.841	0.001	0.001	0.000	9.838
4/22/2022	11:10 AM	21.519	0.001	0.001	9.832	0.001	0.001	0.001	9.655	0.001	0.001	0.001	9.712	0.001	0.000	0.000	0.000	9.842	0.001	0.001	0.000	9.840
4/22/2022	11:20 AM	21.695	0.001	0.001	9.832	0.001	0.001	0.001	9.656	0.001	0.001	0.001	9.712	0.001	0.000	0.000	0.000	9.842	0.001	0.001	0.000	9.841
4/22/2022	11:31 AM	21.870	0.001	0.001	9.833	0.001	0.001	0.001	9.656	0.001	0.001	0.001	9.712	0.001	0.000	0.000	0.000	9.844	0.001	0.001	0.000	9.842
4/22/2022	11:42 AM	22.046	0.001	0.001	9.834	0.001	0.001	0.001	9.656	0.001	0.001	0.001	9.713	0.001	0.000	0.000	0.000	9.845	0.001	0.001	0.000	9.842
4/22/2022	11:52 AM	22.222	0.001	0.001	9.835	0.001	0.001	0.001	9.657	0.001	0.001	0.001	9.714	0.001	0.000	0.000	0.000	9.844	0.001	0.001	0.000	9.842
4/22/2022	12:03 PM	22.398	0.001	0.001	9.834	0.001	0.001	0.001	9.657	0.001	0.001	0.001	9.715	0.001	0.000	0.000	0.000	9.846	0.001	0.001	0.000	9.842
4/22/2022	12:13 PM	22.574	0.001	0.001	9.836	0.001	0.001	0.001	9.656	0.001	0.001	0.001	9.714	0.001	0.000	0.000	0.000	9.846	0.001	0.001	0.000	9.842
4/22/2022	12:24 PM	22.749	0.001	0.001	9.835	0.001	0.001	0.001	9.657	0.001	0.001	0.001	9.714	0.001	0.000	0.000	0.000	9.846	0.001	0.001	0.000	9.841
4/22/2022	12:34 PM	22.925	0.001	0.001	9.835	0.001	0.001	0.001	9.657	0.001	0.001	0.001	9.715	0.001	0.000	0.000	0.000	9.848	0.001	0.001	0.000	9.843
4/22/2022	12:45 PM	23.101	0.001	0.001	9.837	0.001	0.001	0.001	9.658	0.001	0.001	0.001	9.714	0.001	0.000	0.000	0.000	9.848	0.001	0.001	0.000	9.842
4/22/2022	12:55 PM	23.277	0.001	0.001	9.837	0.001	0.001	0.001	9.659	0.001	0.001	0.001	9.715	0.001	0.000	0.000	0.000	9.847	0.001	0.001	0.000	9.844
4/22/2022	1:06 PM	23.453	0.001	0.001	9.837	0.001	0.001	0.001	9.659	0.001	0.001	0.001	9.715	0.001	0.000	0.000	0.000	9.848	0.001	0.001	0.000	9.843
4/22/2022	1:17 PM	23.628	0.001	0.001	9.837	0.001	0.001	0.001	9.660	0.001	0.001	0.001	9.715	0.001	0.000	0.000	0.000	9.847	0.001	0.001	0.000	9.843
4/22/2022	1:27 PM	23.804	0.001	0.001	9.837	0.001	0.001	0.001	9.660	0.001	0.001	0.001	9.714	0.001	0.000	0.000	0.000	9.847	0.001	0.001	0.000	9.842
4/22/2022	1:38 PM	23.980	9.735	9.683	0.002	9.673	9.784	9.804	0.001	9.703	9.820	9.785	0.002	9.744	9.724	9.819	9.759	0.001	9.682	9.724	9.727	0.001
4/22/2022	1:38 PM	23.989	0.001	0.001	9.825	0.001	0.001	0.001	9.643	0.001	0.001	0.001	9.703	0.001	0.000	0.001	0.000	9.834	0.001	0.001	0.000	9.830
4/22/2022	1:49 PM	24.165	0.001	0.001	9.830	0.001	0.001	0.001	9.651	0.001	0.001	0.001	9.709	0.001	0.000	0.000	0.000	9.844	0.001	0.001	0.000	9.837
4/22/2022	1:59 PM	24.341	0.001	0.001	9.833	0.001	0.001	0.001	9.653	0.001	0.001	0.001	9.710	0.001	0.000	0.000	0.000	9.845	0.001	0.001	0.000	9.838
4/22/2022	2:10 PM	24.516	0.001	0.001	9.834	0.001	0.001	0.001	9.655	0.001	0.001	0.001	9.711	0.001	0.000	0.000	0.000	9.847	0.001	0.001	0.000	9.838
4/22/2022	2:20 PM	24.692	0.001	0.001	9.834	0.001	0.001	0.001	9.653	0.001	0.001	0.001	9.712	0.001	0.000	0.000	0.000	9.846	0.001	0.001	0.000	9.839
4/22/2022	2:31 PM	24.868	0.001	0.001	9.835	0.001	0.000	0.001	9.653	0.001	0.001	0.000	9.712	0.001	0.000	0.000	0.000	9.846	0.001	0.001	0.000	9.840
4/22/2022	2:41 PM	25.044	0.001	0.001	9.835	0.001	0.001	0.001	9.654	0.001	0.001	0.001	9.712	0.001	0.000	0.000	0.000	9.846	0.001	0.001	0.000	9.839
4/22/2022	2:52 PM	25.220	0.001	0.001	9.836	0.001	0.001	0.001	9.654	0.001	0.001	0.001	9.713	0.001	0.000	0.000	0.000	9.848	0.001	0.001	0.000	9.840
4/22/2022	3:03 PM	25.395	0.001	0.001	9.837	0.001	0.001	0.001	9.655	0.001	0.001	0.001	9.713	0.001	0.000	0.000	0.000	9.848	0.001	0.001	0.000	9.841
4/22/2022	3:13 PM	25.571	0.001	0.001	9.837	0.001	0.001	0.001	9.655	0.001	0.001	0.001	9.713	0.001	0.000	0.000	0.000	9.848	0.001	0.001	0.000	9.841
4/22/2022	3:24 PM	25.747	0.001	0.001	9.837	0.001	0.001	0.001	9.657	0.001	0.001	0.001	9.713	0.001	0.000	0.000	0.000	9.847	0.001	0.001	0.000	9.841
4/22/2022	3:34 PM	25.923	0.001	0.001	9.836	0.001	0.001	0.001	9.659	0.001	0.001	0.001	9.714	0.001	0.000	0.000	0.000	9.848	0.001	0.001	0.000	9.843
4/22/2022	3:45 PM	26.099	0.001	0.001	9.837	0.001	0.001	0.001	9.660	0.001	0.001	0.001	9.714	0.001	0.000	0.000	0.000	9.848	0.001	0.001	0.000	9.843
4/22/2022	3:55 PM	26.274	0.001	0.001	9.837	0.001	0.001	0.001	9.659	0.001	0.001	0.001	9.713	0.001	0.000	0.000	0.000	9.849	0.001	0.001	0.000	9.844
4/22/2022	4:06 PM	26.450	0.001	0.001	9.837	0.001	0.001	0.001	9.660	0.001	0.001	0.001	9.714	0.001	0.000	0.000	0.000	9.848	0.001	0.001	0.000	9.844
4/22/2022	4:16 PM	26.626	0.001	0.001	9.838	0.001	0.001	0.001	9.660	0.001	0.001	0.001	9.714	0.001	0.000	0.000	0.000	9.849	0.001	0.001	0.000	9.842
4/22/2022	4:27 PM	26.802	0.001	0.001	9.837	0.001	0.001	0.001	9.660	0.001	0.001	0.001	9.714	0.001	0.000	0.000	0.000	9.850	0.001	0.001	0.000	9.842
4/22/2022	4:37 PM	26.978	9.736	9.684	0.002	9.676	9.784	9.804	0.001	9.704	9.820	9.784	0.002	9.744	9.723	9.819	9.759	0.001	9.682	9.723	9.727	0.001
4/22/2022	4:38 PM	26.987	0.001	0.001	9.824	0.001	0.001	0.001	9.649	0.001	0.001	0.001	9.703	0.001	0.000	0.001	0.000	9.836	0.001	0.001	0.000	9.830
4/22/2022	4:49 PM	27.162	0.001	0.001	9.832	0.001	0.001	0.001	9.655	0.001	0.001	0.001	9.709	0.001	0.000	0.000	0.000	9.842	0.001	0.001	0.000	9.837
4/22/2022	4:59 PM	27.338	0.001	0.001	9.832	0.001	0.001	0.001	9.656	0.001	0.001	0.001	9.712	0.001	0.000	0.000	0.000	9.845	0.001	0.001	0.000	9.839
4/22/2022	5:10 PM	27.514	0.001	0.001	9.833	0.001	0.001	0.001	9.657	0.001	0.001	0.001	9.714	0.001	0.000	0.000	0.000	9.846	0.001	0.001	0.000	9.839
4/22/2022	5:20 PM	27.690	0.001	0.001	9.834	0.001	0.001	0.001	9.656	0.001	0.001	0.001	9.713	0.001	0.000	0.000	0.000	9.847	0.001	0.001	0.000	9.841
4/22/2022	5:31 PM	27.866	0.001	0.001	9.834	0.001	0.001	0.001	9.655	0.001	0.001	0.001	9.713	0.001	0.000	0.000	0.000	9.847	0.001	0.001	0.000	9.840
4/22/2022	5:41 PM	28.041	0.001	0.001	9.834	0.001	0.001	0.001	9.656	0.001	0.001	0.001	9.714	0.001	0.000	0.000	0.000	9.847	0.001	0.001	0.000	9.841
4/22/2022	5:52 PM	28.217	0.001	0.001	9.835	0.001	0.001	0.001	9.656	0.001	0.001	0.001	9.716	0.001	0.000	0.000	0.000	9.848	0.001	0.001	0.000	9.839
4/22/2022	6:02 PM	28.393	0.001	0.001	9.835	0.001	0.001	0.001	9.658	0.001	0.001	0.001	9.716	0.001	0.000	0.000	0.000	9.848	0.001	0.001	0.000	9.841
4/22/2022	6:13 PM	28.569	0.001	0.001	9.836	0.001	0.001	0.001	9.658	0.001	0.001	0.001	9.715	0.001	0.000	0.000	0.000	9.848	0.001	0.001	0.000	9.842
4/22/2022	6:23 PM	28.745	0.001	0.001	9.836	0.001	0.001	0.001	9.657	0.001	0.001	0.001	9.717	0.001	0.000	0.000	0.000	9.849	0.001	0.001	0.000	9.842
4/22/2022	6:34 PM	28.920	0.001	0.001	9.836	0.001	0.001	0.001	9.656	0.001	0.001	0.001	9.717	0.001	0.000	0.000	0.000	9.850	0.001	0.001	0.000	9.842
4/22/2022	6:45 PM	29.096	0.001	0.001	9.836	0.001	0.001	0.001	9.658	0.001	0.001	0.001	9.718	0.001	0.000	0.000	0.000	9.849	0.001	0.001	0.000	9.842
4/22/2022	6:55 PM	29.272	0.001	0.001	9.836	0.001	0.001	0.001	9.658	0.001	0.001	0.001	9.718	0.001	0.000	0.000	0.000	9.850	0.001	0.001	0.000	9.843
4/22/2022	7:06 PM	29.448	0.001	0.001	9.835	0.001	0.001	0.001	9.657	0.001	0.001	0.001	9.717	0.001	0.000	0.000	0.000	9.850	0.001	0.001	0.000	9.843
4/22/2022	7:16 PM	29.624	0.001	0.001	9.836	0.001	0.001	0.001	9.658	0.001	0.001	0.001	9.716	0.001	0.000	0.000	0.000	9.851	0.001	0.001	0.000	9.843
4/22/2022	7:27 PM	29.799	0.001	0.001	9.836	0.001	0.001	0.001	9.658	0.001	0.001	0.001	9.717	0.001	0.000	0.000	0.000	9.852	0.001	0.001	0.000	9.845
4/22/2022	7:37 PM	29.975	9.736	9.685	0.002	9.675	9.784	9.802	0.001	9.706	9.819	9.785	0.002	9.743	9.725	9.820	9.760	0.001	9.683	9.723	9.727	0.001
4/22/2022	7:38 PM	29.984	0.001	0.001	9.827	0.001	0.001	0.001	9.644	0.001	0.001	0.001	9.703	0.001	0.000	0.001	0.000	9.835	0.001	0.001	0.000	9.831
4/22/2022	7:48 PM	30.160	0.001	0.001	9.831	0.001	0.001	0.001	9.653	0.001	0.001	0.001	9.710	0.001	0.000	0.000	0.000	9.844	0.001	0.001	0.000	9.839
4/22/2022	7:59 PM	30.336	0.001	0.001	9.831	0.001	0.001	0.001	9.653	0.001	0.001	0.001	9.711	0.001	0.000	0.000	0.000	9.845	0.001	0.001	0.000	9.840
4/22/2022	8:10 PM	30.512	0.001	0.001	9.833	0.001	0.001	0.001	9.655	0.001	0.001	0.001	9.711	0.001	0.000	0.000	0.000	9.846	0.001	0.001	0.000	9.838
4/22/2022	8:20 PM	30.687	0.001	0.001	9.833	0.001	0.001	0.001	9.655	0.001	0.001	0.001	9.714	0.001	0.000	0.000	0.000	9.847	0.001	0.001	0.000	9.841
4/22/2022	8:31 PM	30.863	0.001	0.001	9.833	0.001	0.001	0.001	9.656	0.001	0.001	0.001	9.715	0.001	0.000	0.000	0.000	9.847	0.001	0.001	0.000	9.841
4/22/2022	8:41 PM	31.039	0.001	0.001	9.833	0.001	0.001	0.001	9.657	0.001	0.001	0.001	9.715	0.001	0.000	0.000	0.000	9.847	0.001	0.001	0.000	9.839
4/22/2022	8:52 PM	31.215	0.001	0.001	9.833	0.001	0.001	0.001	9.657	0.001	0.001	0.001	9.715	0.001	0.000	0.000	0.000	9.847	0.001	0.001	0.000	9.839
4/22/2022	9:02 PM	31.391	0.001	0.001	9.834	0.001	0.001	0.001	9.657	0.001	0.001	0.001	9.716	0.001	0.000	0.000	0.000	9.847	0.001	0.001	0.000	9.839
4/22/2022	9:13 PM	31.566	0.001	0.001	9.834	0.001	0.001	0.001	9.657	0.001	0.001	0.001	9.715	0.001	0.000	0.000	0.000	9.848	0.001	0.001	0.000	9.840
4/22/2022	9:23 PM	31.742	0.001	0.001	9.834	0.001	0.001	0.001	9.657	0.001	0.001	0.001	9.715	0.001	0.000	0.000	0.000	9.848	0.001	0.001	0.000	9.840
4/22/2022	9:34 PM	31.918	0.001	0.001	9.834	0.001	0.001	0.001	9.659	0.001	0.001	0.001	9.714	0.001	0.000	0.000	0.000	9.848	0.001	0.001	0.000	9.841
4/22/2022	9:44 PM	32.094	0.001	0.001	9.835	0.001	0.001	0.001	9.659	0.001	0.001	0.001	9.715	0.001	0.000	0.000	0.000	9.847	0.001	0.001	0.000	9.840
4/22/2022	9:55 PM	32.270	0.001	0.001	9.835	0.001	0.001	0.001	9.659	0.001	0.001	0.001	9.717	0.001	0.000	0.000	0.000	9.848	0.001	0.001	0.000	9.841
4/22/2022	10:06 PM	32.445	0.001	0.001	9.836	0.001	0.001	0.001	9.660	0.001	0.001	0.001	9.716	0.001	0.000	0.000	0.000	9.849	0.001	0.001	0.000	9.842
4/22/2022	10:16 PM	32.621	0.001	0.001	9.837	0.001	0.001	0.001	9.659	0.001	0.001	0.001	9.716	0.001	0.000	0.000	0.000	9.849	0.001	0.001	0.000	9.842
4/22/2022	10:27 PM	32.797	0.001	0.001	9.837	0.001	0.001	0.001	9.660	0.001	0.001	0.001	9.717	0.001	0.000	0.000	0.000	9.849	0.001	0.001	0.000	9.842
4/22/2022	10:37 PM	32.973	9.736	9.684	0.002	9.675	9.786	9.804	0.001	9.704	9.820	9.786	0.002	9.742	9.723	9.819	9.759	0.001	9.681	9.721	9.728	0.001
4/22/2022	10:38 PM	32.982	0.001	0.001	9.826	0.001	0.001	0.001	9.646	0.001	0.001	0.001	9.703	0.001	0.000	0.001	0.000	9.836	0.001	0.001	0.000	9.831
4/22/2022	10:48 PM	33.158	0.001	0.001	9.832	0.001	0.001	0.001	9.651	0.001	0.001	0.001	9.710	0.001	0.000	0.000	0.000	9.845	0.001	0.001	0.000	9.837
4/22/2022	10:59 PM	33.333	0.001	0.001	9.834	0.001	0.001	0.001	9.655	0.001	0.001	0.001	9.712	0.001	0.000	0.000	0.000	9.847	0.001	0.001	0.000	9.838
4/22/2022	11:09 PM	33.509	0.001	0.001	9.834	0.001	0.001	0.001	9.656	0.001	0.001	0.001	9.713	0.001	0.000	0.000	0.000	9.847	0.001	0.001	0.000	9.839
4/22/2022	11:20 PM	33.685	0.001	0.001	9.834	0.001	0.001	0.001	9.657	0.001	0.001	0.001	9.713	0.001	0.000	0.000	0.000	9.848	0.001	0.001	0.000	9.839
4/22/2022	11:30 PM	33.861	0.001	0.001	9.835	0.001	0.001	0.001	9.656	0.001	0.001	0.001	9.713	0.001	0.000	0.000	0.000	9.847	0.001	0.001	0.000	9.840
4/22/2022	11:41 PM	34.037	0.001	0.001	9.835	0.001	0.001	0.001	9.657	0.001	0.001	0.001	9.714	0.001	0.000	0.000	0.000	9.848	0.001	0.001	0.000	9.840
4/22/2022	11:52 PM	34.212	0.001	0.001	9.834	0.001	0.001	0.001	9.656	0.001	0.001	0.001	9.715	0.001	0.000	0.000	0.000	9.849	0.001	0.001	0.000	9.841
4/23/2022	12:02 AM	34.388	0.001	0.001	9.835	0.001	0.001	0.001	9.657	0.001	0.001	0.001	9.714	0.001	0.000	0.000	0.000	9.849	0.001	0.001	0.000	9.841
4/23/2022	12:13 AM	34.564	0.001	0.001	9.837	0.001	0.001	0.001	9.659	0.001	0.001	0.001	9.716	0.001	0.000	0.000	0.000	9.850	0.001	0.001	0.000	9.842
4/23/2022	12:23 AM	34.740	0.001	0.001	9.836	0.001	0.001	0.001	9.658	0.001	0.001	0.001	9.717	0.001	0.000	0.000	0.000	9.851	0.001	0.001	0.000	9.842
4/23/2022	12:34 AM	34.916	0.001	0.001	9.836	0.001	0.001	0.001	9.659	0.001	0.001	0.001	9.717	0.001	0.000	0.000	0.000	9.851	0.001	0.001	0.000	9.842
4/23/2022	12:44 AM	35.091	0.001	0.001	9.837	0.001	0.001	0.001	9.660	0.001	0.001	0.001	9.717	0.001	0.000	0.000	0.000	9.850	0.001	0.001	0.000	9.843
4/23/2022	12:55 AM	35.267	0.001	0.001	9.836	0.001	0.001	0.001	9.660	0.001	0.001	0.001	9.718	0.001	0.000	0.000	0.000	9.850	0.001	0.001	0.000	9.843
4/23/2022	1:05 AM	35.443	0.001	0.001	9.836	0.001	0.001	0.001	9.659	0.001	0.001	0.001	9.719	0.001	0.000	0.000	0.000	9.850	0.001	0.001	0.000	9.842
4/23/2022	1:16 AM	35.619	0.001	0.001	9.837	0.001	0.001	0.001	9.660	0.001	0.001	0.001	9.719	0.001	0.000	0.000	0.000	9.850	0.001	0.001	0.000	9.843
4/23/2022	1:26 AM	35.794	0.001	0.001	9.837	0.001	0.001	0.001	9.659	0.001	0.001	0.001	9.720	0.001	0.000	0.000	0.000	9.850	0.001	0.001	0.000	9.844
4/23/2022	1:37 AM	35.970	9.737	9.685	0.002	9.675	9.786	9.805	0.001	9.705	9.820	9.786	0.002	9.744	9.723	9.818	9.760	0.001	9.683	9.723	9.727	0.001
4/23/2022	1:38 AM	35.979	0.001	0.001	9.826	0.001	0.001	0.001	9.647	0.001	0.001	0.001	9.707	0.001	0.000	0.001	0.000	9.836	0.001	0.001	0.000	9.830
4/23/2022	1:48 AM	36.155	0.001	0.001	9.833	0.001	0.001	0.001	9.653	0.001	0.001	0.001	9.712	0.001	0.000	0.000	0.000	9.844	0.001	0.001	0.000	9.838
4/23/2022	1:59 AM	36.331	0.001	0.001	9.834	0.001	0.001	0.001	9.655	0.001	0.001	0.001	9.713	0.001	0.000	0.000	0.000	9.848	0.001	0.001	0.000	9.839
4/23/2022	2:09 AM	36.507	0.001	0.001	9.833	0.001	0.001	0.001	9.658	0.001	0.001	0.001	9.715	0.001	0.000	0.000	0.000	9.848	0.001	0.001	0.000	9.840
4/23/2022	2:20 AM	36.683	0.001	0.001	9.835	0.001	0.001	0.001	9.658	0.001	0.001	0.001	9.715	0.001	0.000	0.000	0.000	9.850	0.001	0.001	0.000	9.841
4/23/2022	2:30 AM	36.858	0.001	0.001	9.834	0.001	0.001	0.001	9.656	0.001	0.001	0.001	9.715	0.001	0.000	0.000	0.000	9.847	0.001	0.001	0.000	9.843
4/23/2022	2:41 AM	37.034	0.001	0.001	9.835	0.001	0.001	0.001	9.657	0.001	0.001	0.001	9.716	0.001	0.000	0.000	0.000	9.849	0.001	0.001	0.000	9.843
4/23/2022	2:51 AM	37.210	0.001	0.001	9.834	0.001	0.001	0.001	9.656	0.001	0.001	0.001	9.717	0.001	0.000	0.000	0.000	9.849	0.001	0.001	0.000	9.843
4/23/2022	3:02 AM	37.386	0.001	0.001	9.835	0.001	0.001	0.001	9.657	0.001	0.001	0.001	9.717	0.001	0.000	0.000	0.000	9.849	0.001	0.001	0.000	9.843
4/23/2022	3:13 AM	37.562	0.001	0.001	9.836	0.001	0.001	0.001	9.658	0.001	0.001	0.001	9.717	0.001	0.000	0.000	0.000	9.849	0.001	0.001	0.000	9.843
4/23/2022	3:23 AM	37.737	0.001	0.001	9.836	0.001	0.001	0.001	9.657	0.001	0.001	0.001	9.717	0.001	0.000	0.000	0.000	9.849	0.001	0.001	0.000	9.843
4/23/2022	3:34 AM	37.913	0.001	0.001	9.835	0.001	0.001	0.001	9.658	0.001	0.001	0.001	9.717	0.001	0.000	0.000	0.000	9.849	0.001	0.001	0.000	9.843
4/23/2022	3:44 AM	38.089	0.001	0.001	9.836	0.001	0.001	0.001	9.659	0.001	0.001	0.001	9.717	0.001	0.000	0.000	0.000	9.850	0.001	0.001	0.000	9.843
4/23/2022	3:55 AM	38.265	0.001	0.001	9.836	0.001	0.001	0.001	9.659	0.001	0.001	0.001	9.717	0.001	0.000	0.000	0.000	9.850	0.001	0.001	0.000	9.844
4/23/2022	4:05 AM	38.440	0.001	0.001	9.836	0.001	0.001	0.001	9.659	0.001	0.001	0.001	9.718	0.001	0.000	0.000	0.000	9.849	0.001	0.001	0.000	9.842
4/23/2022	4:16 AM	38.616	0.001	0.001	9.837	0.001	0.001	0.001	9.658	0.001	0.001	0.001	9.717	0.001	0.000	0.000	0.000	9.850	0.001	0.001	0.000	9.845
4/23/2022	4:26 AM	38.792	0.001	0.001	9.836	0.001	0.001	0.001	9.660	0.001	0.001	0.001	9.718	0.001	0.000	0.000	0.000	9.850	0.001	0.001	0.000	9.845
4/23/2022	4:37 AM	38.968	9.737	9.683	0.001	9.675	9.786	9.804	0.001	9.705	9.818	9.784	0.002	9.743	9.724	9.818	9.760	0.001	9.685	9.720	9.727	0.001
4/23/2022	4:37 AM	38.977	0.001	0.001	9.828	0.001	0.001	0.001	9.648	0.001	0.001	0.001	9.704	0.001	0.000	0.001	0.000	9.838	0.001	0.001	0.000	9.831
4/23/2022	4:48 AM	39.153	0.001	0.001	9.832	0.001	0.001	0.001	9.654	0.001	0.001	0.001	9.712	0.001	0.000	0.000	0.000	9.846	0.001	0.001	0.000	9.838
4/23/2022	4:59 AM	39.329	0.001	0.001	9.833	0.001	0.001	0.001	9.655	0.001	0.001	0.001	9.714	0.001	0.000	0.000	0.000	9.847	0.001	0.001	0.000	9.840
4/23/2022	5:09 AM	39.504	0.001	0.001	9.835	0.001	0.001	0.001	9.654	0.001	0.001	0.001	9.715	0.001	0.000	0.000	0.000	9.847	0.001	0.001	0.000	9.840
4/23/2022	5:20 AM	39.680	0.001	0.001	9.834	0.001	0.001	0.001	9.656	0.001	0.001	0.001	9.715	0.001	0.000	0.000	0.000	9.847	0.001	0.001	0.000	9.841
4/23/2022	5:30 AM	39.856	0.001	0.001	9.836	0.001	0.001	0.001	9.657	0.001	0.001	0.001	9.716	0.001	0.000	0.000	0.000	9.848	0.001	0.001	0.000	9.843
4/23/2022	5:41 AM	40.032	0.001	0.001	9.836	0.001	0.001	0.001	9.657	0.001	0.001	0.001	9.715	0.001	0.000	0.000	0.000	9.849	0.001	0.001	0.000	9.844
4/23/2022	5:51 AM	40.207	0.001	0.001	9.837	0.001	0.001	0.001	9.657	0.001	0.001	0.001	9.716	0.001	0.000	0.000	0.000	9.849	0.001	0.001	0.000	9.842
4/23/2022	6:02 AM	40.383	0.001	0.001	9.837	0.001	0.001	0.001	9.656	0.001	0.001	0.001	9.717	0.001	0.000	0.000	0.000	9.849	0.001	0.001	0.000	9.843
4/23/2022	6:12 AM	40.559	0.001	0.001	9.837	0.001	0.001	0.001	9.657	0.001	0.001	0.001	9.716	0.001	0.000	0.000	0.000	9.849	0.001	0.001	0.000	9.843
4/23/2022	6:23 AM	40.735	0.001	0.001	9.837	0.001	0.001	0.001	9.657	0.001	0.001	0.001	9.717	0.001	0.000	0.000	0.000	9.850	0.001	0.001	0.000	9.843
4/23/2022	6:33 AM	40.911	0.001	0.001	9.838	0.001	0.001	0.001	9.658	0.001	0.001	0.001	9.718	0.001	0.000	0.000	0.000	9.849	0.001	0.001	0.000	9.843
4/23/2022	6:44 AM	41.086	0.001	0.001	9.837	0.001	0.001	0.001	9.657	0.001	0.001	0.001	9.718	0.001	0.000	0.000	0.000	9.849	0.001	0.001	0.000	9.843
4/23/2022	6:55 AM	41.262	0.001	0.001	9.838	0.001	0.001	0.001	9.658	0.001	0.001	0.001	9.719	0.001	0.000	0.000	0.000	9.849	0.001	0.001	0.000	9.842
4/23/2022	7:05 AM	41.438	0.001	0.001	9.838	0.001	0.001	0.001	9.658	0.001	0.001	0.001	9.720	0.001	0.000	0.000	0.000	9.850	0.001	0.001	0.000	9.843
4/23/2022	7:16 AM	41.614	0.001	0.001	9.837	0.001	0.001	0.001	9.658	0.001	0.001	0.001	9.719	0.001	0.000	0.000	0.000	9.851	0.001	0.001	0.000	9.843
4/23/2022	7:26 AM	41.790	0.001	0.001	9.838	0.001	0.001	0.001	9.659	0.001	0.001	0.001	9.720	0.001	0.000	0.000	0.000	9.851	0.001	0.001	0.000	9.844
4/23/2022	7:37 AM	41.965	9.737	9.685	0.001	9.677	9.786	9.803	0.001	9.707	9.819	9.786	0.002	9.745	9.722	9.820	9.761	0.001	9.684	9.721	9.727	0.001
4/23/2022	7:37 AM	41.974	0.001	0.001	9.827	0.001	0.001	0.001	9.647	0.001	0.001	0.001	9.707	0.001	0.000	0.001	0.000	9.837	0.001	0.001	0.000	9.831
4/23/2022	7:48 AM	42.150	0.001	0.001	9.833	0.001	0.001	0.001	9.652	0.001	0.001	0.001	9.715	0.001	0.000	0.000	0.000	9.844	0.001	0.001	0.000	9.838
4/23/2022	7:58 AM	42.326	0.001	0.001	9.835	0.001	0.001	0.001	9.654	0.001	0.001	0.001	9.715	0.001	0.000	0.000	0.000	9.846	0.001	0.001	0.000	9.840
4/23/2022	8:09 AM	42.502	0.001	0.001	9.835	0.001	0.001	0.001	9.656	0.001	0.001	0.001	9.716	0.001	0.000	0.000	0.000	9.847	0.001	0.001	0.000	9.841
4/23/2022	8:19 AM	42.678	0.001	0.001	9.834	0.001	0.001	0.001	9.657	0.001	0.001	0.001	9.717	0.001	0.000	0.000	0.000	9.847	0.001	0.001	0.000	9.842
4/23/2022	8:30 AM	42.853	0.001	0.001	9.835	0.001	0.001	0.001	9.656	0.001	0.001	0.001	9.717	0.001	0.000	0.000	0.000	9.847	0.001	0.001	0.000	9.843
4/23/2022	8:41 AM	43.029	0.001	0.001	9.836	0.001	0.001	0.001	9.656	0.001	0.001	0.001	9.717	0.001	0.000	0.000	0.000	9.849	0.001	0.001	0.000	9.843
4/23/2022	8:51 AM	43.205	0.001	0.001	9.836	0.001	0.001	0.001	9.656	0.001	0.001	0.001	9.717	0.001	0.000	0.000	0.000	9.849	0.001	0.001	0.000	9.842
4/23/2022	9:02 AM	43.381	0.001	0.001	9.837	0.001	0.001	0.001	9.658	0.001	0.001	0.001	9.718	0.001	0.000	0.000	0.000	9.849	0.001	0.001	0.000	9.841
4/23/2022	9:12 AM	43.557	0.001	0.001	9.835	0.001	0.001	0.001	9.657	0.001	0.001	0.001	9.718	0.001	0.000	0.000	0.000	9.849	0.001	0.001	0.000	9.843
4/23/2022	9:23 AM	43.732	0.001	0.001	9.837	0.001	0.001	0.001	9.658	0.001	0.001	0.001	9.718	0.001	0.000	0.000	0.000	9.850	0.001	0.001	0.000	9.845
4/23/2022	9:33 AM	43.908	0.001	0.001	9.837	0.001	0.001	0.001	9.658	0.001	0.001	0.001	9.718	0.001	0.000	0.000	0.000	9.851	0.001	0.001	0.000	9.844
4/23/2022	9:44 AM	44.084	0.001	0.001	9.837	0.001	0.001	0.001	9.655	0.001	0.001	0.001	9.719	0.001	0.000	0.000	0.000	9.851	0.001	0.001	0.000	9.844
4/23/2022	9:54 AM	44.260	0.001	0.001	9.838	0.001	0.001	0.001	9.659	0.001	0.001	0.001	9.719	0.001	0.000	0.000	0.000	9.851	0.001	0.001	0.000	9.844
4/23/2022	10:05 AM	44.436	0.001	0.001	9.839	0.001	0.001	0.001	9.659	0.001	0.001	0.001	9.719	0.001	0.000	0.000	0.000	9.851	0.001	0.001	0.000	9.843
4/23/2022	10:15 AM	44.611	0.001	0.001	9.838	0.001	0.001	0.001	9.658	0.001	0.001	0.001	9.719	0.001	0.000	0.000	0.000	9.852	0.001	0.001	0.000	9.844
4/23/2022	10:26 AM	44.787	0.001	0.001	9.839	0.001	0.001	0.001	9.658	0.001	0.001	0.001	9.720	0.001	0.000	0.000	0.000	9.852	0.001	0.001	0.000	9.844
4/23/2022	10:37 AM	44.963	9.738	9.684	0.001	9.678	9.786	9.804	0.001	9.706	9.820	9.785	0.002	9.743	9.722	9.822	9.760	0.001	9.684	9.723	9.726	0.001
4/23/2022	10:37 AM	44.972	0.001	0.001	9.826	0.001	0.001	0.001	9.644	0.001	0.001	0.001	9.708	0.001	0.000	0.001	0.000	9.837	0.001	0.001	0.000	9.831
4/23/2022	10:48 AM	45.148	0.001	0.001	9.833	0.001	0.001	0.001	9.652	0.001	0.001	0.001	9.716	0.001	0.000	0.000	0.000	9.846	0.001	0.001	0.000	9.839
4/23/2022	10:58 AM	45.324	0.001	0.001	9.834	0.001	0.001	0.001	9.655	0.001	0.001	0.001	9.716	0.001	0.000	0.000	0.000	9.845	0.001	0.001	0.000	9.839
4/23/2022	11:09 AM	45.499	0.001	0.001	9.835	0.001	0.001	0.001	9.655	0.001	0.001	0.001	9.718	0.001	0.000	0.000	0.000	9.846	0.001	0.001	0.000	9.840
4/23/2022	11:19 AM	45.675	0.001	0.001	9.836	0.001	0.001	0.001	9.656	0.001	0.001	0.001	9.718	0.001	0.000	0.000	0.000	9.847	0.001	0.001	0.000	9.842
4/23/2022	11:30 AM	45.851	0.001	0.001	9.837	0.001	0.001	0.001	9.657	0.001	0.001	0.001	9.720	0.001	0.000	0.000	0.000	9.848	0.001	0.001	0.000	9.841
4/23/2022	11:40 AM	46.027	0.001	0.001	9.837	0.001	0.001	0.001	9.657	0.001	0.001	0.001	9.720	0.001	0.000	0.000	0.000	9.848	0.001	0.001	0.000	9.841
4/23/2022	11:51 AM	46.203	0.001	0.001	9.837	0.001	0.001	0.001	9.658	0.001	0.001	0.001	9.719	0.001	0.000	0.000	0.000	9.849	0.001	0.001	0.000	9.842
4/23/2022	12:02 PM	46.378	0.001	0.001	9.837	0.001	0.001	0.001	9.658	0.001	0.001	0.001	9.720	0.001	0.000	0.000	0.000	9.850	0.001	0.001	0.000	9.842
4/23/2022	12:12 PM	46.554	0.001	0.001	9.837	0.001	0.001	0.001	9.657	0.001	0.001	0.001	9.720	0.001	0.000	0.000	0.000	9.851	0.001	0.001	0.000	9.843
4/23/2022	12:23 PM	46.730	0.001	0.001	9.837	0.001	0.001	0.001	9.653	0.001	0.001	0.001	9.720	0.001	0.000	0.000	0.000	9.852	0.001	0.001	0.000	9.842
4/23/2022	12:33 PM	46.906	0.001	0.001	9.838	0.001	0.001	0.001	9.656	0.001	0.001	0.001	9.720	0.001	0.000	0.000	0.000	9.851	0.001	0.001	0.000	9.843
4/23/2022	12:44 PM	47.082	0.001	0.001	9.839	0.001	0.001	0.001	9.657	0.001	0.001	0.001	9.720	0.001	0.000	0.000	0.000	9.851	0.001	0.001	0.000	9.843
4/23/2022	12:54 PM	47.257	0.001	0.001	9.838	0.001	0.001	0.001	9.657	0.001	0.001	0.001	9.720	0.001	0.000	0.000	0.000	9.851	0.001	0.001	0.000	9.843
4/23/2022	1:05 PM	47.433	0.001	0.001	9.838	0.001	0.001	0.001	9.659	0.001	0.001	0.001	9.720	0.001	0.000	0.000	0.000	9.850	0.001	0.001	0.000	9.844
4/23/2022	1:15 PM	47.609	0.001	0.001	9.837	0.001	0.001	0.001	9.658	0.001	0.001	0.001	9.721	0.001	0.000	0.000	0.000	9.851	0.001	0.001	0.000	9.844
4/23/2022	1:26 PM	47.785	0.001	0.001	9.838	0.001	0.001	0.001	9.660	0.001	0.001	0.001	9.721	0.001	0.000	0.000	0.000	9.851	0.001	0.001	0.000	9.843
4/23/2022	1:36 PM	47.960	9.737	9.683	0.001	9.677	9.785	9.804	0.001	9.705	9.819	9.786	0.002	9.744	9.725	9.820	9.760	0.001	9.685	9.723	9.727	0.001
4/23/2022	1:37 PM	47.970	0.001	0.001	9.826	0.001	0.001	0.001	9.647	0.001	0.001	0.001	9.708	0.001	0.000	0.001	0.000	9.837	0.001	0.001	0.000	9.832
4/23/2022	1:48 PM	48.145	0.001	0.001	9.833	0.001	0.001	0.001	9.654	0.001	0.001	0.001	9.714	0.001	0.000	0.000	0.000	9.845	0.001	0.001	0.000	9.837
4/23/2022	1:58 PM	48.321	0.001	0.001	9.834	0.001	0.001	0.001	9.655	0.001	0.001	0.001	9.714	0.001	0.000	0.000	0.000	9.847	0.001	0.001	0.000	9.839
4/23/2022	2:09 PM	48.497	0.001	0.001	9.834	0.001	0.001	0.001	9.656	0.001	0.001	0.001	9.714	0.001	0.000	0.000	0.000	9.847	0.001	0.001	0.000	9.840
4/23/2022	2:19 PM	48.673	0.001	0.001	9.836	0.001	0.001	0.001	9.657	0.001	0.001	0.001	9.716	0.001	0.000	0.000	0.000	9.848	0.001	0.001	0.000	9.841
4/23/2022	2:30 PM	48.849	0.001	0.001	9.837	0.001	0.001	0.001	9.656	0.001	0.001	0.001	9.716	0.001	0.000	0.000	0.000	9.848	0.001	0.001	0.000	9.841
4/23/2022	2:40 PM	49.025	0.001	0.001	9.836	0.001	0.001	0.001	9.658	0.001	0.001	0.001	9.716	0.001	0.000	0.000	0.000	9.849	0.001	0.001	0.000	9.842
4/23/2022	2:51 PM	49.200	0.001	0.001	9.836	0.001	0.001	0.001	9.653	0.001	0.001	0.001	9.717	0.001	0.000	0.000	0.000	9.851	0.001	0.001	0.000	9.843
4/23/2022	3:01 PM	49.376	0.001	0.001	9.837	0.001	0.001	0.001	9.656	0.001	0.001	0.001	9.717	0.001	0.000	0.000	0.000	9.850	0.001	0.001	0.000	9.844
4/23/2022	3:12 PM	49.552	0.001	0.001	9.838	0.001	0.001	0.001	9.657	0.001	0.001	0.001	9.717	0.001	0.000	0.000	0.000	9.850	0.001	0.001	0.000	9.842
4/23/2022	3:22 PM	49.728	0.001	0.001	9.838	0.001	0.001	0.001	9.657	0.001	0.001	0.001	9.717	0.001	0.000	0.000	0.000	9.850	0.001	0.001	0.000	9.844
4/23/2022	3:33 PM	49.903	0.001	0.001	9.838	0.001	0.001	0.001	9.657	0.001	0.001	0.001	9.718	0.001	0.000	0.000	0.000	9.850	0.001	0.001	0.000	9.844
4/23/2022	3:44 PM	50.079	0.001	0.001	9.837	0.001	0.001	0.001	9.659	0.001	0.001	0.001	9.718	0.001	0.000	0.000	0.000	9.851	0.001	0.001	0.000	9.845
4/23/2022	3:54 PM	50.255	0.001	0.001	9.837	0.001	0.001	0.001	9.659	0.001	0.001	0.001	9.719	0.001	0.000	0.000	0.000	9.851	0.001	0.001	0.000	9.845
4/23/2022	4:05 PM	50.431	0.001	0.001	9.836	0.001	0.001	0.001	9.659	0.001	0.001	0.001	9.719	0.001	0.000	0.000	0.000	9.850	0.001	0.001	0.000	9.845
4/23/2022	4:15 PM	50.607	0.001	0.001	9.838	0.001	0.001	0.001	9.658	0.001	0.001	0.001	9.719	0.001	0.000	0.000	0.000	9.851	0.001	0.001	0.000	9.845
4/23/2022	4:26 PM	50.783	0.001	0.001	9.837	0.001	0.001	0.001	9.658	0.001	0.001	0.001	9.720	0.001	0.000	0.000	0.000	9.850	0.001	0.001	0.000	9.846
4/23/2022	4:36 PM	50.958	9.738	9.684	0.001	9.675	9.784	9.806	0.001	9.706	9.819	9.785	0.002	9.743	9.723	9.822	9.761	0.001	9.687	9.726	9.727	0.001
4/23/2022	4:37 PM	50.967	0.001	0.001	9.827	0.001	0.001	0.001	9.648	0.001	0.001	0.001	9.708	0.001	0.000	0.001	0.000	9.836	0.001	0.001	0.000	9.832
4/23/2022	4:47 PM	51.143	0.001	0.001	9.834	0.001	0.001	0.001	9.653	0.001	0.001	0.001	9.714	0.001	0.000	0.000	0.000	9.845	0.001	0.001	0.000	9.837
4/23/2022	4:58 PM	51.319	0.001	0.001	9.835	0.001	0.001	0.001	9.657	0.001	0.001	0.001	9.716	0.001	0.000	0.000	0.000	9.847	0.001	0.001	0.000	9.840
4/23/2022	5:09 PM	51.495	0.001	0.001	9.835	0.001	0.001	0.001	9.656	0.001	0.001	0.001	9.715	0.001	0.000	0.000	0.000	9.848	0.001	0.001	0.000	9.840
4/23/2022	5:19 PM	51.671	0.001	0.001	9.835	0.001	0.001	0.001	9.656	0.001	0.001	0.001	9.717	0.001	0.000	0.000	0.000	9.848	0.001	0.001	0.000	9.841
4/23/2022	5:30 PM	51.846	0.001	0.001	9.836	0.001	0.001	0.001	9.656	0.001	0.001	0.001	9.717	0.001	0.000	0.000	0.000	9.847	0.001	0.001	0.000	9.841
4/23/2022	5:40 PM	52.022	0.001	0.001	9.837	0.001	0.001	0.001	9.657	0.001	0.001	0.001	9.719	0.001	0.000	0.000	0.000	9.848	0.001	0.001	0.000	9.841
4/23/2022	5:51 PM	52.198	0.001	0.001	9.838	0.001	0.001	0.001	9.657	0.001	0.001	0.001	9.719	0.001	0.000	0.000	0.000	9.847	0.001	0.001	0.000	9.842
4/23/2022	6:01 PM	52.374	0.001	0.001	9.838	0.001	0.001	0.001	9.658	0.001	0.001	0.001	9.719	0.001	0.000	0.000	0.000	9.848	0.001	0.001	0.000	9.842
4/23/2022	6:12 PM	52.550	0.001	0.001	9.838	0.001	0.001	0.001	9.658	0.001	0.001	0.001	9.719	0.001	0.000	0.000	0.000	9.848	0.001	0.001	0.000	9.843
4/23/2022	6:22 PM	52.725	0.001	0.001	9.838	0.001	0.001	0.001	9.659	0.001	0.001	0.001	9.720	0.001	0.000	0.000	0.000	9.848	0.001	0.001	0.000	9.844
4/23/2022	6:33 PM	52.901	0.001	0.001	9.838	0.001	0.001	0.001	9.658	0.001	0.001	0.001	9.721	0.001	0.000	0.000	0.000	9.850	0.001	0.001	0.000	9.843
4/23/2022	6:43 PM	53.077	0.001	0.001	9.838	0.001	0.001	0.001	9.659	0.001	0.001	0.001	9.718	0.001	0.000	0.000	0.000	9.849	0.001	0.001	0.000	9.844
4/23/2022	6:54 PM	53.253	0.001	0.001	9.838	0.001	0.001	0.001	9.657	0.001	0.001	0.001	9.719	0.001	0.000	0.000	0.000	9.849	0.001	0.001	0.000	9.845
4/23/2022	7:05 PM	53.429	0.001	0.001	9.839	0.001	0.001	0.001	9.658	0.001	0.001	0.001	9.719	0.001	0.000	0.000	0.000	9.849	0.001	0.001	0.000	9.845
4/23/2022	7:15 PM	53.604	0.001	0.001	9.839	0.001	0.001	0.001	9.659	0.001	0.001	0.001	9.720	0.001	0.000	0.000	0.000	9.850	0.001	0.001	0.000	9.846
4/23/2022	7:26 PM	53.780	0.001	0.001	9.839	0.001	0.001	0.001	9.659	0.001	0.001	0.001	9.719	0.001	0.000	0.000	0.000	9.850	0.001	0.001	0.000	9.846
4/23/2022	7:36 PM	53.956	9.737	9.685	0.002	9.675	9.786	9.804	0.001	9.706	9.819	9.787	0.002	9.743	9.726	9.821	9.759	0.001	9.685	9.724	9.727	0.001
4/23/2022	7:37 PM	53.965	0.001	0.001	9.829	0.001	0.001	0.001	9.648	0.001	0.001	0.001	9.708	0.001	0.000	0.001	0.000	9.837	0.001	0.001	0.000	9.832
4/23/2022	7:47 PM	54.141	0.001	0.001	9.835	0.001	0.001	0.001	9.655	0.001	0.001	0.001	9.714	0.001	0.000	0.000	0.000	9.845	0.001	0.001	0.000	9.842
4/23/2022	7:58 PM	54.317	0.001	0.001	9.836	0.001	0.001	0.001	9.657	0.001	0.001	0.001	9.716	0.001	0.000	0.000	0.000	9.847	0.001	0.001	0.000	9.842
4/23/2022	8:08 PM	54.492	0.001	0.001	9.837	0.001	0.001	0.001	9.658	0.001	0.001	0.001	9.717	0.001	0.000	0.000	0.000	9.847	0.001	0.001	0.000	9.843
4/23/2022	8:19 PM	54.668	0.001	0.001	9.838	0.001	0.001	0.001	9.658	0.001	0.001	0.001	9.718	0.001	0.000	0.000	0.000	9.848	0.001	0.001	0.000	9.843
4/23/2022	8:29 PM	54.844	0.001	0.001	9.838	0.001	0.001	0.001	9.658	0.001	0.001	0.001	9.718	0.001	0.000	0.000	0.000	9.848	0.001	0.001	0.000	9.844
4/23/2022	8:40 PM	55.020	0.001	0.001	9.837	0.001	0.001	0.001	9.659	0.001	0.001	0.001	9.719	0.001	0.000	0.000	0.000	9.848	0.001	0.001	0.000	9.844
4/23/2022	8:51 PM	55.196	0.001	0.001	9.837	0.001	0.001	0.001	9.660	0.001	0.001	0.001	9.718	0.001	0.000	0.000	0.000	9.849	0.001	0.001	0.000	9.846
4/23/2022	9:01 PM	55.371	0.001	0.001	9.838	0.001	0.001	0.001	9.659	0.001	0.001	0.001	9.719	0.001	0.000	0.000	0.000	9.849	0.001	0.001	0.000	9.845
4/23/2022	9:12 PM	55.547	0.001	0.001	9.838	0.001	0.001	0.001	9.660	0.001	0.001	0.001	9.720	0.001	0.000	0.000	0.000	9.849	0.001	0.001	0.000	9.847
4/23/2022	9:22 PM	55.723	0.001	0.001	9.839	0.001	0.001	0.001	9.660	0.001	0.001	0.001	9.720	0.001	0.000	0.000	0.000	9.850	0.001	0.001	0.000	9.847
4/23/2022	9:33 PM	55.899	0.001	0.001	9.838	0.001	0.001	0.001	9.661	0.001	0.001	0.001	9.719	0.001	0.000	0.000	0.000	9.851	0.001	0.001	0.000	9.845
4/23/2022	9:43 PM	56.075	0.001	0.001	9.838	0.001	0.001	0.001	9.660	0.001	0.001	0.001	9.720	0.001	0.000	0.000	0.000	9.850	0.001	0.001	0.000	9.846
4/23/2022	9:54 PM	56.250	0.001	0.001	9.838	0.001	0.001	0.001	9.661	0.001	0.001	0.001	9.719	0.001	0.000	0.000	0.000	9.849	0.001	0.001	0.000	9.845
4/23/2022	10:04 PM	56.426	0.001	0.001	9.838	0.001	0.001	0.001	9.660	0.001	0.001	0.001	9.720	0.001	0.000	0.000	0.000	9.851	0.001	0.001	0.000	9.846
4/23/2022	10:15 PM	56.602	0.001	0.001	9.839	0.001	0.001	0.001	9.661	0.001	0.001	0.001	9.720	0.001	0.000	0.000	0.000	9.850	0.001	0.001	0.000	9.846
4/23/2022	10:25 PM	56.778	0.001	0.001	9.838	0.001	0.001	0.001	9.660	0.001	0.001	0.001	9.721	0.001	0.000	0.000	0.001	9.851	0.001	0.001	0.000	9.846
4/23/2022	10:36 PM	56.953	9.736	9.684	0.002	9.676	9.787	9.805	0.001	9.705	9.819	9.785	0.002	9.743	9.721	9.821	9.759	0.001	9.686	9.723	9.728	0.001
4/23/2022	10:37 PM	56.963	0.001	0.001	9.829	0.001	0.001	0.001	9.648	0.001	0.001	0.001	9.708	0.001	0.000	0.001	0.000	9.836	0.001	0.001	0.000	9.835
4/23/2022	10:47 PM	57.139	0.001	0.001	9.834	0.001	0.001	0.001	9.654	0.001	0.001	0.001	9.716	0.001	0.000	0.000	0.000	9.844	0.001	0.001	0.000	9.843
4/23/2022	10:58 PM	57.314	0.001	0.001	9.836	0.001	0.001	0.001	9.656	0.001	0.001	0.001	9.717	0.001	0.000	0.000	0.000	9.844	0.001	0.001	0.000	9.842
4/23/2022	11:08 PM	57.490	0.001	0.001	9.836	0.001	0.001	0.001	9.656	0.001	0.001	0.001	9.718	0.001	0.000	0.000	0.000	9.847	0.001	0.001	0.000	9.845
4/23/2022	11:19 PM	57.666	0.001	0.001	9.838	0.001	0.001	0.001	9.656	0.001	0.001	0.001	9.720	0.001	0.000	0.000	0.000	9.848	0.001	0.001	0.000	9.843
4/23/2022	11:29 PM	57.842	0.001	0.001	9.838	0.001	0.001	0.001	9.657	0.001	0.001	0.001	9.720	0.001	0.000	0.000	0.000	9.849	0.001	0.001	0.000	9.843
4/23/2022	11:40 PM	58.017	0.001	0.001	9.837	0.001	0.001	0.001	9.658	0.001	0.001	0.001	9.720	0.001	0.000	0.000	0.000	9.850	0.001	0.001	0.000	9.845
4/23/2022	11:50 PM	58.193	0.001	0.001	9.838	0.001	0.001	0.001	9.659	0.001	0.001	0.001	9.721	0.001	0.000	0.000	0.000	9.851	0.001	0.001	0.000	9.844
4/24/2022	12:01 AM	58.369	0.001	0.001	9.838	0.001	0.001	0.001	9.658	0.001	0.001	0.001	9.721	0.001	0.000	0.000	0.000	9.852	0.001	0.001	0.000	9.845
4/24/2022	12:12 AM	58.545	0.001	0.001	9.838	0.001	0.001	0.001	9.659	0.001	0.001	0.001	9.721	0.001	0.000	0.000	0.000	9.852	0.001	0.001	0.000	9.845
4/24/2022	12:22 AM	58.721	0.001	0.001	9.839	0.001	0.001	0.001	9.659	0.001	0.001	0.001	9.721	0.001	0.000	0.000	0.001	9.852	0.001	0.001	0.000	9.845
4/24/2022	12:33 AM	58.897	0.001	0.001	9.839	0.001	0.001	0.001	9.660	0.001	0.001	0.001	9.720	0.001	0.000	0.000	0.001	9.853	0.001	0.001	0.000	9.846
4/24/2022	12:43 AM	59.072	0.001	0.001	9.839	0.001	0.001	0.001	9.659	0.001	0.001	0.001	9.721	0.001	0.000	0.000	0.001	9.852	0.001	0.001	0.000	9.845
4/24/2022	12:54 AM	59.248	0.001	0.001	9.839	0.001	0.001	0.001	9.660	0.001	0.001	0.001	9.721	0.001	0.000	0.000	0.000	9.852	0.001	0.001	0.000	9.846
4/24/2022	1:04 AM	59.424	0.001	0.001	9.839	0.001	0.001	0.001	9.660	0.001	0.001	0.001	9.722	0.001	0.000	0.000	0.000	9.851	0.001	0.001	0.000	9.846
4/24/2022	1:15 AM	59.600	0.001	0.001	9.838	0.001	0.001	0.001	9.660	0.001	0.001	0.001	9.721	0.001	0.000	0.000	0.000	9.852	0.001	0.001	0.000	9.845
4/24/2022	1:25 AM	59.776	0.001	0.001	9.838	0.001	0.001	0.001	9.660	0.001	0.001	0.001	9.721	0.001	0.000	0.000	0.000	9.852	0.001	0.001	0.000	9.846
4/24/2022	1:36 AM	59.951	9.736	9.684	0.002	9.676	9.785	9.805	0.001	9.707	9.820	9.786	0.002	9.744	9.724	9.821	9.761	0.001	9.684	9.724	9.727	0.001
4/24/2022	1:36 AM	59.960	0.001	0.001	9.828	0.001	0.001	0.001	9.646	0.001	0.001	0.001	9.710	0.001	0.000	0.001	0.000	9.837	0.001	0.001	0.000	9.834
4/24/2022	1:47 AM	60.136	0.001	0.001	9.835	0.001	0.001	0.001	9.653	0.001	0.001	0.001	9.717	0.001	0.000	0.000	0.000	9.846	0.001	0.001	0.000	9.840
4/24/2022	1:58 AM	60.312	0.001	0.001	9.836	0.001	0.001	0.001	9.656	0.001	0.001	0.001	9.717	0.001	0.000	0.000	0.001	9.848	0.001	0.001	0.000	9.841
4/24/2022	2:08 AM	60.488	0.001	0.001	9.836	0.001	0.001	0.001	9.657	0.001	0.001	0.001	9.717	0.001	0.000	0.000	0.001	9.850	0.001	0.001	0.000	9.842
4/24/2022	2:19 AM	60.664	0.001	0.001	9.836	0.001	0.001	0.001	9.657	0.001	0.001	0.001	9.717	0.001	0.000	0.000	0.001	9.849	0.001	0.001	0.000	9.843
4/24/2022	2:29 AM	60.839	0.001	0.001	9.837	0.001	0.001	0.001	9.657	0.001	0.001	0.001	9.717	0.001	0.000	0.000	0.000	9.850	0.001	0.001	0.000	9.844
4/24/2022	2:40 AM	61.015	0.001	0.001	9.837	0.001	0.001	0.001	9.658	0.001	0.001	0.001	9.718	0.001	0.000	0.000	0.001	9.850	0.001	0.001	0.000	9.843
4/24/2022	2:50 AM	61.191	0.001	0.001	9.838	0.001	0.001	0.001	9.658	0.001	0.001	0.001	9.720	0.001	0.000	0.000	0.000	9.851	0.001	0.001	0.000	9.843
4/24/2022	3:01 AM	61.367	0.001	0.001	9.838	0.001	0.001	0.001	9.658	0.001	0.001	0.001	9.719	0.001	0.000	0.000	0.001	9.851	0.001	0.001	0.000	9.843
4/24/2022	3:11 AM	61.543	0.001	0.001	9.839	0.001	0.001	0.001	9.660	0.001	0.001	0.001	9.719	0.001	0.000	0.000	0.000	9.852	0.001	0.001	0.000	9.843
4/24/2022	3:22 AM	61.718	0.001	0.001	9.839	0.001	0.001	0.001	9.656	0.001	0.001	0.001	9.720	0.001	0.000	0.000	0.000	9.852	0.001	0.001	0.000	9.845
4/24/2022	3:33 AM	61.895	0.001	0.001	9.838	0.001	0.001	0.001	9.660	0.001	0.001	0.001	9.720	0.001	0.000	0.000	0.001	9.852	0.001	0.001	0.000	9.846
4/24/2022	3:43 AM	62.071	0.001	0.001	9.837	0.001	0.001	0.001	9.659	0.001	0.001	0.001	9.720	0.001	0.000	0.000	0.001	9.852	0.001	0.001	0.000	9.845
4/24/2022	3:54 AM	62.247	0.001	0.001	9.838	0.001	0.001	0.001	9.659	0.001	0.001	0.001	9.720	0.001	0.000	0.000	0.001	9.851	0.001	0.001	0.000	9.845
4/24/2022	4:04 AM	62.422	0.001	0.001	9.837	0.001	0.001	0.001	9.659	0.001	0.001	0.001	9.720	0.001	0.000	0.000	0.000	9.851	0.001	0.001	0.000	9.845
4/24/2022	4:15 AM	62.598	0.001	0.001	9.838	0.001	0.001	0.001	9.658	0.001	0.001	0.001	9.721	0.001	0.000	0.000	0.000	9.851	0.001	0.001	0.000	9.845
4/24/2022	4:25 AM	62.774	0.001	0.001	9.838	0.001	0.001	0.001	9.659	0.001	0.001	0.001	9.721	0.001	0.000	0.000	0.000	9.852	0.001	0.001	0.000	9.847
4/24/2022	4:36 AM	62.950	9.737	9.684	0.002	9.677	9.786	9.806	0.001	9.706	9.818	9.786	0.002	9.743	9.724	9.823	9.760	0.001	9.685	9.725	9.729	0.001
4/24/2022	4:36 AM	62.959	0.001	0.001	9.829	0.001	0.001	0.001	9.646	0.001	0.001	0.001	9.709	0.001	0.000	0.001	0.000	9.837	0.001	0.001	0.000	9.833
4/24/2022	4:47 AM	63.135	0.001	0.001	9.835	0.001	0.001	0.001	9.654	0.001	0.001	0.001	9.715	0.001	0.000	0.000	0.000	9.846	0.001	0.001	0.000	9.840
4/24/2022	4:57 AM	63.311	0.001	0.001	9.837	0.001	0.001	0.001	9.654	0.001	0.001	0.001	9.717	0.001	0.000	0.000	0.000	9.847	0.001	0.001	0.000	9.840
4/24/2022	5:08 AM	63.486	0.001	0.001	9.837	0.001	0.001	0.001	9.657	0.001	0.001	0.001	9.717	0.001	0.000	0.000	0.000	9.847	0.001	0.001	0.000	9.842
4/24/2022	5:19 AM	63.662	0.001	0.001	9.838	0.001	0.001	0.001	9.658	0.001	0.001	0.001	9.718	0.001	0.000	0.000	0.001	9.846	0.001	0.001	0.000	9.842
4/24/2022	5:29 AM	63.838	0.001	0.001	9.838	0.001	0.001	0.001	9.660	0.001	0.001	0.001	9.718	0.001	0.000	0.000	0.000	9.846	0.001	0.001	0.000	9.842
4/24/2022	5:40 AM	64.014	0.001	0.001	9.838	0.001	0.001	0.001	9.660	0.001	0.001	0.001	9.719	0.001	0.000	0.000	0.000	9.849	0.001	0.001	0.000	9.843
4/24/2022	5:50 AM	64.190	0.001	0.001	9.838	0.001	0.001	0.001	9.660	0.001	0.001	0.001	9.719	0.001	0.000	0.000	0.000	9.849	0.001	0.001	0.000	9.844
4/24/2022	6:01 AM	64.365	0.001	0.001	9.838	0.001	0.001	0.001	9.660	0.001	0.001	0.001	9.719	0.001	0.000	0.000	0.001	9.848	0.001	0.001	0.000	9.842
4/24/2022	6:11 AM	64.541	0.001	0.001	9.838	0.001	0.001	0.001	9.659	0.001	0.001	0.001	9.719	0.001	0.000	0.000	0.001	9.849	0.001	0.001	0.000	9.844
4/24/2022	6:22 AM	64.717	0.001	0.001	9.838	0.001	0.001	0.001	9.660	0.001	0.001	0.001	9.719	0.001	0.000	0.000	0.001	9.849	0.001	0.001	0.000	9.844
4/24/2022	6:32 AM	64.893	0.001	0.001	9.839	0.001	0.001	0.001	9.660	0.001	0.001	0.001	9.720	0.001	0.000	0.000	0.001	9.850	0.001	0.001	0.000	9.844
4/24/2022	6:43 AM	65.068	0.001	0.001	9.838	0.001	0.001	0.001	9.660	0.001	0.001	0.001	9.720	0.001	0.000	0.000	0.000	9.851	0.001	0.001	0.000	9.844
4/24/2022	6:53 AM	65.244	0.001	0.001	9.839	0.001	0.001	0.001	9.660	0.001	0.001	0.001	9.720	0.001	0.000	0.000	0.001	9.851	0.001	0.001	0.000	9.844
4/24/2022	7:04 AM	65.420	0.001	0.001	9.839	0.001	0.001	0.001	9.661	0.001	0.001	0.001	9.720	0.001	0.000	0.000	0.001	9.849	0.001	0.001	0.000	9.844
4/24/2022	7:15 AM	65.596	0.001	0.001	9.839	0.001	0.001	0.001	9.660	0.001	0.001	0.001	9.720	0.001	0.000	0.000	0.001	9.850	0.001	0.001	0.000	9.845
4/24/2022	7:25 AM	65.772	0.001	0.001	9.840	0.001	0.001	0.001	9.661	0.001	0.001	0.001	9.720	0.001	0.000	0.000	0.001	9.850	0.001	0.001	0.000	9.846
4/24/2022	7:36 AM	65.947	9.735	9.684	0.002	9.677	9.785	9.804	0.001	9.707	9.819	9.786	0.002	9.743	9.725	9.822	9.761	0.001	9.685	9.724	9.730	0.001
4/24/2022	7:36 AM	65.957	0.001	0.001	9.825	0.001	0.001	0.001	9.646	0.001	0.001	0.001	9.709	0.001	0.000	0.001	0.000	9.836	0.001	0.001	0.000	9.834
4/24/2022	7:47 AM	66.132	0.001	0.001	9.833	0.001	0.001	0.001	9.654	0.001	0.001	0.001	9.716	0.001	0.000	0.000	0.001	9.845	0.001	0.001	0.000	9.839
4/24/2022	7:57 AM	66.308	0.001	0.001	9.834	0.001	0.001	0.001	9.656	0.001	0.001	0.001	9.718	0.001	0.000	0.000	0.001	9.848	0.001	0.001	0.000	9.841
4/24/2022	8:08 AM	66.484	0.001	0.001	9.835	0.001	0.001	0.001	9.657	0.001	0.001	0.001	9.719	0.001	0.000	0.000	0.001	9.849	0.001	0.001	0.000	9.843
4/24/2022	8:18 AM	66.660	0.001	0.001	9.837	0.001	0.001	0.001	9.659	0.001	0.001	0.001	9.718	0.001	0.000	0.000	0.001	9.849	0.001	0.001	0.000	9.842
4/24/2022	8:29 AM	66.836	0.001	0.001	9.835	0.001	0.001	0.001	9.658	0.001	0.001	0.001	9.720	0.001	0.000	0.000	0.001	9.850	0.001	0.001	0.000	9.844
4/24/2022	8:39 AM	67.011	0.001	0.001	9.836	0.001	0.001	0.001	9.659	0.001	0.001	0.001	9.720	0.001	0.000	0.000	0.000	9.850	0.001	0.001	0.000	9.844
4/24/2022	8:50 AM	67.187	0.001	0.001	9.836	0.001	0.001	0.001	9.659	0.001	0.001	0.001	9.721	0.001	0.000	0.000	0.001	9.851	0.001	0.001	0.000	9.844
4/24/2022	9:01 AM	67.363	0.001	0.001	9.837	0.001	0.001	0.001	9.660	0.001	0.001	0.001	9.721	0.001	0.000	0.000	0.001	9.851	0.001	0.001	0.000	9.845
4/24/2022	9:11 AM	67.539	0.001	0.001	9.837	0.001	0.001	0.001	9.660	0.001	0.001	0.001	9.720	0.001	0.000	0.000	0.001	9.852	0.001	0.001	0.000	9.845
4/24/2022	9:22 AM	67.715	0.001	0.001	9.838	0.001	0.001	0.001	9.659	0.001	0.001	0.001	9.721	0.001	0.000	0.000	0.001	9.852	0.001	0.001	0.000	9.844
4/24/2022	9:32 AM	67.890	0.001	0.001	9.837	0.001	0.001	0.001	9.659	0.001	0.001	0.001	9.721	0.001	0.000	0.000	0.001	9.853	0.001	0.001	0.000	9.846
4/24/2022	9:43 AM	68.066	0.001	0.001	9.837	0.001	0.001	0.001	9.659	0.001	0.001	0.001	9.721	0.001	0.000	0.000	0.000	9.851	0.001	0.001	0.000	9.845
4/24/2022	9:53 AM	68.242	0.001	0.001	9.838	0.001	0.001	0.001	9.659	0.001	0.001	0.001	9.721	0.001	0.000	0.000	0.001	9.852	0.001	0.001	0.000	9.846
4/24/2022	10:04 AM	68.418	0.001	0.001	9.838	0.001	0.001	0.001	9.661	0.001	0.001	0.001	9.722	0.001	0.000	0.000	0.000	9.853	0.001	0.001	0.000	9.845
4/24/2022	10:14 AM	68.593	0.001	0.001	9.837	0.001	0.001	0.001	9.660	0.001	0.001	0.001	9.721	0.001	0.000	0.000	0.001	9.852	0.001	0.001	0.000	9.846
4/24/2022	10:25 AM	68.769	0.001	0.001	9.838	0.001	0.001	0.001	9.661	0.001	0.001	0.001	9.722	0.001	0.000	0.000	0.001	9.852	0.001	0.001	0.000	9.844
4/24/2022	10:36 AM	68.945	9.739	9.684	0.002	9.676	9.785	9.804	0.001	9.709	9.820	9.784	0.002	9.744	9.725	9.822	9.761	0.001	9.685	9.725	9.728	0.001
4/24/2022	10:36 AM	68.954	0.001	0.001	9.829	0.001	0.001	0.001	9.650	0.001	0.001	0.001	9.709	0.001	0.000	0.001	0.000	9.838	0.001	0.001	0.000	9.834
4/24/2022	10:47 AM	69.130	0.001	0.001	9.835	0.001	0.001	0.001	9.655	0.001	0.001	0.001	9.715	0.001	0.000	0.000	0.001	9.847	0.001	0.001	0.000	9.841
4/24/2022	10:57 AM	69.306	0.001	0.001	9.835	0.001	0.001	0.001	9.657	0.001	0.001	0.001	9.717	0.001	0.000	0.000	0.001	9.849	0.001	0.001	0.000	9.842
4/24/2022	11:08 AM	69.482	0.001	0.001	9.836	0.001	0.001	0.001	9.659	0.001	0.001	0.001	9.717	0.001	0.000	0.000	0.001	9.850	0.001	0.001	0.000	9.843
4/24/2022	11:18 AM	69.657	0.001	0.001	9.836	0.001	0.001	0.001	9.658	0.001	0.001	0.001	9.719	0.001	0.000	0.000	0.001	9.848	0.001	0.001	0.000	9.843
4/24/2022	11:29 AM	69.833	0.001	0.001	9.836	0.001	0.001	0.001	9.658	0.001	0.001	0.001	9.719	0.001	0.000	0.000	0.001	9.849	0.001	0.001	0.000	9.842
4/24/2022	11:39 AM	70.009	0.001	0.001	9.836	0.001	0.001	0.001	9.658	0.001	0.001	0.001	9.720	0.001	0.000	0.000	0.000	9.850	0.001	0.001	0.000	9.842
4/24/2022	11:50 AM	70.185	0.001	0.001	9.836	0.001	0.001	0.001	9.659	0.001	0.001	0.001	9.719	0.001	0.000	0.000	0.000	9.850	0.001	0.001	0.000	9.844
4/24/2022	12:00 PM	70.361	0.001	0.001	9.836	0.001	0.001	0.001	9.660	0.001	0.001	0.001	9.721	0.001	0.000	0.000	0.001	9.850	0.001	0.001	0.000	9.844
4/24/2022	12:11 PM	70.536	0.001	0.001	9.837	0.001	0.001	0.001	9.660	0.001	0.001	0.001	9.719	0.001	0.000	0.000	0.001	9.850	0.001	0.001	0.000	9.845
4/24/2022	12:22 PM	70.712	0.001	0.001	9.838	0.001	0.001	0.001	9.659	0.001	0.001	0.001	9.721	0.001	0.000	0.000	0.000	9.851	0.001	0.001	0.000	9.846
4/24/2022	12:32 PM	70.888	0.001	0.001	9.836	0.001	0.001	0.001	9.659	0.001	0.001	0.001	9.720	0.001	0.000	0.000	0.000	9.852	0.001	0.001	0.000	9.846
4/24/2022	12:43 PM	71.064	0.001	0.001	9.839	0.001	0.001	0.001	9.661	0.001	0.001	0.001	9.721	0.001	0.000	0.000	0.001	9.851	0.001	0.001	0.000	9.847
4/24/2022	12:53 PM	71.240	0.001	0.001	9.838	0.001	0.001	0.001	9.660	0.001	0.001	0.001	9.720	0.001	0.000	0.000	0.000	9.852	0.001	0.001	0.000	9.845
4/24/2022	1:04 PM	71.415	0.001	0.001	9.837	0.001	0.001	0.001	9.661	0.001	0.001	0.001	9.721	0.001	0.000	0.000	0.001	9.850	0.001	0.001	0.000	9.846
4/24/2022	1:14 PM	71.591	0.001	0.001	9.837	0.001	0.001	0.001	9.661	0.001	0.001	0.001	9.721	0.001	0.000	0.000	0.001	9.852	0.001	0.001	0.000	9.846
4/24/2022	1:25 PM	71.767	0.001	0.001	9.838	0.001	0.001	0.001	9.660	0.001	0.001	0.001	9.721	0.001	0.000	0.000	0.001	9.852	0.001	0.001	0.000	9.846
4/24/2022	1:35 PM	71.943	9.739	9.683	0.002	9.677	9.786	9.805	0.001	9.709	9.820	9.785	0.002	9.743	9.725	9.820	9.761	0.001	9.684	9.722	9.728	0.001
4/24/2022	1:36 PM	71.952	0.001	0.001	9.827	0.001	0.001	0.001	9.648	0.001	0.001	0.001	9.708	0.001	0.000	0.001	0.000	9.839	0.001	0.001	0.000	9.834
4/24/2022	1:46 PM	72.128	0.001	0.001	9.834	0.001	0.001	0.001	9.656	0.001	0.001	0.001	9.715	0.001	0.000	0.000	0.001	9.846	0.001	0.001	0.000	9.840
4/24/2022	1:57 PM	72.304	0.001	0.001	9.835	0.001	0.001	0.001	9.659	0.001	0.001	0.001	9.718	0.001	0.000	0.000	0.001	9.848	0.001	0.001	0.000	9.841
4/24/2022	2:08 PM	72.479	0.001	0.001	9.835	0.001	0.001	0.001	9.659	0.001	0.001	0.001	9.718	0.001	0.000	0.000	0.001	9.848	0.001	0.001	0.000	9.843
4/24/2022	2:18 PM	72.655	0.001	0.001	9.835	0.001	0.001	0.001	9.659	0.001	0.001	0.001	9.719	0.001	0.000	0.000	0.001	9.849	0.001	0.001	0.000	9.843
4/24/2022	2:29 PM	72.831	0.001	0.001	9.837	0.001	0.001	0.001	9.659	0.001	0.001	0.001	9.718	0.001	0.000	0.000	0.001	9.849	0.001	0.001	0.000	9.845
4/24/2022	2:39 PM	73.007	0.001	0.001	9.838	0.001	0.001	0.001	9.659	0.001	0.001	0.001	9.719	0.001	0.000	0.000	0.001	9.850	0.001	0.001	0.000	9.844
4/24/2022	2:50 PM	73.183	0.001	0.001	9.837	0.001	0.001	0.001	9.660	0.001	0.001	0.001	9.719	0.001	0.000	0.000	0.001	9.850	0.001	0.001	0.000	9.845
4/24/2022	3:00 PM	73.358	0.001	0.001	9.838	0.001	0.001	0.001	9.660	0.001	0.001	0.001	9.720	0.001	0.000	0.000	0.001	9.851	0.001	0.001	0.000	9.844
4/24/2022	3:11 PM	73.534	0.001	0.001	9.838	0.001	0.001	0.001	9.660	0.001	0.001	0.001	9.719	0.001	0.000	0.000	0.000	9.851	0.001	0.001	0.000	9.845
4/24/2022	3:21 PM	73.710	0.001	0.001	9.839	0.001	0.001	0.001	9.660	0.001	0.001	0.001	9.720	0.001	0.000	0.000	0.001	9.851	0.001	0.001	0.000	9.845
4/24/2022	3:32 PM	73.886	0.001	0.001	9.839	0.001	0.001	0.001	9.661	0.001	0.001	0.001	9.719	0.001	0.000	0.000	0.000	9.851	0.001	0.001	0.000	9.845
4/24/2022	3:43 PM	74.061	0.001	0.001	9.840	0.001	0.001	0.001	9.660	0.001	0.001	0.001	9.720	0.001	0.000	0.000	0.001	9.852	0.001	0.001	0.000	9.845
4/24/2022	3:53 PM	74.237	0.001	0.001	9.839	0.001	0.001	0.001	9.661	0.001	0.001	0.001	9.720	0.001	0.000	0.000	0.001	9.853	0.001	0.001	0.000	9.845
4/24/2022	4:04 PM	74.413	0.001	0.001	9.840	0.001	0.001	0.001	9.660	0.001	0.001	0.001	9.720	0.001	0.000	0.000	0.001	9.852	0.001	0.001	0.000	9.846
4/24/2022	4:14 PM	74.589	0.001	0.001	9.841	0.001	0.001	0.001	9.661	0.001	0.001	0.001	9.720	0.001	0.000	0.000	0.000	9.852	0.001	0.001	0.000	9.846
4/24/2022	4:25 PM	74.765	0.001	0.001	9.840	0.001	0.001	0.001	9.661	0.001	0.001	0.001	9.720	0.001	0.000	0.000	0.001	9.852	0.001	0.001	0.000	9.845
4/24/2022	4:35 PM	74.940	9.739	9.684	0.002	9.677	9.786	9.805	0.001	9.708	9.819	9.786	0.002	9.742	9.725	9.822	9.761	0.001	9.686	9.724	9.727	0.001
4/24/2022	4:36 PM	74.950	0.001	0.001	9.829	0.001	0.001	0.001	9.649	0.001	0.001	0.001	9.709	0.001	0.000	0.001	0.000	9.839	0.001	0.001	0.000	9.834
4/24/2022	4:46 PM	75.125	0.001	0.001	9.835	0.001	0.001	0.001	9.654	0.001	0.001	0.001	9.714	0.001	0.000	0.000	0.001	9.845	0.001	0.001	0.000	9.839
4/24/2022	4:57 PM	75.301	0.001	0.001	9.836	0.001	0.001	0.001	9.655	0.001	0.001	0.001	9.715	0.001	0.000	0.000	0.000	9.848	0.001	0.001	0.000	9.842
4/24/2022	5:07 PM	75.477	0.001	0.001	9.835	0.001	0.001	0.001	9.657	0.001	0.001	0.001	9.716	0.001	0.000	0.000	0.000	9.849	0.001	0.001	0.000	9.843
4/24/2022	5:18 PM	75.653	0.001	0.001	9.836	0.001	0.001	0.001	9.656	0.001	0.001	0.001	9.717	0.001	0.000	0.000	0.001	9.848	0.001	0.001	0.000	9.843
4/24/2022	5:29 PM	75.829	0.001	0.001	9.835	0.001	0.001	0.001	9.658	0.001	0.001	0.001	9.717	0.001	0.000	0.000	0.001	9.850	0.001	0.001	0.000	9.844
4/24/2022	5:39 PM	76.004	0.001	0.001	9.837	0.001	0.001	0.001	9.660	0.001	0.001	0.001	9.718	0.001	0.000	0.000	0.000	9.850	0.001	0.001	0.000	9.844
4/24/2022	5:50 PM	76.180	0.001	0.001	9.839	0.001	0.001	0.001	9.660	0.001	0.001	0.001	9.717	0.001	0.000	0.000	0.001	9.850	0.001	0.001	0.000	9.845
4/24/2022	6:00 PM	76.356	0.001	0.001	9.839	0.001	0.001	0.001	9.660	0.001	0.001	0.001	9.718	0.001	0.000	0.000	0.001	9.851	0.001	0.001	0.000	9.846
4/24/2022	6:11 PM	76.532	0.001	0.001	9.838	0.001	0.001	0.001	9.659	0.001	0.001	0.001	9.718	0.001	0.000	0.000	0.001	9.850	0.001	0.001	0.000	9.846
4/24/2022	6:21 PM	76.708	0.001	0.001	9.838	0.001	0.001	0.001	9.660	0.001	0.001	0.001	9.718	0.001	0.000	0.000	0.000	9.851	0.001	0.001	0.000	9.846
4/24/2022	6:32 PM	76.883	0.001	0.001	9.839	0.001	0.001	0.001	9.660	0.001	0.001	0.001	9.719	0.001	0.000	0.000	0.001	9.852	0.001	0.001	0.000	9.846
4/24/2022	6:42 PM	77.059	0.001	0.001	9.838	0.001	0.001	0.001	9.660	0.001	0.001	0.001	9.719	0.001	0.000	0.000	0.001	9.853	0.001	0.001	0.000	9.845
4/24/2022	6:53 PM	77.235	0.001	0.001	9.839	0.001	0.001	0.001	9.660	0.001	0.001	0.001	9.718	0.001	0.000	0.000	0.001	9.852	0.001	0.001	0.000	9.846
4/24/2022	7:03 PM	77.411	0.001	0.001	9.839	0.001	0.001	0.001	9.661	0.001	0.001	0.001	9.720	0.001	0.000	0.000	0.000	9.853	0.001	0.001	0.000	9.845
4/24/2022	7:14 PM	77.586	0.001	0.001	9.839	0.001	0.001	0.001	9.660	0.001	0.001	0.001	9.719	0.001	0.000	0.000	0.001	9.854	0.001	0.001	0.000	9.846
4/24/2022	7:25 PM	77.762	0.001	0.001	9.840	0.001	0.001	0.001	9.660	0.001	0.001	0.001	9.719	0.001	0.000	0.000	0.000	9.853	0.001	0.001	0.000	9.846
4/24/2022	7:35 PM	77.938	9.738	9.685	0.002	9.678	9.787	9.806	0.001	9.708	9.821	9.786	0.002	9.742	9.725	9.821	9.761	0.001	9.684	9.724	9.728	0.001
4/24/2022	7:36 PM	77.947	0.001	0.001	9.829	0.001	0.001	0.001	9.650	0.001	0.001	0.001	9.708	0.001	0.000	0.001	0.000	9.839	0.001	0.001	0.000	9.834
4/24/2022	7:46 PM	78.123	0.001	0.001	9.834	0.001	0.001	0.001	9.657	0.001	0.001	0.001	9.715	0.001	0.000	0.000	0.001	9.847	0.001	0.001	0.000	9.840
4/24/2022	7:57 PM	78.299	0.001	0.001	9.834	0.001	0.001	0.001	9.658	0.001	0.001	0.001	9.717	0.001	0.000	0.000	0.000	9.848	0.001	0.001	0.000	9.843
4/24/2022	8:07 PM	78.475	0.001	0.001	9.835	0.001	0.001	0.001	9.659	0.001	0.001	0.001	9.717	0.001	0.000	0.000	0.000	9.850	0.001	0.001	0.000	9.842
4/24/2022	8:18 PM	78.650	0.001	0.001	9.836	0.001	0.001	0.001	9.658	0.001	0.001	0.001	9.719	0.001	0.000	0.000	0.000	9.849	0.001	0.001	0.000	9.843
4/24/2022	8:28 PM	78.826	0.001	0.001	9.836	0.001	0.001	0.001	9.657	0.001	0.001	0.001	9.719	0.001	0.000	0.000	0.001	9.850	0.001	0.001	0.000	9.844
4/24/2022	8:39 PM	79.002	0.001	0.001	9.836	0.001	0.001	0.001	9.658	0.001	0.001	0.001	9.718	0.001	0.000	0.000	0.000	9.849	0.001	0.001	0.000	9.845
4/24/2022	8:49 PM	79.178	0.001	0.001	9.838	0.001	0.001	0.001	9.658	0.001	0.001	0.001	9.719	0.001	0.000	0.000	0.000	9.849	0.001	0.001	0.000	9.845
4/24/2022	9:00 PM	79.354	0.001	0.001	9.837	0.001	0.001	0.001	9.659	0.001	0.001	0.001	9.720	0.001	0.000	0.000	0.000	9.850	0.001	0.001	0.000	9.845
4/24/2022	9:11 PM	79.529	0.001	0.001	9.838	0.001	0.001	0.001	9.659	0.001	0.001	0.001	9.721	0.001	0.000	0.000	0.000	9.851	0.001	0.001	0.000	9.846
4/24/2022	9:21 PM	79.705	0.001	0.001	9.838	0.001	0.001	0.001	9.658	0.001	0.001	0.001	9.721	0.001	0.000	0.000	0.000	9.852	0.001	0.001	0.000	9.847
4/24/2022	9:32 PM	79.881	0.001	0.001	9.838	0.001	0.001	0.001	9.660	0.001	0.001	0.001	9.721	0.001	0.000	0.000	0.001	9.853	0.001	0.001	0.000	9.847
4/24/2022	9:42 PM	80.057	0.001	0.001	9.839	0.001	0.001	0.001	9.661	0.001	0.001	0.001	9.721	0.001	0.000	0.000	0.000	9.852	0.001	0.001	0.000	9.847
4/24/2022	9:53 PM	80.233	0.001	0.001	9.839	0.001	0.001	0.001	9.660	0.001	0.001	0.001	9.720	0.001	0.000	0.000	0.000	9.852	0.001	0.001	0.000	9.848
4/24/2022	10:03 PM	80.408	0.001	0.001	9.839	0.001	0.001	0.001	9.659	0.001	0.001	0.001	9.720	0.001	0.000	0.000	0.000	9.853	0.001	0.001	0.000	9.848
4/24/2022	10:14 PM	80.584	0.001	0.001	9.839	0.001	0.001	0.001	9.659	0.001	0.001	0.001	9.720	0.001	0.000	0.000	0.000	9.852	0.001	0.001	0.000	9.848
4/24/2022	10:24 PM	80.760	0.001	0.001	9.840	0.001	0.001	0.001	9.661	0.001	0.001	0.001	9.721	0.001	0.000	0.000	0.000	9.852	0.001	0.001	0.000	9.849
4/24/2022	10:35 PM	80.936	9.738	9.685	0.002	9.678	9.786	9.806	0.001	9.709	9.819	9.785	0.002	9.744	9.725	9.820	9.762	0.001	9.685	9.725	9.730	0.001
4/24/2022	10:36 PM	80.945	0.001	0.001	9.829	0.001	0.001	0.001	9.650	0.001	0.001	0.001	9.708	0.001	0.000	0.001	0.000	9.840	0.001	0.001	0.000	9.833
4/24/2022	10:46 PM	81.121	0.001	0.001	9.833	0.001	0.001	0.001	9.655	0.001	0.001	0.001	9.714	0.001	0.000	0.000	0.000	9.845	0.001	0.001	0.000	9.840
4/24/2022	10:57 PM	81.297	0.001	0.001	9.835	0.001	0.001	0.001	9.656	0.001	0.001	0.001	9.716	0.001	0.000	0.000	0.000	9.847	0.001	0.001	0.000	9.841
4/24/2022	11:07 PM	81.472	0.001	0.001	9.836	0.001	0.001	0.001	9.658	0.001	0.001	0.001	9.716	0.001	0.000	0.000	0.000	9.849	0.001	0.001	0.000	9.842
4/24/2022	11:18 PM	81.648	0.001	0.001	9.836	0.001	0.001	0.001	9.657	0.001	0.001	0.001	9.716	0.001	0.000	0.000	0.000	9.850	0.001	0.001	0.000	9.845
4/24/2022	11:28 PM	81.824	0.001	0.001	9.837	0.001	0.001	0.001	9.658	0.001	0.001	0.001	9.718	0.001	0.000	0.000	0.000	9.850	0.001	0.001	0.000	9.846
4/24/2022	11:39 PM	82.000	0.001	0.001	9.837	0.001	0.001	0.001	9.659	0.001	0.001	0.001	9.718	0.001	0.000	0.000	0.000	9.851	0.001	0.001	0.000	9.847
4/24/2022	11:49 PM	82.176	0.001	0.001	9.838	0.001	0.001	0.001	9.658	0.001	0.001	0.001	9.718	0.001	0.000	0.000	0.000	9.849	0.001	0.001	0.000	9.848
4/25/2022	12:00 AM	82.351	0.001	0.001	9.838	0.001	0.001	0.001	9.660	0.001	0.001	0.001	9.718	0.001	0.000	0.000	0.000	9.848	0.001	0.001	0.000	9.847
4/25/2022	12:10 AM	82.527	0.001	0.001	9.838	0.001	0.001	0.001	9.660	0.001	0.001	0.001	9.719	0.001	0.000	0.000	0.000	9.849	0.001	0.001	0.000	9.847
